Division,WeightClassKg,Place,Name,Team,BodyweightKg,Best3SquatKg,Best3BenchKg,Best3DeadliftKg,TotalKg,Equipment,Event,Sex
Boys,52,1,Juan Duran,Lubbock Cooper,45.63,117.93,70.31,151.95,340.19,Single-ply,SBD,M
Boys,52,2,Landon Nail,Lubbock Cooper,49.53,113.4,61.23,131.54,306.17,Single-ply,SBD,M
Boys,52,3,Justin Rodriguez,Lubbock Cooper,50.8,111.13,56.7,133.81,301.64,Single-ply,SBD,M
Boys,52,4,Efren Miranda,Levelland,50.53,104.33,49.9,113.4,267.62,Single-ply,SBD,M
Boys,52,5,Noel Ybarra,Pecos,51.26,102.06,56.7,108.86,267.62,Single-ply,SBD,M
Boys,52,6,Kordell Lawrence,Dalhart,43.27,70.31,40.82,79.38,190.51,Single-ply,SBD,M
Boys,52,DQ,Eric Hernandez,Andrews,51.94,,,,,Single-ply,SBD,M
Boys,56,1,Reid Clanton,Midland Greenwood,54.79,158.76,97.52,181.44,437.72,Single-ply,SBD,M
Boys,56,2,Tyler Narin,Big Spring,54.25,145.15,95.25,151.95,392.36,Single-ply,SBD,M
Boys,56,3,Clayton Kothmann,Midland Classical Academy,53.98,140.61,74.84,158.76,374.21,Single-ply,SBD,M
Boys,56,4,Kevin Gonzalez,Fort Stockton,54.52,120.2,79.38,151.95,351.53,Single-ply,SBD,M
Boys,56,5,John Nailor,Midland Greenwood,54.43,140.61,72.57,115.67,328.85,Single-ply,SBD,M
Boys,56,6,Jacob Jackson,Vernon,55.52,115.67,68.04,129.27,312.98,Single-ply,SBD,M
Boys,56,7,Tandon Jones,Levelland,56,95.25,61.23,108.86,265.35,Single-ply,SBD,M
Boys,56,8,Emilio Miranda,Levelland,55.25,102.06,47.63,113.4,263.08,Single-ply,SBD,M
Boys,56,DQ,Salvador Antillon,Seminole,56,,,,,Single-ply,SBD,M
Boys,60,1,Justin Workman,Pecos,59.42,136.08,99.79,179.17,415.04,Single-ply,SBD,M
Boys,60,2,Cole Byerly,Midland Greenwood,58.42,154.22,97.52,161.03,412.77,Single-ply,SBD,M
Boys,60,3,Jay Lomas,Sweetwater,59.33,156.49,95.25,161.03,412.77,Single-ply,SBD,M
Boys,60,4,Miguel Espino,Perryton,58.97,122.47,77.11,176.9,376.48,Single-ply,SBD,M
Boys,60,5,Daniel Valenzuela,Pecos,59.69,133.81,74.84,165.56,374.21,Single-ply,SBD,M
Boys,60,6,Michael Condarco,Seminole,59.06,129.27,77.11,151.95,358.34,Single-ply,SBD,M
Boys,60,7,Israel Celaya,Fort Stockton,59.33,122.47,74.84,142.88,340.19,Single-ply,SBD,M
Boys,60,8,Ryan Punchard,Lubbock Cooper,59.42,124.74,77.11,136.08,337.93,Single-ply,SBD,M
Boys,60,9,Zach Sanchez,Levelland,58.97,115.67,79.38,124.74,319.78,Single-ply,SBD,M
Boys,60,DQ,Jose Hernandez,Midland Greenwood,59.69,136.08,,,,Single-ply,SBD,M
Boys,60,DQ,Fabian Bencomo,Dalhart,59.96,,,,,Single-ply,SBD,M
Boys,67.5,1,Andrew Alvidrez,Seminole,65.41,195.04,127.01,204.12,526.17,Single-ply,SBD,M
Boys,67.5,2,Donald Baker,Sweetwater,66.22,190.51,115.67,185.97,492.15,Single-ply,SBD,M
Boys,67.5,3,Franky Medina,Dalhart,65.5,179.17,102.06,170.1,451.32,Single-ply,SBD,M
Boys,67.5,4,Dominic Baca,Dalhart,66.22,154.22,95.25,188.24,437.72,Single-ply,SBD,M
Boys,67.5,5,Alek Cruz,Lubbock Cooper,63.05,163.29,102.06,149.69,415.04,Single-ply,SBD,M
Boys,67.5,6,Abraham Trevino,Lubbock Cooper,65.41,147.42,102.06,161.03,410.5,Single-ply,SBD,M
Boys,67.5,7,Juan Gonzalez,Fort Stockton,67.04,151.95,79.38,156.49,387.82,Single-ply,SBD,M
Boys,67.5,8,Jack Lehman,Midland Classical Academy,65.95,140.61,81.65,154.22,376.48,Single-ply,SBD,M
Boys,67.5,9,Derrick Garcia,Pecos,65.23,127.01,95.25,151.95,374.21,Single-ply,SBD,M
Boys,67.5,DQ,Robert Martinez,Big Spring,64.77,,,,,Single-ply,SBD,M
Boys,67.5,DQ,Alex Valdez,Andrews,65.95,,,,,Single-ply,SBD,M
Boys,75,1,Cailer Woolam,Lubbock Cooper,73.84,226.8,136.08,263.08,625.96,Single-ply,SBD,M
Boys,75,2,Guillermo Davila,Dalhart,73.94,210.92,113.4,201.85,526.17,Single-ply,SBD,M
Boys,75,3,Austin Marlett,Sweetwater,73.75,188.24,111.13,195.04,494.42,Single-ply,SBD,M
Boys,75,4,Bj Trevino,Lubbock Cooper,71.4,192.78,95.25,197.31,485.34,Single-ply,SBD,M
Boys,75,5,Ramon Juarez,Seminole,74.39,181.44,104.33,199.58,485.34,Single-ply,SBD,M
Boys,75,6,Steven Le,Sweetwater,72.21,188.24,102.06,174.63,464.93,Single-ply,SBD,M
Boys,75,7,Ben Rodriguez,Fort Stockton,73.21,163.29,92.99,190.51,446.79,Single-ply,SBD,M
Boys,75,8,Joe Macias,Andrews,71.94,170.1,104.33,167.83,442.25,Single-ply,SBD,M
Boys,75,9,Oscar Sanchez,Fort Stockton,72.57,167.83,102.06,165.56,435.45,Single-ply,SBD,M
Boys,75,10,Tycer Farmer,Lubbock Cooper,72.12,149.69,106.59,167.83,424.11,Single-ply,SBD,M
Boys,75,11,Justice Andrews,Monahans,74.12,158.76,99.79,163.29,421.84,Single-ply,SBD,M
Boys,82.5,1,Fili Jaquez,Lubbock Cooper,79.29,258.55,154.22,260.82,673.58,Single-ply,SBD,M
Boys,82.5,2,Hector Ontiveros,Fort Stockton,80.1,192.78,113.4,215.46,521.63,Single-ply,SBD,M
Boys,82.5,3,Rickey Harcrow,Midland Greenwood,81.28,199.58,120.2,188.24,508.02,Single-ply,SBD,M
Boys,82.5,4,Zack Macmahen,Vernon,79.11,170.1,90.72,208.65,469.47,Single-ply,SBD,M
Boys,82.5,5,Dexter Longley,Seminole,75.93,161.03,99.79,192.78,453.59,Single-ply,SBD,M
Boys,82.5,6,John David Crenshaw,Andrews,79.56,158.76,113.4,181.44,453.59,Single-ply,SBD,M
Boys,82.5,7,Brady McClellan,Lubbock Cooper,80.47,165.56,92.99,192.78,451.32,Single-ply,SBD,M
Boys,82.5,8,Kain Alexander,Levelland,78.29,158.76,90.72,181.44,430.91,Single-ply,SBD,M
Boys,82.5,9,Jake Strickland,Monahans,79.02,167.83,102.06,161.03,430.91,Single-ply,SBD,M
Boys,82.5,10,Matt Guajardo,Levelland,76.11,161.03,97.52,154.22,412.77,Single-ply,SBD,M
Boys,90,1,Orlando Haymon,Vernon,88.72,210.92,127.01,258.55,596.47,Single-ply,SBD,M
Boys,90,2,Dustin Rea,Midland Greenwood,83.37,208.65,129.27,206.38,544.31,Single-ply,SBD,M
Boys,90,3,Dalton Driver,Seminole,85.64,213.19,120.2,210.92,544.31,Single-ply,SBD,M
Boys,90,4,Miko Campos,Snyder,87.54,190.51,117.93,195.04,503.49,Single-ply,SBD,M
Boys,90,5,Gabe Marquez,Dalhart,85,192.78,113.4,185.97,492.15,Single-ply,SBD,M
Boys,90,6,Chance Arriaga,Fort Stockton,87.72,181.44,111.13,185.97,478.54,Single-ply,SBD,M
Boys,90,7,Nathan Tone,Monahans,84.46,181.44,97.52,192.78,471.74,Single-ply,SBD,M
Boys,90,8,Joey Varela,Pecos,87.09,172.37,97.52,192.78,462.66,Single-ply,SBD,M
Boys,90,9,Jahari Vanover,Big Spring,86.91,183.7,92.99,167.83,444.52,Single-ply,SBD,M
Boys,90,10,Roy Flores,Levelland,87.36,190.51,90.72,163.29,444.52,Single-ply,SBD,M
Boys,90,DQ,Kevin Olvera,Perryton,84.37,,,,,Single-ply,SBD,M
Boys,90,DQ,Ronnie Bell,Big Spring,87.36,,,,,Single-ply,SBD,M
Boys,100,1,Marcus Trujillo,Dalhart,99.52,272.16,117.93,215.46,605.55,Single-ply,SBD,M
Boys,100,2,Azel Alvidrez,Andrews,95.71,208.65,145.15,235.87,589.67,Single-ply,SBD,M
Boys,100,3,Christian Gonzales,Monahans,92.9,231.33,140.61,197.31,569.26,Single-ply,SBD,M
Boys,100,4,Sebastian Lopez,Lubbock Cooper,96.71,185.97,138.35,219.99,544.31,Single-ply,SBD,M
Boys,100,5,Eddie Campos,Levelland,96.25,219.99,140.61,181.44,542.04,Single-ply,SBD,M
Boys,100,6,Tyler Brewer,Dalhart,98.61,204.12,113.4,206.38,523.9,Single-ply,SBD,M
Boys,100,7,Manny Rodriguez,Fort Stockton,97.43,185.97,111.13,204.12,501.22,Single-ply,SBD,M
Boys,100,8,Chris Lindem,Big Spring,97.43,183.7,120.2,185.97,489.88,Single-ply,SBD,M
Boys,100,9,Austin Cantu,Big Spring,99.43,183.7,117.93,174.63,476.27,Single-ply,SBD,M
Boys,100,10,Jackson Stevens,Lubbock Cooper,92.08,170.1,115.67,195.04,480.81,Single-ply,SBD,M
Boys,100,DQ,Javier Torres,Dalhart,96.52,,,,,Single-ply,SBD,M
Boys,110,1,Trae Taylor,Levelland,102.87,272.16,145.15,276.69,694,Single-ply,SBD,M
Boys,110,2,Garrett Ford,Monahans,110,219.99,138.35,231.33,589.67,Single-ply,SBD,M
Boys,110,4,Evan Card,Fort Stockton,103.69,226.8,122.47,226.8,576.06,Single-ply,SBD,M
Boys,110,5,Kendall Rea,Sweetwater,102.69,199.58,149.69,199.58,548.85,Single-ply,SBD,M
Boys,110,6,Nick Perez,Snyder,106.59,190.51,90.72,195.04,476.27,Single-ply,SBD,M
Boys,110,7,Michael Gallegos,Lubbock Cooper,106.87,158.76,111.13,199.58,469.47,Single-ply,SBD,M
Boys,110,8,Kyle Rickman,Seminole,109.77,167.83,117.93,181.44,467.2,Single-ply,SBD,M
Boys,110,9,Tony Huynh,Seminole,107.05,188.24,108.86,165.56,462.66,Single-ply,SBD,M
Boys,110,10,Justin Johnson,Pecos,104.14,181.44,102.06,154.22,437.72,Single-ply,SBD,M
Boys,110,11,Tomas Vidales,Levelland,104.87,167.83,86.18,167.83,421.84,Single-ply,SBD,M
Boys,110,12,Fabian Rondan,Andrews,100.06,163.29,99.79,163.29,426.38,Single-ply,SBD,M
Boys,110,13,Spencer Holsey,Borger,109.23,231.33,124.74,235.87,591.94,Single-ply,SBD,M
Boys,125,1,Jeremy Garza,Snyder,119.93,235.87,151.95,208.65,596.47,Single-ply,SBD,M
Boys,125,2,Michael Powers,Fort Stockton,112.13,208.65,136.08,224.53,569.26,Single-ply,SBD,M
Boys,125,3,Nick Irwin,Snyder,113.85,231.33,122.47,210.92,564.72,Single-ply,SBD,M
Boys,125,4,Eldon Niblett,Midland Greenwood,118.84,231.33,113.4,183.7,528.44,Single-ply,SBD,M
Boys,125,5,Chris Simmons,Levelland,117.3,199.58,147.42,172.37,519.36,Single-ply,SBD,M
Boys,125,6,Aaron Steelman,Snyder,118.12,208.65,120.2,190.51,519.36,Single-ply,SBD,M
Boys,125,7,Cristian Aguirre,Fort Stockton,111.95,195.04,115.67,197.31,508.02,Single-ply,SBD,M
Boys,125,8,Javier Gonzalez,Borger,110.86,158.76,95.25,185.97,439.98,Single-ply,SBD,M
Boys,125,DQ,Aric Rutledge,Big Spring,119.11,224.53,111.13,,,Single-ply,SBD,M
Boys,125,DQ,Felix Garcia,Seminole,112.94,,,,,Single-ply,SBD,M
Boys,125,DQ,O'Scotty Castro,Dalhart,119.48,,,,,Single-ply,SBD,M
Boys,125+,1,Byron Lara,Lubbock Cooper,139.89,226.8,238.14,222.26,687.19,Single-ply,SBD,M
Boys,125+,2,Nicolas Franco,Pecos,156.85,258.55,170.1,206.38,635.03,Single-ply,SBD,M
Boys,125+,3,Dallam Read,Dalhart,125.65,226.8,133.81,256.28,616.89,Single-ply,SBD,M
Boys,125+,4,Cole Coomer,Andrews,148.96,233.6,133.81,226.8,594.21,Single-ply,SBD,M
Boys,125+,5,Dimitri Pena,Monahans,157.22,244.94,129.27,188.24,562.45,Single-ply,SBD,M
Boys,125+,6,Garrett Brandenburg,Monahans,136.89,229.06,149.69,176.9,555.65,Single-ply,SBD,M
Boys,125+,7,Easton Elrod,Seminole,142.61,226.8,122.47,204.12,553.38,Single-ply,SBD,M
Boys,125+,8,Dominick Puente,Levelland,130.27,215.46,120.2,192.78,528.44,Single-ply,SBD,M
Boys,125+,9,Justin Barrera,Dalhart,125.92,204.12,97.52,195.04,496.68,Single-ply,SBD,M
Boys,125+,10,Dax Cave,Midland Greenwood,125.65,195.04,106.59,183.7,485.34,Single-ply,SBD,M
Boys,125+,11,Aaron Salgado,Pecos,133.08,190.51,104.33,181.44,476.27,Single-ply,SBD,M
Boys,,DQ,Michael Nagy,Seminole,,,,,,Single-ply,SBD,M
Boys,,DQ,Trey Harvey,Sweetwater,,,,,,Single-ply,SBD,M
Boys,,DQ,Mitchel Godbolt,Levelland,,,,,,Single-ply,SBD,M
