Place,Name,Sex,CyrillicName,WeightClassKg,Event,Equipment,BirthDate,Division,BodyweightKg,Squat1Kg,Squat2Kg,Squat3Kg,Best3SquatKg,Bench1Kg,Bench2Kg,Bench3Kg,Best3BenchKg,Bench4Kg,Deadlift1Kg,Deadlift2Kg,Deadlift3Kg,Best3DeadliftKg,TotalKg
1,Andrey Platonov,M,Андрей Платонов,75,SBD,Wraps,1995-12-19,T2,70.1,-150,150,160,160,90,-97.5,-97.5,90,,150,165,180,180,430
1,Pavel Simanin,M,Павел Симанин,82.5,SBD,Wraps,1994-06-12,T3,82.5,170,185,-190,185,110,120,125,125,,180,190,205,205,515
2,Aleksandr Mironov,M,Александр Миронов,82.5,SBD,Wraps,1994-03-09,T3,80.3,70,-120,-120,70,70,-85,-85,70,,120,145,160,160,300
1,Nikolay Dokuchaev,M,Николай Докучаев,82.5,SBD,Wraps,1992-04-07,J,82.1,-180,190,200,200,105,112.5,117.5,117.5,,-190,202.5,212.5,212.5,530
1,Artem Melnikov,M,Артем Мельников,90,SBD,Wraps,1995-10-09,T3,85.4,110,120,130,130,100,102.5,105,105,,130,145,155,155,390
2,Konstantin Lepeshkin,M,Константин Лепешкин,90,SBD,Wraps,1994-06-29,T3,87.4,-80,90,-120,90,80,90,-100,90,,100,160,180,180,360
1,Anton Shkvarskiy,M,Антон Шкварский,90,SBD,Wraps,1988-02-22,O,88,200,-210,-210,200,130,140,150,150,,190,205,220,220,570
1,Yuriy Kozlov,M,Юрий Козлов,100,SBD,Wraps,1995-11-28,T3,91.4,120,135,145,145,95,100,-105,100,,-120,130,145,145,390
1,Aleksandr Lokhadynov,M,Александр Лохадынов,100,SBD,Wraps,1992-08-25,J,93.3,170,190,205,205,130,140,150,150,,190,210,225,225,580
1,Valeriy Kuznetsov,M,Валерий Кузнецов,100,SBD,Wraps,1983-08-21,O,98.3,280,300,-315,300,180,190,-200,190,,260,-280,280,280,770
2,Aleksandr Gusev,M,Александр Гусев,100,SBD,Wraps,1973-08-08,O,92.4,230,-240,250,250,130,-137.5,140,140,,210,225,-240,225,615
1,Aleksandr Gusev,M,Александр Гусев,100,SBD,Wraps,1973-08-08,M1,92.4,230,-240,250,250,130,-137.5,140,140,,210,225,-240,225,615
1,Ilya Shevelev,M,Илья Шевелев,125,SBD,Wraps,1997-08-02,T2,124.1,205,220,235,235,120,130,-137.5,130,,230,250,262.5,262.5,627.5
1,Sergey Sadovnikov,M,Сергей Садовников,125,SBD,Wraps,1976-05-05,O,110.7,200,215,235,235,160,-170,175,175,,-250,250,280,280,690
2,Kurban Idrisov,M,Курбан Идрисов,125,SBD,Wraps,1986-11-28,O,117.3,210,-240,-240,210,160,170,180,180,,220,240,-260,240,630
1,Vadim Poberukhin,M,Вадим Поберухин,125,SBD,Wraps,1961-07-18,M3,114.5,150,,,150,170,180,190,190,,-290,290,310,310,650
1,Eduard Metalichenko,M,Эдуард Металиченко,140,SBD,Wraps,1979-03-25,O,129.6,270,280,295,295,175,180,187.5,187.5,,270,282.5,-292.5,282.5,765
1,Nikolay Altunin,M,Николай Алтунин,75,SBD,Multi-ply,1977-07-24,O,71.2,200,230,-240,230,140,150,-160,150,,220,240,-250,240,620
1,Ivan Zevyakin,M,Иван Зевякин,100,SBD,Multi-ply,1988-06-28,O,100,380,-400,400,400,-230,230,245,245,,330,-355,355,355,1000
1,Roman Demin,M,Роман Демин,125,SBD,Multi-ply,1980-04-24,O,114,310,330,340,340,220,235,-242.5,235,,295,315,-330,315,890
2,Aleksey Kuchma,M,Алексей Кучма,125,SBD,Multi-ply,1979-01-04,O,113,320,330,340,340,220,230,240,240,,280,290,300,300,880
3,Aleksandr Trezinskiy,M,Александр Трезинский,125,SBD,Multi-ply,1980-06-10,O,116.3,320,-330,330,330,210,-220,-222.5,210,,290,305,315,315,855
1,Roman Belousov,M,Роман Белоусов,56,B,Raw,1991-10-19,O,52.4,,,,,135,140,145,145,,,,,,145
1,Artem Nekhaev,M,Артем Нехаев,67.5,B,Raw,1987-05-13,O,66.7,,,,,140,147.5,152.5,152.5,,,,,,152.5
1,Andrey Platonov,M,Андрей Платонов,75,B,Raw,1995-12-19,T2,70.1,,,,,90,95,100,100,,,,,,100
1,Aleksandr Vladimirov,M,Александр Владимиров,75,B,Raw,1982-02-06,O,74.8,,,,,150,160,165,165,,,,,,165
DQ,Vladimir Konoplev,M,Владимир Коноплев,75,B,Raw,1982-10-02,O,74.4,,,,,-150,-150,-150,,,,,,,
1,Ivan Ivanov,M,Иван Иванов,82.5,B,Raw,1997-06-17,T2,82,,,,,110,120,125,125,,,,,,125
1,Artur Shalushkin,M,Артур Шалушкин,82.5,B,Raw,1988-03-27,O,82.4,,,,,172.5,177.5,182.5,182.5,,,,,,182.5
2,Maksim Volkov,M,Максим Волков,82.5,B,Raw,1984-09-05,O,81.4,,,,,170,177.5,-182.5,177.5,,,,,,177.5
3,Ruslan Putivskiy,M,Руслан Путивский,82.5,B,Raw,1977-06-03,O,81.2,,,,,165,172.5,-180,172.5,,,,,,172.5
4,Aleksey Sukhoruchenko,M,Алексей Сухорученко,82.5,B,Raw,1982-09-16,O,81.3,,,,,125,130,-135,130,,,,,,130
1,Evgeniy Starodubtsev,M,Евгений Стародубцев,90,B,Raw,1991-12-17,J,89.4,,,,,-147.5,147.5,-155,147.5,,,,,,147.5
1,Sergey Kurochkin,M,Сергей Курочкин,90,B,Raw,1974-12-30,O,89.1,,,,,190,200,-205,200,,,,,,200
2,Dmitriy Shumilov,M,Дмитрий Шумилов,90,B,Raw,1981-05-07,O,87.4,,,,,185,190,195,195,-200,,,,,195
DQ,Sergey Makarov,M,Сергей Макаров,90,B,Raw,1977-09-28,O,83.9,,,,,-160,-160,,,,,,,,
1,Eduard Gavrilchenko,M,Эдуард Гаврильченко,90,B,Raw,1967-08-30,M2,89.7,,,,,170,180,190,190,,,,,,190
1,Sergey Kryukov,M,Сергей Крюков,100,B,Raw,1992-08-11,J,97.4,,,,,-155,160,165,165,,,,,,165
1,Aleksandr Grigorov,M,Александр Григоров,100,B,Raw,1984-07-29,O,93.7,,,,,205,-210,210,210,,,,,,210
DQ,Roman Ananev,M,Роман Ананьєв,100,B,Raw,1983-06-16,O,95.4,,,,,-205,-205,-205,,,,,,,
1,Igor Zakharov,M,Игорь Захаров,100,B,Raw,1969-07-31,M1,82,,,,,140,147.5,152.5,152.5,,,,,,152.5
1,Aleksandr Dankovtsev,M,Александр Данковцев,110,B,Raw,1990-08-28,J,103.5,,,,,-190,190,-202.5,190,,,,,,190
2,Sergey Kosarev,M,Сергей Косарев,110,B,Raw,1993-09-14,J,101.1,,,,,140,150,155,155,,,,,,155
1,Aleksandr Plaksin,M,Александр Плаксин,110,B,Raw,1987-02-14,O,106.9,,,,,200,210,220,220,,,,,,220
2,Igor Kudinov,M,Игорь Кудинов,110,B,Raw,1982-03-16,O,109.1,,,,,160,170,180,180,,,,,,180
3,Sergey Ryazanov,M,Сергей Рязанов,110,B,Raw,1988-06-17,O,100.9,,,,,-140,150,-155,150,,,,,,150
1,Sergey Yamshchikov,M,Сергей Ямщиков,125,B,Raw,1976-04-04,O,120.3,,,,,220,230,-235,230,,,,,,230
1,Roman Bulatnikov,M,Роман Булатников,125,B,Raw,1970-04-24,M1,112.5,,,,,170,180,185,185,,,,,,185
1,Bogdan Kozak,M,Богдан Козак,140,B,Raw,1984-04-05,O,133.4,,,,,250,260,265,265,,,,,,265
DQ,Maksim Volkov,M,Максим Волков,82.5,B,Multi-ply,1984-09-05,O,81.4,,,,,-220,,,,,,,,,
1,Mikhail Balakhonov,M,Михаил Балахонов,140,B,Multi-ply,1987-04-28,O,132.2,,,,,-170,170,180,180,,,,,,180
