Division,WeightClassKg,Place,Name,Team,BodyweightKg,Best3SquatKg,Best3BenchKg,Best3DeadliftKg,TotalKg,Equipment,Event,Sex
Freshmen Boys,52,1,Everardo Garcia,Roma,48.53,99.79,58.97,106.59,265.35,Single-ply,SBD,M
Freshmen Boys,52,2,Eddie Macias,Laredo Nixon,46.45,102.06,54.43,102.06,258.55,Single-ply,SBD,M
Freshmen Boys,56,1,Mark Ramirez,Roma,55.52,113.4,58.97,113.4,285.76,Single-ply,SBD,M
Freshmen Boys,60,1,Jose Ruvalcaba,Laredo Johnson,59.69,136.08,68.04,149.69,353.8,Single-ply,SBD,M
Freshmen Boys,60,2,Bryan Avalos,Laredo United South,56.52,113.4,61.23,142.88,317.51,Single-ply,SBD,M
Freshmen Boys,60,3,Ramiro Rangel,Laredo Cigarroa,57.88,97.52,61.23,124.74,283.5,Single-ply,SBD,M
Freshmen Boys,60,4,Jorge Soto,Roma,59.87,113.4,63.5,104.33,281.23,Single-ply,SBD,M
Freshmen Boys,60,DQ,Mathew Ruiz,Laredo Nixon,57.97,,,,,Single-ply,SBD,M
Freshmen Boys,67.5,1,Juan Molina,Laredo Johnson,65.32,136.08,68.04,167.83,371.95,Single-ply,SBD,M
Freshmen Boys,67.5,2,Javi Ledezma,Laredo United,62.51,124.74,68.04,124.74,317.51,Single-ply,SBD,M
Freshmen Boys,67.5,3,Jonathan Lomeli,Laredo Johnson,63.5,95.25,61.23,151.95,308.44,Single-ply,SBD,M
Freshmen Boys,67.5,4,Andrew Gonzalez,Laredo Alexander,64.32,108.86,49.9,136.08,294.84,Single-ply,SBD,M
Freshmen Boys,67.5,5,Lloyd Soto,Laredo United,61.05,104.33,58.97,127.01,290.3,Single-ply,SBD,M
Freshmen Boys,67.5,6,Severo Morales,Laredo Nixon,65.59,108.86,61.23,113.4,283.5,Single-ply,SBD,M
Freshmen Boys,67.5,7,Jaylen Flores,Laredo United,60.42,104.33,56.7,117.93,278.96,Single-ply,SBD,M
Freshmen Boys,67.5,8,Jeffrey Palacios,Laredo Nixon,61.69,58.97,54.43,92.99,206.38,Single-ply,SBD,M
Freshmen Boys,75,1,Andre Pedroza,Laredo Nixon,70.22,140.61,79.38,172.37,392.36,Single-ply,SBD,M
Freshmen Boys,75,2,Mario Valdez,Laredo Nixon,74.39,142.88,70.31,145.15,358.34,Single-ply,SBD,M
Freshmen Boys,75,3,David Macias,Laredo United,73.94,122.47,58.97,154.22,335.66,Single-ply,SBD,M
Freshmen Boys,75,4,Gilbert Cardenas,Laredo Nixon,71.21,102.06,74.84,136.08,312.98,Single-ply,SBD,M
Freshmen Boys,75,5,Wyatt Poole,Bruni,70.13,120.2,65.77,117.93,303.91,Single-ply,SBD,M
Freshmen Boys,75,6,Carlos Huerta,Laredo Alexander,70.58,83.91,63.5,124.74,272.16,Single-ply,SBD,M
Freshmen Boys,75,DQ,Antonio Garza,Laredo Johnson,69.58,142.88,,,,Single-ply,SBD,M
Freshmen Boys,82.5,1,Oscar Monroy,Laredo Nixon,81.56,151.95,99.79,163.29,415.04,Single-ply,SBD,M
Freshmen Boys,82.5,2,Alex Moreno,Laredo Johnson,81.74,154.22,83.91,165.56,403.7,Single-ply,SBD,M
Freshmen Boys,82.5,3,Ismael Espinoza,Laredo Johnson,78.56,149.69,86.18,154.22,390.09,Single-ply,SBD,M
Freshmen Boys,82.5,4,Jose Rodriguez,Laredo Nixon,82.1,136.08,74.84,142.88,353.8,Single-ply,SBD,M
Freshmen Boys,82.5,5,Adalberto Alaniz,Roma,82.1,129.27,72.57,124.74,326.59,Single-ply,SBD,M
Freshmen Boys,82.5,6,Carlos Zapata,Laredo United,79.2,106.59,56.7,142.88,306.17,Single-ply,SBD,M
Freshmen Boys,82.5,7,Joshua Rodriguez,Laredo Alexander,75.57,106.59,65.77,129.27,301.64,Single-ply,SBD,M
Freshmen Boys,90,1,Ismael Garcia,Laredo Johnson,89.81,188.24,83.91,151.95,424.11,Single-ply,SBD,M
Freshmen Boys,90,2,Santino Palizo,Laredo Alexander,87.18,151.95,99.79,158.76,410.5,Single-ply,SBD,M
Freshmen Boys,90,3,JR Rodriguez,Laredo Nixon,88.9,147.42,72.57,158.76,378.75,Single-ply,SBD,M
Freshmen Boys,90,4,Alex Alvarez,Roma,89.81,142.88,90.72,133.81,367.41,Single-ply,SBD,M
Freshmen Boys,90,5,Victor Pena,Roma,86.64,127.01,72.57,161.03,360.61,Single-ply,SBD,M
Freshmen Boys,90,6,Dominique Madrid,Laredo Johnson,86,124.74,70.31,145.15,340.19,Single-ply,SBD,M
Freshmen Boys,100,1,Luis Pacheco,Laredo Nixon,94.8,185.97,77.11,181.44,444.52,Single-ply,SBD,M
Freshmen Boys,100,2,Kristian Korrodi,Laredo Alexander,95.98,154.22,95.25,181.44,430.91,Single-ply,SBD,M
Freshmen Boys,100,3,Jorge Galvan,Laredo Johnson,95.07,163.29,86.18,174.63,424.11,Single-ply,SBD,M
Freshmen Boys,100,4,Victor Flores,Laredo Johnson,98.43,149.69,90.72,161.03,401.43,Single-ply,SBD,M
Freshmen Boys,100,5,Luis Canales,Laredo Alexander,93.44,145.15,86.18,165.56,396.89,Single-ply,SBD,M
Freshmen Boys,100,6,Cesar Castaneda,Laredo United,92.53,113.4,65.77,145.15,324.32,Single-ply,SBD,M
Freshmen Boys,100,7,Josue Hernandez,Laredo United South,97.89,90.72,70.31,113.4,274.42,Single-ply,SBD,M
Freshmen Boys,100,8,Vladimir Villanueva,Laredo United South,95.35,92.99,63.5,113.4,269.89,Single-ply,SBD,M
Freshmen Boys,100,DQ,Isai Morales,Laredo United,96.98,129.27,,,,Single-ply,SBD,M
Freshmen Boys,110,1,Mathew Vazquez,Laredo Alexander,103.96,151.95,95.25,204.12,451.32,Single-ply,SBD,M
Freshmen Boys,110,2,Frankie Galan,Roma,101.97,154.22,108.86,156.49,419.57,Single-ply,SBD,M
Freshmen Boys,110,3,Cristian Gonzalez #2,Laredo Nixon,107.68,163.29,68.04,185.97,417.3,Single-ply,SBD,M
Freshmen Boys,110,4,Pablo Salazar,Laredo Nixon,103.6,163.29,88.45,163.29,415.04,Single-ply,SBD,M
Freshmen Boys,110,5,Khalid Santiago,Laredo United South,108.68,142.88,61.23,185.97,390.09,Single-ply,SBD,M
Freshmen Boys,110,6,Luis Gonzalez,Laredo Alexander,108.5,120.2,81.65,145.15,347,Single-ply,SBD,M
Freshmen Boys,110,DQ,Jerremy Ramirez,Laredo United,104.96,151.95,,,,Single-ply,SBD,M
Freshmen Boys,125,1,Mymel Jaramillo,Laredo Johnson,112.76,190.51,99.79,181.44,471.74,Single-ply,SBD,M
Freshmen Boys,125,2,Oziel Lugo,Laredo Nixon,119.29,138.35,90.72,170.1,399.16,Single-ply,SBD,M
Freshmen Boys,125,3,Frank Ramirez,Laredo Cigarroa,121.29,131.54,77.11,147.42,356.07,Single-ply,SBD,M
Freshmen Boys,125,4,Arturo Benavides,Zapata,119.66,136.08,74.84,131.54,342.46,Single-ply,SBD,M
Freshmen Boys,125+,1,Adrian Ramirez,Laredo Cigarroa,131.9,174.63,77.11,158.76,410.5,Single-ply,SBD,M
