Place,Name,State,WeightClassKg,BodyweightKg,Age,Best3SquatKg,Best3BenchKg,Best3DeadliftKg,TotalKg,Sex,Division,Equipment,Bench4Kg,Event
1,Dinh Ngo,CA,52,51.40,23,112.50,45.00,117.50,275.00,F,Juniors 20-23,Raw,,SBD
2,Tiffani Tom,CA,52,51.40,22,112.50,45.00,115.00,272.50,F,Juniors 20-23,Raw,,SBD
3,Tiffany Tran,CA,52,52.00,20,110.00,42.50,117.50,270.00,F,Juniors 20-23,Raw,,SBD
4,JasmineSolder,CA,52,51.20,22,75.00,37.50,105.00,217.50,F,Juniors 20-23,Raw,,SBD
1,Jessy Howard,CA,67.5,65.60,20,120.00,65.00,150.00,335.00,F,Juniors 20-23,Raw,,SBD
2,Aubrey Yip,CA,67.5,63.40,21,107.50,55.00,125.00,287.50,F,Juniors 20-23,Raw,,SBD
1,Emily Kovar,CA,75,74.50,19,100.00,55.00,110.00,265.00,F,Juniors 18-19,Raw,,SBD
1,Sarah Bell,CA,75,73.50,22,127.50,78.00,155.00,360.50,F,Juniors 20-23,Raw,,SBD
1,Leslie Cachola,CA,52,50.30,26,80.00,50.00,100.00,230.00,F,Open,Raw,,SBD
1,Jennifer Correia,CA,56,55.40,30,115.00,70.00,155.00,340.00,F,Open,Raw,,SBD
1,Falon Gallipeau,CA,60,59.40,27,120.00,72.50,150.00,342.50,F,Open,Raw,,SBD
1,Susan Cho,CA,67.5,61.10,29,95.00,40.00,92.50,227.50,F,Open,Raw,,SBD
1,Carrie Fernandez,CA,75,75.00,26,127.50,72.50,137.50,337.50,F,Open,Raw,,SBD
2,Katelyn McMullen,CA,75,73.90,24,117.50,60.00,145.00,322.50,F,Open,Raw,,SBD
3,Molly Crowther,CA,75,73.30,28,75.00,37.50,97.50,210.00,F,Open,Raw,,SBD
1,Melissa Dunlap,CA,82.5,81.20,33,160.00,72.50,145.00,377.50,F,Open,Raw,,SBD
2,Cyra Martinez,CA,82.5,81.30,25,140.00,67.50,145.00,352.50,F,Open,Raw,,SBD
3,Abby Burg,CA,82.5,81.60,30,120.00,65.00,162.50,347.50,F,Open,Raw,,SBD
1,Ligaya Busby,CA,67.5,63.80,59,75.00,37.50,95.00,207.50,F,Masters 55-59,Raw,,SBD
1,Gloria Beasley,CA,67.5,62.60,61,60.00,35.00,80.00,175.00,F,Masters 60-64,Raw,,SBD
1,Bren Johnson,CA,90,89.30,40,115.00,67.50,130.00,312.50,F,Masters 40-44,Raw,,SBD
1,Alan Le,CA,56,55.00,22,142.50,87.50,190.00,420.00,M,Juniors 20-23,Raw,,SBD
1,Troy Truong,CA,67.5,67.40,19,177.50,80.00,197.50,455.00,M,Juniors 18-19,Raw,,SBD
1,Donald Yu,CA,67.5,65.60,21,197.50,135.00,197.50,530.00,M,Juniors 20-23,Raw,,SBD
2,Karl Kangleon,CA,67.5,64.60,23,177.50,115.00,217.50,510.00,M,Juniors 20-23,Raw,,SBD
3,Mark Cambaliza,CA,67.5,65.30,23,150.00,107.50,215.00,472.50,M,Juniors 20-23,Raw,,SBD
1,Zachary Yamamoto,CA,75,75.00,19,215.00,152.50,250.00,617.50,M,Juniors 18-19,Raw,,SBD
2,Anthony Tran,CA,75,73.40,19,185.00,105.00,215.00,505.00,M,Juniors 18-19,Raw,,SBD
1,Alex Nguyen,CA,75,73.90,22,200.00,132.50,237.50,570.00,M,Juniors 20-23,Raw,,SBD
2,Allan Eslao,CA,75,71.30,22,202.50,107.50,217.50,527.50,M,Juniors 20-23,Raw,,SBD
3,Belino Sunga,CA,75,73.40,23,150.00,105.00,220.00,475.00,M,Juniors 20-23,Raw,,SBD
4,Nyan Soe,CA,75,71.30,22,160.00,90.00,200.00,450.00,M,Juniors 20-23,Raw,,SBD
1,Ryan Tran,CA,82.5,80.30,17,202.50,105.00,240.00,547.50,M,Juniors 16-17,Raw,,SBD
2,David Alziebler,CA,82.5,80.30,17,160.00,100.00,195.00,455.00,M,Juniors 16-17,Raw,,SBD
1,Daniel Romero,CA,82.5,82.50,22,192.50,125.00,230.00,547.50,M,Juniors 20-23,Raw,,SBD
2,Scott Jividen,NV,82.5,81.40,22,190.00,130.00,225.00,545.00,M,Juniors 20-23,Raw,,SBD
3,Kenneth Aganon,CA,82.5,80.40,22,197.50,125.00,220.00,542.50,M,Juniors 20-23,Raw,,SBD
4,Justin Jones,CA,82.5,81.30,23,157.50,130.00,202.50,490.00,M,Juniors 20-23,Raw,,SBD
5,Owen Klaiss,CA,82.5,79.20,20,147.50,120.00,202.50,470.00,M,Juniors 20-23,Raw,,SBD
1,Justin Woo,CA,90,89.80,23,212.50,137.50,225.00,575.00,M,Juniors 20-23,Raw,,SBD
2,Shawn Taylor,CA,90,87.50,21,200.00,110.00,232.50,542.50,M,Juniors 20-23,Raw,,SBD
3,Zachary Estreito,CA,90,87.40,20,187.50,92.50,200.00,480.00,M,Juniors 20-23,Raw,,SBD
4,David Park,CA,90,83.60,20,142.50,122.50,192.50,457.50,M,Juniors 20-23,Raw,,SBD
1,John Carandang,CA,100,98.00,19,200.00,142.50,250.00,592.50,M,Juniors 18-19,Raw,,SBD
2,Tommy Truong,CA,100,94.50,18,210.00,97.50,225.00,532.50,M,Juniors 18-19,Raw,,SBD
1,Ryan Jones,CA,100,99.80,21,202.50,137.50,232.50,572.50,M,Juniors 20-23,Raw,,SBD
2,Mark Fuqua,CA,100,90.30,23,165.00,125.00,210.00,500.00,M,Juniors 20-23,Raw,,SBD
1,Austin Dorer,CA,110,104.30,20,177.50,165.00,227.50,570.00,M,Juniors 20-23,Raw,,SBD
1,Joe Mass,CA,140+,167.70,23,297.50,175.00,295.00,767.50,M,Juniors 20-23,Raw,,SBD
1,Alan Le,CA,56,55.00,22,142.50,87.50,190.00,420.00,M,Open,Raw,,SBD
1,Josiah Harris,CA,75,72.10,26,202.50,160.00,235.00,597.50,M,Open,Raw,,SBD
2,Alex Nguyen,CA,75,73.90,22,200.00,132.50,237.50,570.00,M,Open,Raw,,SBD
3,Joshua Medina,CA,75,69.50,24,140.00,77.50,167.50,385.00,M,Open,Raw,,SBD
1,Augustine Vogele,CA,82.5,81.30,24,237.50,160.00,265.00,662.50,M,Open,Raw,,SBD
2,Jeff Choy,CA,82.5,81.10,38,165.00,135.00,207.50,507.50,M,Open,Raw,,SBD
3,Darryl Lee,CA,82.5,78.80,33,175.00,122.50,182.50,480.00,M,Open,Raw,,SBD
4,Andrew Liavore,CA,82.5,81.00,26,152.50,95.00,190.00,437.50,M,Open,Raw,,SBD
DQ,Thomas Gutierrez,CA,82.5,80.60,32,175.00,-122.50,200.00,,M,Open,Raw,,SBD
1,Jeremy Avilla,CA,90,88.50,27,260.00,142.50,322.50,725.00,M,Open,Raw,,SBD
2,Russell Bartholomew,CA,90,88.60,27,215.00,125.00,230.00,570.00,M,Open,Raw,,SBD
3,Ryan Saplan,CA,90,88.80,33,187.50,132.50,242.50,562.50,M,Open,Raw,,SBD
4,Joseph Sarcos,CA,90,89.20,24,177.50,150.00,227.50,555.00,M,Open,Raw,,SBD
5,David Muñoz,CA,90,89.80,29,190.00,130.00,232.50,552.50,M,Open,Raw,,SBD
6,Peter Archer,CA,90,89.10,25,195.00,120.00,212.50,527.50,M,Open,Raw,,SBD
7,Stephen Young,CA,90,83.40,33,175.00,125.00,217.50,517.50,M,Open,Raw,,SBD
8,Zachary Kalish,CA,90,88.60,24,190.00,132.50,195.00,517.50,M,Open,Raw,,SBD
1,Danilo Stewart,CA,100,99.10,27,212.50,132.50,252.50,597.50,M,Open,Raw,,SBD
2,Alex Campbell #1,CA,100,93.10,33,197.50,162.50,200.00,560.00,M,Open,Raw,,SBD
3,Joshua Robinson,CA,100,98.20,41,207.50,100.00,245.00,552.50,M,Open,Raw,,SBD
4,Michael Santos,CA,100,96.70,27,197.50,120.00,227.50,545.00,M,Open,Raw,,SBD
5,Augustus Nordstrom,CA,100,99.90,26,195.00,130.00,210.00,535.00,M,Open,Raw,,SBD
6,Matthew Gonzales,CA,100,95.60,30,165.00,120.00,162.50,447.50,M,Open,Raw,,SBD
1,Adrian Velasquez,CA,110,109.70,31,282.50,180.00,310.00,772.50,M,Open,Raw,,SBD
2,Jean Laguerre,NY,110,105.50,25,235.00,155.00,287.50,677.50,M,Open,Raw,,SBD
3,Christian Lee,CA,110,106.40,32,227.50,150.00,245.00,622.50,M,Open,Raw,,SBD
4,Elecio Babasa,CA,110,108.60,26,205.00,145.00,247.50,597.50,M,Open,Raw,,SBD
5,Joshua Zanze,CA,110,105.00,27,197.50,125.00,235.00,557.50,M,Open,Raw,,SBD
DQ,Kell Van Daal,CA,110,108.60,37,212.50,-132.50,,,M,Open,Raw,,SBD
1,Eric McCafferty,CA,82.5,78.90,42,185.00,117.50,231.00,533.50,M,Masters 40-44,Raw,,SBD
1,George Davis,CA,82.5,78.40,63,122.50,82.50,137.50,342.50,M,Masters 60-64,Raw,,SBD
1,Mike Tiktinsky,CA,90,86.90,68,117.50,95.00,137.50,350.00,M,Masters 65-69,Raw,,SBD
1,Joshua Robinson,CA,100,98.20,41,207.50,100.00,245.00,552.50,M,Masters 40-44,Raw,,SBD
1,Mark Busby,CA,125,118.70,55,182.50,155.00,230.00,567.50,M,Masters 55-59,Raw,,SBD
1,Victor Madarang,CA,67.5,65.80,21,200.00,105.00,230.00,535.00,M,Juniors 20-23,Wraps,,SBD
1,Nicholas Pigulski,CA,82.5,82.30,22,237.50,152.50,245.00,635.00,M,Juniors 20-23,Wraps,,SBD
DQ,Max Campana,CA,82.5,78.40,21,197.50,-125.00,215.00,,M,Juniors 20-23,Wraps,,SBD
1,Dillon Stall,CA,90,87.70,22,195.00,167.50,222.50,585.00,M,Juniors 20-23,Wraps,,SBD
2,Tyler Scott,CA,90,85.00,23,172.50,152.50,250.00,575.00,M,Juniors 20-23,Wraps,,SBD
1,Abel Villa,CA,100,97.90,19,190.00,155.00,227.50,572.50,M,Juniors 18-19,Wraps,,SBD
1,Gary Beerbower,CA,100,97.20,23,242.50,177.50,282.50,702.50,M,Juniors 20-23,Wraps,,SBD
2,Carter Kimble,CA,100,97.80,23,195.00,137.50,212.50,545.00,M,Juniors 20-23,Wraps,,SBD
1,Caleb Melton,CA,110,106.70,19,210.00,132.50,252.50,595.00,M,Juniors 18-19,Wraps,,SBD
1,Meshach Charan,CA,125,123.10,19,217.50,145.00,235.00,597.50,M,Juniors 18-19,Wraps,,SBD
1,Josiah Price,OR,56,55.00,51,125.00,97.50,150.00,372.50,M,Open,Wraps,,SBD
1,Shane Stewart,CA,90,89.20,36,277.50,197.50,265.00,740.00,M,Open,Wraps,,SBD
2,Keith Enderlein,CA,90,89.00,26,235.00,132.50,230.00,597.50,M,Open,Wraps,,SBD
1,Wade Zeno,CA,100,99.40,27,242.50,172.50,282.50,697.50,M,Open,Wraps,,SBD
DQ,Aaron Arruda,CA,110,107.50,28,-227.50,,,,M,Open,Wraps,,SBD
1,Shane Stewart,CA,90,89.20,36,277.50,197.50,265.00,740.00,M,Submasters 35-39,Wraps,,SBD
1,Josiah Price,OR,56,55.00,51,125.00,97.50,150.00,372.50,M,Masters 50-54,Wraps,,SBD
1,Antonio Jimenez,CA,90,84.30,41,215.50,60.00,205.00,480.50,M,Masters 40-44,Wraps,,SBD
1,Shawn Buckley,CA,100,98.80,32,345.50,220.00,320.00,885.50,M,Open,Single-ply,,SBD
DQ,Michael Gray,CA,140,134.70,32,215.00,-177.50,227.50,,M,Open,Single-ply,,SBD
1,Ravi Sharma,CA,52,50.70,19,,82.50,,82.50,M,Juniors 18-19,Raw,,B
1,Daly Khay,CA,82.5,77.10,19,,127.50,,127.50,M,Juniors 18-19,Raw,130,B
1,Gary Beerbower,CA,100,97.20,23,,177.50,,177.50,M,Juniors 20-23,Raw,,B
1,Ravi Sharma,CA,52,50.70,19,,82.50,,82.50,M,Open,Raw,,B
1,Dan Dudgeon,CA,90,82.90,39,,205.50,,205.50,M,Open,Raw,210,B
2,Jody Woods,CA,90,88.50,57,,187.50,,187.50,M,Open,Raw,,B
1,Evan McDaniel,CA,110,109.20,28,,150.00,,150.00,M,Open,Raw,,B
1,Dan Dudgeon,CA,90,82.90,39,,205.50,,205.50,M,Submasters 35-39,Raw,210,B
1,Michael Russell,CA,67.5,64.60,59,,92.50,,92.50,M,Masters 55-59,Raw,,B
1,Ted Keys,CA,90,89.20,53,,155.00,,155.00,M,Masters 50-54,Raw,,B
1,Jody Woods,CA,90,88.50,57,,187.50,,187.50,M,Masters 55-59,Raw,,B
1,Mike Tiktinsky,CA,90,86.90,68,,95.00,,95.00,M,Masters 65-69,Raw,,B
1,Bob Rudge,CA,90,87.80,73,,150.00,,150.00,M,Masters 70-74,Raw,,B
1,Stacy Dedrick,CA,100,99.60,50,,202.50,,202.50,M,Masters 50-54,Raw,,B
1,Brett Deeds,CA,125,120.10,44,,175.00,,175.00,M,Masters 40-44,Raw,,B
1,Pat Monahan,CA,125,120.60,57,,182.50,,182.50,M,Masters 55-59,Raw,,B
1,Michael Hughes,CA,140+,148.90,54,,177.50,,177.50,M,Masters 50-54,Raw,,B
1,Dan Dudgeon,CA,90,82.90,39,,257.50,,257.50,M,Submasters 35-39,Single-ply,,B
1,Stacy Dedrick,CA,100,99.60,50,,220.00,,220.00,M,Masters 50-54,Single-ply,,B
1,Gary Beerbower,CA,100,97.20,23,,,282.50,282.50,M,Juniors 20-23,Raw,,D
1,Gary Alexander,CA,82.5,78.50,39,,,207.50,207.50,M,Open,Raw,,D
1,Wade Zeno,CA,100,99.40,27,,,282.50,282.50,M,Open,Raw,,D
1,Mike Tiktinsky,CA,90,86.90,68,,,137.50,137.50,M,Masters 65-69,Raw,,D
1,Jody Woods,CA,90,88.50,57,,,285.50,285.50,M,Open,Single-ply,,D
1,Jody Woods,CA,90,88.50,57,,,285.50,285.50,M,Masters 55-59,Single-ply,,D
