Place,Name,Sex,Division,WeightClassKg,BodyweightKg,Age,Event,Best3SquatKg,Squat4Kg,Best3BenchKg,Bench4Kg,Best3DeadliftKg,Deadlift4Kg,TotalKg,Equipment
1,Monica Sparango,F,Novice,67.5,63.50,42,SBD,69.97,,49.90,,87.43,,207.29,Single-ply
1,Monica Sparango,F,M 40-44,67.5,63.50,42,SBD,69.97,,49.90,,87.43,,207.29,Single-ply
1,Lisa Denison,F,Open,75,74.16,36,SBD,164.99,,74.96,,64.98,,304.93,Single-ply
1,Nicki I'Anson,F,Sub 35-39,90,89.36,38,SBD,64.98,,84.94,,82.44,,232.35,Single-ply
1,Justin Veloz,M,Juniors 20-23,60,58.97,22,SBD,99.90,,74.96,,117.48,,292.34,Single-ply
1,Roman Guaderrama,M,Open,60,59.87,35,SBD,159.89,,124.96,,159.89,,444.75,Single-ply
1,Spenser Kirishian,M,Juniors 13-15,67.5,66.00,15,SBD,114.99,,64.98,,137.44,,317.40,Single-ply
DQ,David Olson,M,Juniors 20-23,67.5,65.77,21,SBD,-114.99,,,,,,,Single-ply
DQ,Tony Olson,M,Juniors 20-23,75,73.94,21,SBD,152.41,,-119.98,,,,,Single-ply
1,Robert Cortes,M,M 70-74,75,69.17,74,SBD,114.99,,92.42,,164.99,,372.40,Single-ply
1,Leon Sparango,M,Open,82.5,78.02,31,SBD,149.91,,127.46,,169.98,,447.36,Single-ply
1,Jason Longfellow,M,Juniors 16-17,82.5,77.11,17,SBD,149.91,,97.41,,182.46,,429.78,Single-ply
1,Bob Byrne,M,M 45-49,82.5,82.37,47,SBD,164.99,,129.95,,182.46,,477.41,Single-ply
1,Jeff Aguirre,M,Open,90,89.36,32,SBD,244.94,,169.98,,247.43,,662.36,Single-ply
2,Jose Hernandez,M,Open,90,89.58,37,SBD,262.40,272.50,162.39,,237.46,,662.24,Single-ply
1,Jeff Belanger,M,Juniors 16-17,90,89.81,16,SBD,164.99,,94.91,,184.61,,444.52,Single-ply
1,Lothar Vallot,M,M 50-54,90,88.90,53,SBD,77.45,,84.94,,92.42,,254.81,Single-ply
1,Ken Carpenter,M,M 60-64,90,88.22,62,SBD,209.90,,157.40,170.50,182.46,,549.75,Single-ply
2,Roy Taylor,M,M 60-64,90,85.96,64,SBD,119.98,,74.96,,189.94,,384.87,Single-ply
1,Larry Manly,M,M 65-69,90,86.86,68,SBD,137.44,,119.98,,139.93,,397.35,Single-ply
1,Fernando Toledano,M,Open,100,95.71,27,SBD,262.40,,157.40,,287.46,,707.26,Single-ply
2,Mike Tronske,M,Open,100,94.57,41,SBD,239.95,,182.46,,227.48,,649.88,Single-ply
1,Mike Tronske,M,M 40-44,100,94.57,41,SBD,239.95,,182.46,,227.48,,649.88,Single-ply
1,Michael Womelsdorf,M,M 45-49,100,93.89,47,SBD,162.39,,92.42,,182.46,,437.26,Single-ply
1,Kenny Croxdale,M,M 55-59,100,90.81,56,SBD,204.91,,159.89,,262.40,,627.20,Single-ply
2,Bob Evans #1,M,M 55-59,100,98.88,58,SBD,222.49,,174.97,,154.90,,552.36,Single-ply
1,Andrew Acevedo,M,Open,110,109.77,25,SBD,217.50,,172.48,,239.95,,629.93,Single-ply
2,Brad Hegel,M,Open,110,103.87,45,SBD,194.59,,177.47,,244.94,,617.00,Single-ply
1,Ricardo Costa,M,Novice,110,108.41,29,SBD,204.91,,212.39,,232.47,,649.77,Single-ply
DQ,Michael Longfellow,M,Novice,110,101.15,22,SBD,-194.59,,,,,,,Single-ply
1,Jekabs Sliede,M,Juniors 18-19,110,102.74,19,SBD,219.99,,149.91,,229.97,,599.88,Single-ply
1,Brad Hegel,M,M 45-49,110,103.87,45,SBD,194.59,,177.47,,244.94,,617.00,Single-ply
1,Kellen Boyce,M,Open,140,127.46,39,SBD,304.93,,179.96,,259.91,,744.80,Single-ply
DQ,Brian Greer,M,Open,125,123.38,45,SBD,-297.44,,,,,,,Single-ply
1,Kellen Boyce,M,Sub 35-39,140,127.46,39,SBD,304.93,,179.96,,259.91,,744.80,Single-ply
DQ,Brian Greer,M,M 45-49,125,123.38,45,SBD,-297.44,,,,,,,Single-ply
1,Robert Speno,M,Open,140,126.55,36,SBD,322.39,,232.47,,274.99,,829.85,Single-ply
2,Brian Meek,M,Open,140,132.68,59,SBD,304.93,,219.99,,259.91,,784.83,Single-ply
1,Brian Meek,M,M 55-59,140,132.68,59,SBD,304.93,,219.99,,259.91,,784.83,Single-ply
1,Gary Garcia,M,Open,140+,146.06,38,SBD,274.99,,262.40,,322.39,,859.78,Single-ply
1,Mari Asp,F,Open,75,68.95,29,B,,,147.42,149.91,,,147.42,Single-ply
1,Kelly Womack,F,Open,82.5,81.19,20,B,,,139.93,,,,139.93,Single-ply
1,Kelly Womack,F,Juniors 20-23,82.5,81.19,20,B,,,139.93,,,,139.93,Single-ply
1,Tanya Reed,F,M 40-44,75,71.21,41,B,,,72.35,,,,72.35,Single-ply
1,Jim Andres,M,M 70-74,67.5,64.86,70,B,,,74.96,,,,74.96,Single-ply
1,Chris Kirish,M,Juniors 20-23,75,74.93,20,B,,,94.91,,,,94.91,Single-ply
1,William Holland,M,M 45-49,75,73.94,47,B,,,124.96,,,,124.96,Single-ply
1,Leon Sparango,M,Open,82.5,78.02,31,B,,,127.46,,,,127.46,Single-ply
1,Mario Valencia,M,Sub 35-39,82.5,82.44,36,B,,,164.99,,,,164.99,Single-ply
1,Thomas Hendron,M,M 45-49,82.5,75.75,47,B,,,94.91,,,,94.91,Single-ply
1,Rudy Lozano,M,M 65-69,82.5,81.87,65,B,,,167.49,,,,167.49,Single-ply
1,Richard Simon,M,M 70-74,82.5,81.19,73,B,,,114.99,,,,114.99,Single-ply
1,Mason Molletta,M,Juniors 16-17,90,82.60,16,B,,,132.45,,,,132.45,Single-ply
1,Daren Dowell,M,Open,90,89.36,37,B,,,159.89,,,,159.89,Single-ply
1,David Cummerow,M,M 55-59,90,88.22,56,B,,,159.89,,,,159.89,Single-ply
1,Larry Manly,M,M 65-69,90,86.86,68,B,,,119.98,,,,119.98,Single-ply
1,Nicholas Herroz,M,Open,100,97.07,28,B,,,204.91,,,,204.91,Single-ply
1,Luis Castillo,M,Juniors 20-23,100,97.30,20,B,,,182.46,,,,182.46,Single-ply
1,Scott Vincent,M,M 40-44,100,96.16,41,B,,,154.90,,,,154.90,Single-ply
1,Morgan Ward Long,M,M 45-49,100,94.12,45,B,,,159.89,,,,159.89,Single-ply
1,Steve Winters,M,M 50-54,100,98.88,51,B,,,152.41,,,,152.41,Single-ply
1,Bob Evans #1,M,M 55-59,100,98.88,58,B,,,174.97,,,,174.97,Single-ply
DQ,Floyd Irons,M,M 65-69,100,92.08,69,B,,,-119.98,,,,,Single-ply
1,Ricardo Costa,M,Novice,110,108.41,29,B,,,212.39,,,,212.39,Single-ply
2,Alex Ramirez,M,Novice,110,101.38,30,B,,,147.42,,,,147.42,Single-ply
1,Steve Williams,M,M 45-49,110,108.64,46,B,,,217.50,,,,217.50,Single-ply
2,Brad Hegel,M,M 45-49,110,103.87,45,B,,,177.47,,,,177.47,Single-ply
1,Shawn Stone,M,M 50-54,110,102.51,51,B,,,182.46,,,,182.46,Single-ply
1,Roland Stevens,M,M 55-59,110,107.05,57,B,,,154.90,,,,154.90,Single-ply
1,Daniel Smith III,M,M 60-64,110,104.78,61,B,,,164.99,,,,164.99,Single-ply
1,Mike Womack,M,Open,125,124.96,23,B,,,272.50,,,,272.50,Single-ply
2,Scott Hoekstra,M,Open,125,112.94,38,B,,,264.90,,,,264.90,Single-ply
1,Albert Garcia,M,Juniors 16-17,125,117.48,17,B,,,182.46,,,,182.46,Single-ply
2,Matt Story,M,Juniors 16-17,125,113.17,16,B,,,127.46,,,,127.46,Single-ply
1,Mike Womack,M,Juniors 20-23,125,124.96,23,B,,,272.50,,,,272.50,Single-ply
1,Steve Belanger,M,M 45-49,125,118.39,47,B,,,162.39,,,,162.39,Single-ply
DQ,Brad Long,M,M 45-49,125,112.72,47,B,,,-184.61,,,,,Single-ply
1,Doug Knapp,M,M 55-59,125,123.15,57,B,,,159.89,,,,159.89,Single-ply
1,John Parker,M,M 60-64,125,111.13,61,B,,,147.42,,,,147.42,Single-ply
1,David Marr,M,Sub 35-39,140,128.82,38,B,,,217.50,,,,217.50,Single-ply
1,Chuck McGuire,M,M 40-44,140,133.36,44,B,,,187.45,,,,187.45,Single-ply
1,Dan Smith,M,M 45-49,140,132.45,46,B,,,204.91,,,,204.91,Single-ply
1,Tanya Reed,F,M 40-44,75,71.21,41,D,,,,,137.44,,137.44,Single-ply
1,Edgar Perez,M,Juniors 16-17,75,74.62,16,D,,,,,174.97,179.96,174.97,Single-ply
1,Gordon Santee,M,M 55-59,75,71.44,58,D,,,,,227.48,234.96,227.48,Single-ply
1,Leon Sparango,M,Open,82.5,78.02,31,D,,,,,169.98,,169.98,Single-ply
1,Miguel Hernandez,M,Juniors 13-15,82.5,81.42,15,D,,,,,169.98,179.96,169.98,Single-ply
1,Thomas Hendron,M,M 45-49,82.5,75.75,47,D,,,,,137.44,,137.44,Single-ply
1,Richard Simon,M,M 70-74,82.5,81.19,73,D,,,,,155.50,,155.50,Single-ply
1,Jose Hernandez,M,Open,90,89.58,37,D,,,,,237.46,,237.46,Single-ply
1,Javier Avila,M,M 45-49,90,83.23,48,D,,,,,264.90,,264.90,Single-ply
1,Roy Taylor,M,M 60-64,90,85.96,64,D,,,,,189.94,,189.94,Single-ply
1,Larry Manly,M,M 65-69,90,86.86,68,D,,,,,139.93,,139.93,Single-ply
1,Alberto Ramos,M,Juniors 13-15,110,105.91,15,D,,,,,182.46,199.92,182.46,Single-ply
1,Jaime Rodriguez,M,Juniors 16-17,110,108.86,16,D,,,,,174.97,182.46,174.97,Single-ply
1,Michael Longfellow,M,Novice,110,101.15,22,D,,,,,277.49,,277.49,Single-ply
1,Kevin Rinehart,M,Sub 35-39,110,107.05,39,D,,,,,242.45,,242.45,Single-ply
1,Brad Hegel,M,M 45-49,110,103.87,45,D,,,,,244.94,,244.94,Single-ply
1,Walt Cracknell,M,M 50-54,110,104.78,54,D,,,,,244.94,,244.94,Single-ply
1,Roland Stevens,M,M 55-59,110,107.05,57,D,,,,,154.90,159.89,154.90,Single-ply
1,Ryan Stewart,M,Open,125,118.39,26,D,,,,,259.91,,259.91,Single-ply
2,Braid DeWeese,M,Open,125,120.43,33,D,,,,,249.93,,249.93,Single-ply
