Place,Name,Sex,Division,Equipment,WeightClassKg,BodyweightKg,Age,Event,Best3SquatKg,Best3BenchKg,Best3DeadliftKg,TotalKg
1,Mari Asp,F,Women,Single-ply,67.5,66.68,28,B,,132.45,,132.45
1,Andrew Bertolucci,M,Teen 13-15,Single-ply,56,55.11,15,B,,42.64,,42.64
1,Rudy Machuca,M,Teen 16-17,Single-ply,67.5,65.09,17,B,,99.9,,99.9
1,Narbe Mansourian,M,Open,Raw,67.5,66.22,28,B,,167.49,,167.49
DQ,Steve Tamerius,M,Open,Single-ply,67.5,65.54,54,B,,,,
DQ,Steve Tamerius,M,M 55-59,Single-ply,67.5,65.54,55,B,,,,
1,Jim Merlino,M,M 65-69,Single-ply,67.5,67.13,66,B,,124.96,,124.96
2,Jim Andres,M,M 65-69,Single-ply,67.5,63.96,69,B,,74.96,,74.96
1,Chase Craft,M,Teen 13-15,Single-ply,75,69.85,14,B,,69.97,,69.97
1,Ruben Lopez,M,Open,Single-ply,75,72.57,27,B,,134.94,,134.94
1,Bruce Mendoza,M,Open,Single-ply,82.5,79.61,35,B,,199.92,,199.92
2,Ken Tate,M,Open,Single-ply,82.5,80.06,43,B,,187.45,,187.45
3,Mark Lambert,M,Open,Single-ply,82.5,82.33,30,B,,164.99,,164.99
4,Kevin Nunez,M,Open,Single-ply,82.5,77.79,33,B,,132.45,,132.45
1,Bruce Mendoza,M,Sub 35-39,Single-ply,82.5,79.61,35,B,,199.92,,199.92
1,Daren Dowell,M,Open,Single-ply,90,89.58,36,B,,174.97,,174.97
2,Larry Manly,M,Open,Single-ply,90,88.45,67,B,,124.96,,124.96
DQ,Charles Katsapis,M,Juniors 20-23,Single-ply,90,87.54,22,B,,,,
1,Lothar Vallot,M,M 50-54,Single-ply,90,88.9,52,B,,84.94,,84.94
1,Larry Manly,M,M 65-69,Single-ply,90,88.45,67,B,,124.96,,124.96
1,Michael Green,M,Open,Raw,100,95.71,33,B,,222.49,,222.49
2,Mike Elwell,M,Open,Single-ply,100,95.48,41,B,,209.9,,209.9
3,Alex Vargas,M,Open,Single-ply,100,98.2,32,B,,184.61,,184.61
DQ,Ryan Girard,M,Open,Single-ply,100,99.56,28,B,,,,
1,Morgan Long,M,M 40-44,Single-ply,100,58.97,44,B,,149.91,,149.91
1,Bob Evans #1,M,M 55-59,Single-ply,100,98.88,57,B,,179.96,,179.96
1,Alvin Waldon,M,Open,Single-ply,110,106.14,52,B,,219.99,,219.99
2,Steve Williams,M,Open,Single-ply,110,109.32,45,B,,204.91,,204.91
1,Steve Williams,M,M 45-49,Single-ply,110,109.32,45,B,,204.91,,204.91
2,Brad Long,M,M 45-49,Single-ply,110,109.77,46,B,,182.46,,182.46
1,Alvin Waldon,M,M 50-54,Single-ply,110,106.14,52,B,,219.99,,219.99
1,Daniel Smith III,M,M 60-64,Single-ply,110,101.83,60,B,,184.61,,184.61
2,John Parker,M,M 60-64,Single-ply,110,106.82,60,B,,142.43,,142.43
1,Robert Hartshorne,M,M 65-69,Single-ply,110,110,65,B,,132.45,,132.45
1,Scott Hoekstra,M,Open,Single-ply,125,114.76,37,B,,272.5,,272.5
1,Scott Hoekstra,M,Sub 35-39,Single-ply,125,114.76,37,B,,272.5,,272.5
1,Steve Brown,M,M 50-54,Single-ply,125,123.38,50,B,,202.42,,202.42
1,Doug Knapp,M,M 55-59,Single-ply,125,122.92,56,B,,110,,110
1,David Marr,M,Sub 35-39,Single-ply,140,130.86,37,B,,222.49,,222.49
2,Tom Reynolds,M,Sub 35-39,Single-ply,140,130.41,39,B,,189.94,,189.94
1,Chuck McGuire,M,M 40-44,Single-ply,140,128.82,43,B,,149.91,,149.91
1,Dean Carriger,M,M 50-54,Single-ply,140,127.46,53,B,,179.96,,179.96
1,Roman Guaderrama,M,Open,Single-ply,60,58.97,34,SBD,122.47,114.99,139.93,377.39
1,Vince Tanabe,M,Open,Single-ply,67.5,65.32,41,SBD,209.9,114.99,227.48,552.36
1,Daniel Sorenson,M,Open,Single-ply,75,73.94,40,SBD,237.46,144.92,232.47,614.84
2,Lance Slaughter,M,Open,Single-ply,75,74.62,41,SBD,199.92,182.46,199.92,582.3
DQ,Leslie Nelson,M,Open,Single-ply,75,70.99,24,SBD,-182.46,,,
1,Daniel Sorenson,M,M 40-44,Single-ply,75,73.94,40,SBD,237.46,144.92,232.47,614.84
1,Jeff Belanger,M,Teen 13-15,Single-ply,82.5,80.06,15,SBD,137.44,69.97,164.99,372.4
1,Larry Treybig,M,Teen 18-19,Single-ply,82.5,75.75,19,SBD,167.49,114.99,212.39,494.87
1,Ken Fasulo,M,Sub 35-39,Single-ply,82.5,75.52,38,SBD,169.98,144.92,197.43,512.33
DQ,Bill Cavalier,M,M 54-59,Single-ply,82.5,75.75,55,SBD,-279.98,,,
DQ,Richard Simon,M,M 70-74,Single-ply,82.5,82.1,72,SBD,132.45,-119.98,,
1,Fernando Toledano,M,Open,Single-ply,90,84.37,26,SBD,142.43,124.96,227.48,494.87
DQ,Michael Belucio,M,Open,Single-ply,90,87.77,40,SBD,-234.96,,,
1,Jose Hernandez,M,Sub 35-39,Single-ply,90,88.9,36,SBD,232.47,119.98,197.43,549.87
1,Fred Lomelin Sr,M,M 40-44,Single-ply,90,87.77,42,SBD,174.97,112.49,192.44,479.9
DQ,Michael Belucio,M,M 40-44,Single-ply,90,87.77,40,SBD,-234.96,,,
1,Jekabs Sliede,M,Teen 18-19,Single-ply,100,95.25,18,SBD,169.98,114.99,184.61,469.58
1,Mike Laney,M,Open,Single-ply,100,93.21,40,SBD,272.5,184.61,309.92,767.02
DQ,Pat McNeil,M,Open,Single-ply,100,97.3,42,SBD,-249.93,,,
1,Mike Laney,M,M 40-44,Single-ply,100,93.21,40,SBD,272.5,184.61,309.92,767.02
2,Bill Hurt,M,M 40-44,Single-ply,100,93.44,40,SBD,254.92,157.4,259.91,672.22
1,Mark Straley,M,M 45-49,Single-ply,100,96.39,45,SBD,249.93,147.42,232.47,629.81
2,Ruben Arredondo,M,M 45-49,Single-ply,100,96.16,49,SBD,227.48,154.9,219.99,602.37
3,Michael Womelsdorf,M,M 45-49,Single-ply,100,95.03,46,SBD,169.98,129.95,184.61,484.55
1,Bob Evans #1,M,M 55-59,Single-ply,100,98.88,57,SBD,207.41,179.96,174.97,562.34
1,Floyd Irons,M,M 65-69,Single-ply,100,92.08,68,SBD,169.98,62.48,182.46,414.92
1,Eric Charboneau,M,Teen 16-17,Single-ply,110,102.97,16,SBD,149.91,92.42,169.98,412.32
1,Landy Bergfield,M,Open,Single-ply,110,107.5,37,SBD,229.97,209.9,282.47,722.35
1,Robert Speno,M,Open,Single-ply,125,123.15,35,SBD,302.43,214.89,282.47,799.8
2,Filiberto Toledano,M,Open,Single-ply,125,116.57,27,SBD,227.48,152.41,249.93,629.81
1,Delmer Brown,M,M 50-54,Single-ply,125,120.88,50,SBD,264.9,184.61,247.43,696.94
2,Steve Brown,M,M 50-54,Single-ply,125,123.38,50,SBD,204.91,202.42,274.99,682.32
1,Danny Herrera,M,M 65-69,Single-ply,125,121.34,66,SBD,237.46,174.97,214.89,627.32
1,Brian Meek,M,Open,Single-ply,140,129.27,58,SBD,297.44,212.39,242.45,752.28
1,Brian Meek,M,M 55-59,Single-ply,140,129.27,58,SBD,297.44,212.39,242.45,752.28
DQ,Jesse Branham,M,Open,Single-ply,100,98.43,32,SBD,299.94,,,
DQ,Art LaBare,M,Open,Single-ply,125,118.84,43,SBD,-332.48,,,
1,Scott Smith,M,Open,Raw,125,122.47,33,B,,249.93,,249.93
1,Bill Ennis,M,M 55-59,Single-ply,82.5,82.1,58,D,,,227.48,227.48
