Place,Name,CyrillicName,Sex,Event,Equipment,Division,WeightClassKg,BirthDate,BodyweightKg,Squat1Kg,Squat2Kg,Squat3Kg,Best3SquatKg,Bench1Kg,Bench2Kg,Bench3Kg,Best3BenchKg,Deadlift1Kg,Deadlift2Kg,Deadlift3Kg,Best3DeadliftKg,TotalKg
1,Marina Tuz,Марина Туз,F,SBD,Wraps,Open,,1970-05-05,55,70,80,85,85,45,50,55,55,90,97.5,102.5,102.5,242.5
2,Elena Kucherova,Елена Кучерова,F,SBD,Wraps,Open,,1977-02-21,56,67.5,-70,70,70,37.5,-40,40,40,75,85,95,95,205
3,Olesya Sinelnikova,Олеся Синельникова,F,SBD,Wraps,Open,,1993-11-20,53,60,70,-75,70,42.5,47.5,50,50,60,70,80,80,200
4,Anastasiya Yatskovskaya,Анастасия Яцковская,F,SBD,Wraps,Open,,1990-10-31,58,50,55,60,60,32.5,35,-37.5,35,80,85,90,90,185
5,Svetlana Nepretimova,Светлана Непретимова,F,SBD,Wraps,Open,,1979-06-03,50,35,40,-45,40,27.5,30,-32.5,30,60,70,-75,70,140
1,Valeriy Chepurnov,Валерий Чепурнов,M,SBD,Wraps,Masters,,1952-07-04,96,-190,190,,190,135,140,145,145,200,220,,220,555
2,Ekber Kurbanov,Экбер Курбанов,M,SBD,Wraps,Masters,,1968-02-21,105,215,225,235,235,160,165,,165,230,240,250,250,650
3,Vladimir Surkov,Владимир Сурков,M,SBD,Wraps,Masters,,1958-07-28,96.5,-170,170,-175,170,150,,,150,190,,,190,510
1,Artur Avagyan,Артур Авагян,M,SBD,Wraps,Open,67.5,1986-11-04,64.6,130,140,145,145,105,-110,110,110,150,-170,170,170,425
2,Maksim Melnov,Максим Мельнов,M,SBD,Wraps,Open,67.5,1991-06-27,62.5,120,130,140,140,100,105,-107.5,105,155,165,175,175,420
3,Artem Fedin,Артем Федин,M,SBD,Wraps,Open,67.5,1986-10-19,67.5,-130,130,-140,130,105,110,-115,110,-170,170,-175,170,410
4,Ivan Ryazantsev,Иван Рязанцев,M,SBD,Wraps,Open,67.5,1991-04-18,63.5,-100,100,-110,100,80,85,-90,85,115,130,140,140,325
5,Igor Fedorov,Игорь Федоров,M,SBD,Wraps,Open,67.5,1991-01-01,63.2,115,120,125,125,75,-80,80,80,140,150,-155,150,355
6,Denis Neverov,Денис Неверов,M,SBD,Wraps,Open,67.5,1991-04-13,66.5,110,120,130,130,75,80,82.5,82.5,130,145,155,155,367.5
7,Maksim Efimenko,Максим Ефименко,M,SBD,Wraps,Open,67.5,1991-05-14,66.9,120,130,140,140,80,90,-95,90,130,140,150,150,380
8,Nichad Mamedov,Ничад Мамедов,M,SBD,Wraps,Open,67.5,1990-04-28,60,100,105,-110,105,70,75,-77.5,75,160,170,175,175,355
1,Aleksey Lyubimenko,Алексей Любименко,M,SBD,Wraps,Open,75,1991-06-23,73.5,175,185,195,195,105,115,120,120,-210,210,-215,210,525
2,Aleksey Zharikov,Алексей Жариков,M,SBD,Wraps,Open,75,1970-02-19,74.8,170,180,-190,180,120,125,130,130,170,185,200,200,510
3,Dmitriy Trunov,Дмитрий Трунов,M,SBD,Wraps,Open,75,1989-04-06,75,170,-180,-180,170,105,112.5,115,115,180,190,-200,190,475
4,Aleksandr Koshelev #1,Александр Кошелев,M,SBD,Wraps,Open,75,1987-06-01,71,-150,150,160,160,85,90,-95,90,160,175,185,185,435
5,Pargev Khachatryan,Паргев Хачатрян,M,SBD,Wraps,Open,75,1991-09-29,75,115,125,135,135,90,100,105,105,150,165,-175,165,405
6,Ivan Merezhko,Иван Мережко,M,SBD,Wraps,Open,75,1992-05-25,74.5,135,140,145,145,105,-107.5,-107.5,105,135,140,145,145,395
1,Vlad Ushenin,Влад Ушенин,M,SBD,Wraps,Open,82.5,1989-09-05,82.1,145,150,-155,150,-135,135,-140,135,200,210,,210,495
2,Vladimir Prodanov,Владимир Проданов,M,SBD,Wraps,Open,82.5,1989-10-20,79,-165,165,,165,-100,100,105,105,-170,170,195,195,465
1,Petr Silivanov,Петр Силиванов,M,SBD,Wraps,Open,90,1970-09-30,87,210,,,210,175,185,195,195,220,240,-255,240,645
2,Sergey Zakharov,Сергій Захаров,M,SBD,Wraps,Open,90,1971-07-08,85.2,-200,-200,200,200,175,-180,-190,175,240,-260,,240,615
3,Aleksey Lukyaneko,Алексей Лукьянеко,M,SBD,Wraps,Open,90,1985-09-25,85.2,160,-180,180,180,120,130,-140,130,190,210,,210,520
1,Dmitriy Kirichenko,Дмитрий Кириченко,M,SBD,Wraps,Open,100,1991-01-28,97,180,190,-200,190,-150,155,-160,155,230,-235,,230,575
1,Ekber Kurbanov,Экбер Курбанов,M,SBD,Wraps,Open,100+,1968-02-21,105,215,225,235,235,160,165,,165,230,240,250,250,650
2,Zaur Mustafev,Заур Мустафьев,M,SBD,Wraps,Open,100+,1990-09-23,103.5,160,170,-180,170,-140,140,150,150,180,190,210,210,530
3,Aleksey Akimchenko,Алексей Акимченко,M,SBD,Wraps,Open,100+,1991-08-23,102,-170,-170,170,170,95,-105,-105,95,-170,170,,170,435
1,Marina Zotova,Марина Зотова,F,B,Raw,Open,,1983-09-23,52,,,,,75,-82.5,82.5,82.5,,,,,82.5
2,Irina Pokornaya,Ирина Покорная,F,B,Raw,Open,,1977-09-11,49,,,,,-50,52.5,-55,52.5,,,,,52.5
3,Oksana Butina,Оксана Бутина,F,B,Raw,Open,,1985-07-06,52.6,,,,,45,47.5,50,50,,,,,50
4,Vasilina Avdeenko,Василина Авдеенко,F,B,Raw,Open,,1983-08-19,60,,,,,40,45,47.5,47.5,,,,,47.5
5,Irina Ivashechkina,Ирина Ивашечкина,F,B,Raw,Open,,1978-09-06,55,,,,,40,-45,45,45,,,,,45
1,Vladimir Surkov,Владимир Сурков,M,B,Raw,Masters,,1958-07-28,96.5,,,,,160,-165,-165,160,,,,,160
2,Aleksey Nebykov,Алексей Небыков,M,B,Raw,Masters,,1966-08-07,80.6,,,,,145,155,-162.5,155,,,,,155
3,Ekber Kurbanov,Экбер Курбанов,M,B,Raw,Masters,,1968-02-21,105,,,,,160,165,167.5,167.5,,,,,167.5
1,Aleksandr Sorochiskiy,Александр Сорочиский,M,B,Raw,Open,67.5,1988-05-06,59,,,,,100,105,110,110,,,,,110
2,Artur Avagyan,Артур Авагян,M,B,Raw,Open,67.5,1986-11-04,64.6,,,,,105,110,-115,110,,,,,110
3,Vadim Kononenko,Вадим Кононенко,M,B,Raw,Open,67.5,1989-06-13,67.5,,,,,100,105,110,110,,,,,110
DQ,Ivan Chernov,Иван Чернов,M,B,Raw,Open,67.5,1993-09-19,63,,,,,-95,-95,-95,,,,,,
1,Viktor Boranchikov,Виктор Боранчиков,M,B,Raw,Open,75,1963-12-01,70,,,,,140,-145,145,145,,,,,145
2,Sergey Malkov,Сергей Мальков,M,B,Raw,Open,75,1984-01-03,72.5,,,,,-120,130,140,140,,,,,140
3,Roman Pustovalov,Роман Пустовалов,M,B,Raw,Open,75,1991-08-09,73.8,,,,,110,115,120,120,,,,,120
4,Aleksandr Karalskiy,Александр Каральский,M,B,Raw,Open,75,1990-12-01,72.5,,,,,85,-90,90,90,,,,,90
5,Sergey Letunovskiy,Сергей Летуновский,M,B,Raw,Open,75,1990-12-25,75,,,,,100,105,110,110,,,,,110
6,Aleksey Malenkov,Алексей Маленков,M,B,Raw,Open,75,1987-11-18,72,,,,,110,-115,-120,110,,,,,110
1,Vladimir Charskiy,Владимир Чарский,M,B,Raw,Open,82.5,1978-01-19,81.5,,,,,170,175,180,180,,,,,180
2,Dmitriy Alekseenko,Дмитрий Алексеенко,M,B,Raw,Open,82.5,1984-08-18,81,,,,,155,165,-177.5,165,,,,,165
3,Dmitriy Ivashechkin,Дмитрий Ивашечкин,M,B,Raw,Open,82.5,1971-04-15,82,,,,,125,132.5,140,140,,,,,140
4,Andrey Borskiver,Андрей Борскивер,M,B,Raw,Open,82.5,1979-12-30,80.5,,,,,132.5,137.5,-145,137.5,,,,,137.5
5,Garnik Kazaryan,Гарник Казарян,M,B,Raw,Open,82.5,1992-10-01,82.5,,,,,110,120,-122.5,120,,,,,120
6,Dmitriy Efimov,Дмитрий Ефимов,M,B,Raw,Open,82.5,1989-06-09,77.5,,,,,110,120,130,130,,,,,130
7,Dmitiy Mishcheryakov,Дмитий Мищеряков,M,B,Raw,Open,82.5,1989-07-09,81.5,,,,,-110,-110,110,110,,,,,110
DQ,Renat Magamedov,Ренат Магамедов,M,B,Raw,Open,82.5,1990-01-29,80,,,,,-110,-110,-110,,,,,,
1,Nikolay Upolovnikov,Николай Уполовников,M,B,Raw,Open,90,1980-09-14,86,,,,,185,190,-195,190,,,,,190
2,Petr Silivanov,Петр Силиванов,M,B,Raw,Open,90,1970-09-30,87,,,,,-185,187.5,-195,187.5,,,,,187.5
3,Sergey Sedov,Сергей Седов,M,B,Raw,Open,90,1972-10-03,90,,,,,175,-185,-185,175,,,,,175
4,Ivan Yatsuk,Иван Яцук,M,B,Raw,Open,90,1987-10-06,90,,,,,145,155,-162.5,155,,,,,155
1,Aleksandr Borshchev,Александр Борщев,M,B,Raw,Open,100,1986-03-24,98,,,,,205,215,-220,215,,,,,215
2,Vitaliy Bakhturin,Виталий Бахтурин,M,B,Raw,Open,100,1977-07-15,99.5,,,,,142.5,-152.5,-152.5,142.5,,,,,142.5
DQ,Roman Tikhonov,Роман Тихонов,M,B,Raw,Open,100,1978-07-11,99.5,,,,,-180,-180,-180,,,,,,
1,Anton Volodko,Антон Володько,M,B,Raw,Open,100+,1982-03-27,119.5,,,,,200,210,,210,,,,,210
2,Aleksandr Sorokin,Александр Сорокин,M,B,Raw,Open,100+,1973-01-10,120.5,,,,,185,-195,-195,185,,,,,185
3,Vladimir Safronov,Владимир Сафронов,M,B,Raw,Open,100+,1975-10-02,134.5,,,,,-180,180,-187.5,180,,,,,180
4,Dmitriy Bodin,Дмитрий Бодин,M,B,Raw,Open,100+,1988-01-14,107,,,,,152.5,157.5,160,160,,,,,160
5,Aleksey Zaytsev,Алексей Зайцев,M,B,Raw,Open,100+,1988-04-17,103,,,,,-130,-130,130,130,,,,,130
6,Andrey Fedorov,Андрей Федоров,M,B,Raw,Open,100+,1987-08-24,107.6,,,,,140,-147.5,147.5,147.5,,,,,147.5
7,Ekber Kurbanov,Экбер Курбанов,M,B,Raw,Open,100+,1968-02-21,105,,,,,160,165,167.5,167.5,,,,,167.5
1,Marina Zotova,Марина Зотова,F,SBD,Single-ply,Open,,1983-09-23,52,130,150,-160,150,75,82.5,87.5,87.5,150,165,180,180,417.5
2,Margarita Gass,Маргарита Гасс,F,SBD,Single-ply,Open,,1988-02-11,55.5,125,-135,-135,125,70,75,-80,75,100,-115,-115,100,300
3,Elena Arkhipova,Елена Архипова,F,SBD,Single-ply,Open,,1987-01-10,52,-90,-90,90,90,45,,,45,90,100,110,110,245
4,Ekaterina Kalyuzhnaya,Екатерина Калюжная,F,SBD,Single-ply,Open,,1987-11-05,60,-90,-90,90,90,-45,-45,45,45,70,80,90,90,225
1,Grigoriy Matyash,Григорий Матяш,M,SBD,Single-ply,Masters,,1961-01-27,90,190,220,,220,155,165,170,170,200,220,-225,220,610
2,Ekber Kurbanov,Экбер Курбанов,M,SBD,Single-ply,Masters,,1968-02-21,105,215,225,235,235,160,165,,165,230,240,250,250,650
1,Valintin Chuvashkin,Валинтин Чувашкин,M,SBD,Single-ply,Open,67.5,1990-05-11,67.5,-200,210,220,220,110,125,132.5,132.5,200,215,-230,215,567.5
2,Aleksandr Lisenko,Александр Лисенко,M,SBD,Single-ply,Open,67.5,1985-11-09,67.5,180,-190,190,190,100,110,-115,110,170,180,185,185,485
3,Anton Gorbushov,Антон Горбушов,M,SBD,Single-ply,Open,67.5,1990-06-11,67,180,-195,-195,180,-100,-100,100,100,180,195,200,200,480
4,Aleksey Shapkin,Алексей Шапкин,M,SBD,Single-ply,Open,67.5,1990-07-24,67,-160,170,180,180,105,115,120,120,-150,-170,175,175,475
5,Denis Zaporazhan,Денис Запоражан,M,SBD,Single-ply,Open,67.5,1990-08-12,61,-140,150,-165,150,100,-110,-110,100,160,-175,-175,160,410
1,German Petyanov,Герман Петянов,M,SBD,Single-ply,Open,75,1985-07-26,74.5,270,-280,,270,135,145,-155,145,225,232.5,240,240,655
2,Vladimir Petyanov,Владимир Петянов,M,SBD,Single-ply,Open,75,1985-07-27,69,-270,-270,270,270,140,150,155,155,215,225,-230,225,650
3,Aleksandr Samsonov,Александр Самсонов,M,SBD,Single-ply,Open,75,1987-07-15,74,180,190,-200,190,135,-145,-145,135,180,-190,-190,180,505
4,Denis Mustafin,Денис Мустафин,M,SBD,Single-ply,Open,75,1988-06-08,72.3,170,180,-190,180,110,115,120,120,160,-170,170,170,470
DQ,Roman Varshavskiy,Роман Варшавский,M,SBD,Single-ply,Open,75,1989-10-05,73.5,180,-190,-190,180,-125,-135,-135,,170,,,170,
DQ,Andrey Konovalov,Андрей Коновалов,M,SBD,Single-ply,Open,75,1984-03-17,74,-200,-200,-200,,120,,,120,200,,,200,
1,Etgar Kuliev,Этгар Кулиев,M,SBD,Single-ply,Open,82.5,1987-04-14,80,-275,285,-300,285,175,-185,185,185,240,250,-260,250,720
2,Nikita Dubrovin,Никита Дубровин,M,SBD,Single-ply,Open,82.5,1988-09-27,82,-270,270,285,285,160,165,-170,165,255,270,-275,270,720
3,Vladimir Grigorev,Владимир Григорьев,M,SBD,Single-ply,Open,82.5,1986-07-21,82,260,-270,270,270,160,-180,-180,160,250,270,-280,270,700
4,Igor Miroshnechenko,Игорь Мирошнеченко,M,SBD,Single-ply,Open,82.5,1988-11-07,82.5,240,260,280,280,160,-170,-180,160,220,240,-250,240,680
5,Igor Novikov,Игорь Новиков,M,SBD,Single-ply,Open,82.5,1988-08-29,82,-220,220,-237.5,220,140,150,-155,150,200,215,-225,215,585
6,Vladimir Konkin,Владимир Конкин,M,SBD,Single-ply,Open,82.5,1989-06-21,81.6,250,-265,272.5,272.5,130,142.5,147.5,147.5,200,215,-222.5,215,635
7,Evgeniy Ustinov,Евгений Устинов,M,SBD,Single-ply,Open,82.5,1985-05-13,79.5,210,220,-230,220,-140,140,-150,140,-215,215,220,220,580
8,Dmitriy Efimov,Дмитрий Ефимов,M,SBD,Single-ply,Open,82.5,1989-06-09,77.5,180,-210,-220,180,-140,140,155,155,210,230,235,235,570
9,Daniil Arkhipov,Даниил Архипов,M,SBD,Single-ply,Open,82.5,1989-01-07,81,-210,210,-220,210,-125,-125,125,125,170,185,-200,185,520
1,Ivan Doronin,Иван Доронин,M,SBD,Single-ply,Open,90,1985-08-10,87,250,-265,-275,250,-190,190,-200,190,250,-260,260,260,700
2,Sergey Salmanov,Сергей Салманов,M,SBD,Single-ply,Open,90,1989-09-12,87,-180,210,-232.5,210,140,157.5,170,170,-230,230,265,265,645
3,Viktor Golubev,Виктор Голубев,M,SBD,Single-ply,Open,90,1986-09-23,87.4,220,230,-250,230,-140,140,-150,140,240,-250,-250,240,610
DQ,Grigoriy Matyash,Григорий Матяш,M,SBD,Single-ply,Open,90,1961-01-27,90,-190,-220,,,155,165,170,170,200,220,-225,220,
1,Aleksandr Yumatov,Александр Юматов,M,SBD,Single-ply,Open,100,1976-08-24,99,280,292.5,300,300,-205,205,-212.5,205,250,-270,270,270,775
2,Ramil Ramazanov,Рамиль Рамазанов,M,SBD,Single-ply,Open,100,1985-03-01,99,-240,240,-250,240,170,-175,-175,170,-210,-210,210,210,620
DQ,Ivan Maslov,Иван Маслов,M,SBD,Single-ply,Open,100,1986-03-27,98,220,-230,,220,-210,-210,-210,,200,,,200,
1,Kirill Sarychev,Кирилл Сарычев,M,SBD,Single-ply,Open,100+,1989-01-01,129,300,,,300,230,,,230,250,300,,300,830
2,Aleksandr Ablizin,Александр Аблизин,M,SBD,Single-ply,Open,100+,1973-03-26,157,-250,270,280,280,230,240,245,245,250,270,280,280,805
3,Yuriy Pestichev,Юрий Пестичев,M,SBD,Single-ply,Open,100+,1988-04-26,105,280,300,-310,300,200,210,,210,220,240,-250,240,750
1,Marina Zotova,Марина Зотова,F,B,Single-ply,Open,,1983-09-23,52,,,,,75,-82.5,82.5,82.5,,,,,82.5
2,Elena Arkhipova,Елена Архипова,F,B,Single-ply,Open,,1987-01-10,52,,,,,65,70,77.5,77.5,,,,,77.5
3,Vasilina Avdeenko,Василина Авдеенко,F,B,Single-ply,Open,,1983-08-19,60,,,,,40,45,47.5,47.5,,,,,47.5
1,Gregoriy Paskov,Грегорий Паськов,M,B,Single-ply,Masters,,1968-07-04,90,,,,,190,-202.5,202.5,202.5,,,,,202.5
2,Viktor Baranchikov,Виктор Баранчиков,M,B,Single-ply,Masters,,1960-06-13,70,,,,,-165,-165,165,165,,,,,165
3,Ekber Kurbanov,Экбер Курбанов,M,B,Single-ply,Masters,,1968-02-21,105,,,,,160,165,167.5,167.5,,,,,167.5
1,Aleksandr Rode,Александр Роде,M,B,Single-ply,Open,67.5,1981-04-14,67.1,,,,,185,200,-210,200,,,,,200
2,Vitaliy Pshenichnyy,Виталий Пшеничный,M,B,Single-ply,Open,67.5,1989-09-13,66.5,,,,,-115,-115,115,115,,,,,115
DQ,Artem Kamyshov,Артем Камышов,M,B,Single-ply,Open,67.5,1986-09-27,65,,,,,-125,-125,-125,,,,,,
1,Viktor Baranchikov,Виктор Баранчиков,M,B,Single-ply,Open,75,1960-06-13,70,,,,,-165,-165,165,165,,,,,165
2,Sergey Tyurin,Сергей Тюрин,M,B,Single-ply,Open,75,1991-03-09,74.9,,,,,150,157.5,-162.5,157.5,,,,,157.5
3,Aleksey Zharikov,Алексей Жариков,M,B,Single-ply,Open,75,1970-02-19,74.8,,,,,150,-157.5,-157.5,150,,,,,150
1,Vladimir Upolovnikov,Владимир Уполовников,M,B,Single-ply,Open,82.5,1985-05-24,80,,,,,185,195,205,205,,,,,205
2,Rinat Abubekirov,Ринат Абубекиров,M,B,Single-ply,Open,82.5,1986-05-04,82,,,,,180,-190,190,190,,,,,190
3,Dmitriy Morkhov,Дмитрий Морхов,M,B,Single-ply,Open,82.5,1990-06-26,81.5,,,,,-170,-175,175,175,,,,,175
4,Anton Pshenichnyy,Антон Пшеничный,M,B,Single-ply,Open,82.5,1986-01-02,81,,,,,150,160,-170,160,,,,,160
5,Sergey Shchetinin,Сергей Щетинин,M,B,Single-ply,Open,82.5,1990-08-09,79.7,,,,,-110,110,120,120,,,,,120
1,Petr Silivanov,Петр Силиванов,M,B,Single-ply,Open,90,1970-09-30,87,,,,,210,225,,225,,,,,225
2,Sergey Sedov,Сергей Седов,M,B,Single-ply,Open,90,1972-10-03,89.2,,,,,-185,185,202.5,202.5,,,,,202.5
3,Sergey Alkhov,Сергей Альхов,M,B,Single-ply,Open,90,1984-10-08,90,,,,,190,-197.5,202.5,202.5,,,,,202.5
4,Aleksey Shalnev,Алексей Шальнев,M,B,Single-ply,Open,90,1990-11-11,84,,,,,-150,150,-160,150,,,,,150
5,Ivan Shatilov,Иван Шатилов,M,B,Single-ply,Open,90,1983-12-04,89,,,,,-120,-130,130,130,,,,,130
6,Sergey Solmanov,Сергей Солманов,M,B,Single-ply,Open,90,1989-09-12,87,,,,,-135,135,-160,135,,,,,135
DQ,Anton Lapshin,Антон Лапшин,M,B,Single-ply,Open,90,1980-07-13,88.5,,,,,-190,-190,-190,,,,,,
1,Aleksandr Borshchev,Александр Борщев,M,B,Single-ply,Open,100,1986-03-24,98,,,,,260,270,280,280,,,,,280
2,Aleksandr Kargapolov,Александр Каргаполов,M,B,Single-ply,Open,100,1983-07-02,100,,,,,250,-260,260,260,,,,,260
3,Mikhail Rayanov,Михаил Раянов,M,B,Single-ply,Open,100,1977-03-04,96.5,,,,,-200,200,-205,200,,,,,200
4,Leonid Gadzha,Леонид Гаджа,M,B,Single-ply,Open,100,1970-05-02,100,,,,,-195,-195,195,195,,,,,195
DQ,Dmitriy Medvedkov,Дмитрий Медведков,M,B,Single-ply,Open,100,1987-04-08,95,,,,,-155,-160,-165,,,,,,
1,Kirill Sarychev,Кирилл Сарычев,M,B,Single-ply,Open,100+,1989-01-01,129,,,,,-250,252.5,-300,252.5,,,,,252.5
2,Aleksandr Ablizin,Александр Аблизин,M,B,Single-ply,Open,100+,1973-03-26,157,,,,,240,-250,-250,240,,,,,240
3,Aleksandr Gusterin,Александр Густерин,M,B,Single-ply,Open,100+,1971-03-05,109,,,,,222.5,227.5,230,230,,,,,230
4,Yuriy Pestichev,Юрий Пестичев,M,B,Single-ply,Open,100+,1988-04-26,105,,,,,200,-220,220,220,,,,,220
DQ,Pavel Kucherov,Павел Кучеров,M,B,Single-ply,Open,100+,1969-01-24,110,,,,,-270,-270,-270,,,,,,
DQ,Evgeniy Lysov,Евгений Лысов,M,B,Single-ply,Open,100+,1980-04-13,120,,,,,-232.5,-232.5,-232.5,,,,,,
