Place,Name,Sex,Event,Division,WeightClassKg,Equipment,BirthYear,State,BodyweightKg,Squat1Kg,Squat2Kg,Squat3Kg,Best3SquatKg,Bench1Kg,Bench2Kg,Bench3Kg,Best3BenchKg,Deadlift1Kg,Deadlift2Kg,Deadlift3Kg,Best3DeadliftKg,TotalKg
1,Thuquynh Dinh,F,SBD,R-O,52,Raw,1990,MA,51.5,135,140,145,145,55,60,-62.5,60,135,140,-142.5,140,345
2,August Sloan Eckhardt,F,SBD,R-O,52,Raw,1974,NY,50.7,62.5,70,77.5,77.5,42.5,47.5,52.5,52.5,87.5,100,105,105,235
DQ,Xin Hui Yong,F,SBD,R-O,52,Raw,1995,NY,51.9,85,90,-92.5,90,-57.5,-57.5,-57.5,,105,115,-125,115,
1,Sofia Chelpon,F,SBD,R-O,57,Raw,1994,NY,55.7,110,115,117.5,117.5,60,65,-67.5,65,115,122.5,-127.5,122.5,305
2,Bethany Erskine,F,SBD,R-O,57,Raw,1978,NY,56.5,100,107.5,110,110,45,-47.5,47.5,47.5,130,137.5,140,140,297.5
3,Carla Kelly,F,SBD,R-O,57,Raw,1988,NY,54.1,-85,85,-92.5,85,-45,-47.5,47.5,47.5,120,127.5,-132.5,127.5,260
4,Holly Frisbee,F,SBD,R-O,57,Raw,1980,NY,56.3,92.5,100,-105,100,45,-47.5,-47.5,45,92.5,97.5,-102.5,97.5,242.5
DQ,Jessica Plaza-Avila,F,SBD,R-O,57,Raw,1989,CT,56.2,-125,-125,-125,,,,,,,,,,
1,Natatia Nugent,F,SBD,R-O,63,Raw,1988,NY,60.5,112.5,120,132.5,132.5,52.5,55,60,60,155,167.5,-175,167.5,360
2,Lauren Rounds,F,SBD,R-O,63,Raw,1990,NY,61.6,120,127.5,135,135,57.5,62.5,65,65,135,142.5,150,150,350
3,Martha Connaughton,F,SBD,R-O,63,Raw,1986,NY,62.6,-95,95,100,100,67.5,72.5,75,75,150,155,165,165,340
4,Yuan-Chien Yang,F,SBD,R-O,63,Raw,1982,NY,62.2,105,112.5,117.5,117.5,50,55,57.5,57.5,140,152.5,162.5,162.5,337.5
5,Krystle Tsai,F,SBD,R-O,63,Raw,1982,NY,60.6,115,120,125,125,47.5,50,-55,50,137.5,147.5,-152.5,147.5,322.5
6,Axelle Ros,F,SBD,R-O,63,Raw,1987,NY,62.9,87.5,95,-97.5,95,42.5,45,-47.5,45,107.5,115,122.5,122.5,262.5
7,Stephanie LeVonne,F,SBD,R-O,63,Raw,1992,NY,62.3,-87.5,-90,92.5,92.5,42.5,47.5,-52.5,47.5,105,112.5,117.5,117.5,257.5
8,Samantha Gattsek,F,SBD,R-O,63,Raw,1985,NY,60.7,77.5,85,90,90,40,45,-50,45,102.5,110,117.5,117.5,252.5
9,Adrianne Isaacson,F,SBD,R-O,63,Raw,1992,NY,61.8,80,87.5,90,90,45,-47.5,47.5,47.5,92.5,100,107.5,107.5,245
DQ,Shannon Wagner,F,SBD,R-O,63,Raw,1985,NY,62,102.5,107.5,-110,107.5,-67.5,-67.5,-67.5,,130,137.5,-140,137.5,
1,Madeleine Hew,F,SBD,R-O,72,Raw,1996,NY,69.2,112.5,122.5,127.5,127.5,70,75,-80,75,145,152.5,157.5,157.5,360
2,Jessie Contour,F,SBD,R-O,72,Raw,1990,NY,64.5,127.5,132.5,137.5,137.5,65,-67.5,70,70,130,140,150,150,357.5
3,Martha Cuomo,F,SBD,R-O,72,Raw,1986,MA,70.7,97.5,107.5,115,115,62.5,70,72.5,72.5,152.5,165,-177.5,165,352.5
4,Jennifer Kim,F,SBD,R-O,72,Raw,1987,NJ,67,117.5,125,130,130,65,70,-72.5,70,122.5,130,137.5,137.5,337.5
5,Amy Muckerman,F,SBD,R-O,72,Raw,1971,NY,68.4,97.5,105,112.5,112.5,50,-55,55,55,-115,127.5,-137.5,127.5,295
6,Julia Penafiel,F,SBD,R-O,72,Raw,1992,NY,71.6,110,117.5,-122.5,117.5,50,52.5,57.5,57.5,100,107.5,-117.5,107.5,282.5
7,Debbie Palaguachi,F,SBD,R-O,72,Raw,1995,NY,63.7,-90,95,-97.5,95,37.5,40,-42.5,40,115,120,125,125,260
8,Elisa Verna,F,SBD,R-O,72,Raw,1987,NY,66.4,90,95,102.5,102.5,40,45,50,50,90,95,100,100,252.5
9,Jessica Drigun,F,SBD,R-O,72,Raw,1992,NY,71,87.5,90,97.5,97.5,37.5,40,45,45,95,100,110,110,252.5
10,Dayva Segal,F,SBD,R-O,72,Raw,1986,CA,66.9,75,82.5,90,90,35,42.5,47.5,47.5,87.5,97.5,-102.5,97.5,235
11,Lisa Schieffelin,F,SBD,R-O,72,Raw,1963,NY,70.9,77.5,82.5,-87.5,82.5,40,-42.5,-45,40,100,105,110,110,232.5
12,Cil Shaw-Brewer,F,SBD,R-O,72,Raw,1960,NY,67.3,67.5,-70,70,70,42.5,45,47.5,47.5,107.5,-112.5,112.5,112.5,230
13,Jessica Welker,F,SBD,R-O,72,Raw,1984,NY,69.6,70,75,80,80,42.5,47.5,52.5,52.5,87.5,92.5,97.5,97.5,230
1,Erica Bonnett,F,SBD,R-O,84,Raw,1987,NY,75.3,110,117.5,122.5,122.5,-62.5,62.5,-70,62.5,142.5,157.5,165,165,350
2,Sheila Reyes,F,SBD,R-O,84,Raw,1991,NY,82.6,107.5,117.5,-125,117.5,62.5,67.5,-70,67.5,130,140,147.5,147.5,332.5
3,Katie Fitzpatrick,F,SBD,R-O,84,Raw,1988,NY,81.4,105,115,120,120,47.5,52.5,-57.5,52.5,120,130,140,140,312.5
4,Kyra Wolfe,F,SBD,R-O,84,Raw,1979,NY,79.1,85,90,95,95,-47.5,50,-52.5,50,107.5,115,122.5,122.5,267.5
1,Kristin Jackson,F,SBD,R-O,84+,Raw,1981,NY,88.3,122.5,130,137.5,137.5,65,70,72.5,72.5,130,137.5,145,145,355
2,Crystal Mocete,F,SBD,R-O,84+,Raw,1988,NY,93.2,112.5,122.5,-132.5,122.5,52.5,62.5,-70,62.5,125,135,137.5,137.5,322.5
3,Kaleena Castillo-Alvarez,F,SBD,R-O,84+,Raw,1983,NY,88.8,77.5,82.5,87.5,87.5,40,45,50,50,100,110,120,120,257.5
1,Jeffrey Li,M,SBD,R-O,66,Raw,1990,NY,65.8,155,165,172.5,172.5,110,117.5,122.5,122.5,210,220,230,230,525
2,Jacob Fields,M,SBD,R-O,66,Raw,1992,NY,64,170,177.5,-180,177.5,105,107.5,110,110,210,220,227.5,227.5,515
3,Jeffrey Wong,M,SBD,R-O,66,Raw,1998,NY,64.2,170,180,-190,180,102.5,107.5,112.5,112.5,207.5,220,-232.5,220,512.5
1,Edward Ho,M,SBD,R-O,74,Raw,1991,NY,74,177.5,185,-187.5,185,107.5,115,-120,115,230,242.5,250,250,550
2,Edwin Sutirto,M,SBD,R-O,74,Raw,1993,NY,74,165,172.5,175,175,-125,125,-132.5,125,205,215,-227.5,215,515
3,Clinton Lee #2,M,SBD,R-O,74,Raw,1984,NY,73.7,167.5,177.5,-185,177.5,110,115,117.5,117.5,200,210,215,215,510
4,Stephen Lunapiena,M,SBD,R-O,74,Raw,1989,NY,71.6,140,147.5,155,155,97.5,102.5,-107.5,102.5,175,182.5,190,190,447.5
5,Thanos Richard,M,SBD,R-O,74,Raw,1995,NY,74,140,145,-147.5,145,72.5,77.5,-82.5,77.5,210,217.5,-227.5,217.5,440
6,Kevin Thomas,M,SBD,R-O,74,Raw,1989,NY,69.7,135,142.5,152.5,152.5,85,90,92.5,92.5,160,172.5,175,175,420
7,Al Cheung,M,SBD,R-O,74,Raw,1985,NY,74,92.5,-102.5,-120,92.5,-90,-102.5,102.5,102.5,130,137.5,145,145,340
DQ,Carlos Antonorsi,M,SBD,R-O,74,Raw,1989,NY,66.4,-132.5,142.5,-145,142.5,-102.5,-102.5,-102.5,,170,182.5,-187.5,182.5,
1,Frank Wu,M,SBD,R-O,83,Raw,1983,MA,82.9,197.5,207.5,217.5,217.5,140,147.5,-152.5,147.5,280,297.5,310,310,675
2,Cory Jacobs,M,SBD,R-O,83,Raw,1988,NY,80.1,202.5,215,-220,215,135,145,150,150,220,240,252.5,252.5,617.5
3,Irvin Lara,M,SBD,R-O,83,Raw,1991,NY,80.8,185,195,202.5,202.5,132.5,135,140,140,220,232.5,-250,232.5,575
4,Brandon Lu,M,SBD,R-O,83,Raw,1994,NY,76.7,210,220,-227.5,220,105,110,-115,110,215,227.5,235,235,565
5,Jose Conty,M,SBD,R-O,83,Raw,1992,NY,82.4,175,182.5,-200,182.5,132.5,142.5,-145,142.5,225,-247.5,-250,225,550
6,Christopher Gahn,M,SBD,R-O,83,Raw,1986,NY,80.6,182.5,190,200,200,102.5,110,112.5,112.5,210,222.5,227.5,227.5,540
7,Harris Freedman,M,SBD,R-O,83,Raw,1989,NY,82,192.5,-205,-205,192.5,132.5,135,-140,135,195,202.5,205,205,532.5
8,Sigifredo Gil,M,SBD,R-O,83,Raw,1996,NY,82.4,152.5,180,185,185,82.5,100,105,105,175,220,232.5,232.5,522.5
9,Hendrick Hoepelman,M,SBD,R-O,83,Raw,1990,NY,82.6,155,165,175,175,120,127.5,-135,127.5,195,207.5,220,220,522.5
10,Michael Rodio,M,SBD,R-O,83,Raw,1990,NY,80.9,167.5,172.5,-177.5,172.5,102.5,110,-112.5,110,195,205,215,215,497.5
11,Rondel Perez,M,SBD,R-O,83,Raw,1987,NJ,80.5,150,160,175,175,110,117.5,-127.5,117.5,187.5,195,202.5,202.5,495
12,Eric Rodd,M,SBD,R-O,83,Raw,1989,NY,81.3,125,140,152.5,152.5,85,100,105,105,160,177.5,200,200,457.5
13,Eduardo Deras,M,SBD,R-O,83,Raw,1990,NY,76.8,150,160,170,170,70,-80,82.5,82.5,160,165,172.5,172.5,425
14,Oscar Chen,M,SBD,R-O,83,Raw,1993,NY,81.2,100,125,-150,125,112.5,120,-122.5,120,100,125,152.5,152.5,397.5
15,Jesse Sheidlower,M,SBD,R-O,83,Raw,1968,NY,82.1,-120,120,-130,120,75,-80,-80,75,160,170,180,180,375
1,Hamid Lekic,M,SBD,R-O,93,Raw,1980,NY,89.4,230,247.5,252.5,252.5,137.5,145,-147.5,145,275,290,-295,290,687.5
2,Delbert Moran,M,SBD,R-O,93,Raw,1997,NY,83.1,182.5,192.5,202.5,202.5,145,155,160,160,232.5,242.5,252.5,252.5,615
3,John Myslinski,M,SBD,R-O,93,Raw,1993,NY,91.5,200,212.5,-220,212.5,137.5,-145,-145,137.5,240,255,265,265,615
4,Tom Gregg,M,SBD,R-O,93,Raw,1985,NY,91.4,200,210,217.5,217.5,152.5,157.5,162.5,162.5,215,227.5,,227.5,607.5
5,Derek Huang,M,SBD,R-O,93,Raw,1993,NY,90.5,215,227.5,-232.5,227.5,140,150,-157.5,150,205,220,-222.5,220,597.5
6,Shneur Edelman,M,SBD,R-O,93,Raw,1985,NY,90.9,192.5,200,-202.5,200,137.5,142.5,-147.5,142.5,217.5,227.5,-230,227.5,570
7,Kyle Burda,M,SBD,R-O,93,Raw,1988,NJ,86,172.5,182.5,-190,182.5,-122.5,125,132.5,132.5,205,217.5,230,230,545
8,Jimmy Chen,M,SBD,R-O,93,Raw,1997,NY,91.7,192.5,197.5,200,200,-120,-120,120,120,205,215,-227.5,215,535
9,Adam Van Auken,M,SBD,R-O,93,Raw,1976,NY,87.3,165,175,182.5,182.5,120,-127.5,-127.5,120,210,225,230,230,532.5
10,Jacky Ruan,M,SBD,R-O,93,Raw,1999,NY,92.5,180,195,200,200,100,-102.5,102.5,102.5,200,212.5,-220,212.5,515
11,Armand Solano,M,B,R-O,93,Raw,1985,NJ,91.7,,,,,125,-137.5,-137.5,125,,,,,125
1,David Modica,M,SBD,R-O,105,Raw,1986,NY,98.4,212.5,225,235,235,170,180,-187.5,180,240,255,267.5,267.5,682.5
2,Serge Previlon,M,SBD,R-O,105,Raw,1994,NY,102.9,227.5,245,255,255,140,150,-155,150,235,252.5,262.5,262.5,667.5
3,Anthony Mendez,M,SBD,R-O,105,Raw,1984,NY,102.8,195,205,215,215,175,185,195,195,227.5,240,-250,240,650
4,Zachary Swartz,M,SBD,R-O,105,Raw,1988,NY,101.9,192.5,197.5,205,205,-145,145,-165,145,-242.5,242.5,-250,242.5,592.5
5,William Medearis,M,SBD,R-O,105,Raw,1976,NY,98.3,180,190,-200,190,120,130,137.5,137.5,210,220,227.5,227.5,555
6,Nick Minadis,M,SBD,R-O,105,Raw,1988,NY,95,170,180,190,190,132.5,140,-145,140,205,217.5,-227.5,217.5,547.5
7,David Zakaryan,M,SBD,R-O,105,Raw,1992,NY,101.8,160,172.5,185,185,107.5,122.5,-127.5,122.5,200,215,227.5,227.5,535
8,Alexander Perkins,M,SBD,R-O,105,Raw,1987,NY,103,175,180,185,185,97.5,102.5,107.5,107.5,217.5,227.5,237.5,237.5,530
9,Michael Piela,M,SBD,R-O,105,Raw,1983,NY,100.8,160,170,-177.5,170,100,105,107.5,107.5,200,-207.5,207.5,207.5,485
1,Jesse Gruhl,M,SBD,R-O,120,Raw,1997,NY,112.9,250,262.5,272.5,272.5,165,172.5,177.5,177.5,242.5,257.5,265,265,715
2,Colton Aho,M,SBD,R-O,120,Raw,1993,NY,111.2,240,250,260,260,127.5,132.5,135,135,280,292.5,300,300,695
3,Victor Dixon,M,SBD,R-O,120,Raw,1981,NY,113.5,190,200,215,215,142.5,150,-155,150,265,277.5,290,290,655
4,Daniel Martinez,M,SBD,R-O,120,Raw,1988,NY,118.9,200,217.5,235,235,130,140,150,150,210,227.5,242.5,242.5,627.5
5,Ben Spoer,M,SBD,R-O,120,Raw,1985,NY,117.6,210,217.5,225,225,117.5,-122.5,125,125,222.5,227.5,235,235,585
6,Nikola Obradovic,M,SBD,R-O,120,Raw,1988,NY,107.5,175,190,200,200,125,135,-140,135,210,227.5,240,240,575
7,Robert Szyba,M,SBD,R-O,120,Raw,1979,NJ,113.2,145,-160,170,170,-90,95,-100,95,175,185,-195,185,450
8,Kristofer Hayes,M,SBD,R-O,120,Raw,1986,NY,111.9,150,155,-160,155,-100,100,102.5,102.5,170,180,-197.5,180,437.5
1,Tommy Roughan,M,SBD,R-O,120+,Raw,1976,NY,128.6,235,245,260,260,155,165,-175,165,-260,275,-280,275,700
2,Ernie Porcelli,M,SBD,R-O,120+,Raw,1981,NY,152.6,225,237.5,250,250,145,-150,,145,257.5,-265,265,265,660
