Place,Name,WeightClassKg,BodyweightKg,Sex,Event,Equipment,Squat1Kg,Squat2Kg,Squat3Kg,Best3SquatKg,Bench1Kg,Bench2Kg,Bench3Kg,Best3BenchKg,Deadlift1Kg,Deadlift2Kg,Deadlift3Kg,Best3DeadliftKg,TotalKg,DeadliftEquipment
1,Joe Schmidt,52,52,M,SBD,Single-ply,152.5,162.5,-170,162.5,-92.5,92.5,-97.5,92.5,177.5,-190,-190,177.5,432.5,
2,Todd Antinoro,52,51,M,SBD,Single-ply,142.5,155,160,160,82.5,87.5,-90,87.5,165,-175,-175,165,412.5,
3,William Jackson,52,49,M,SBD,Single-ply,137.5,-150,150,150,70,-82.5,-82.5,70,180,-187.5,-187.5,180,400,
1,Joe Morgan,56,55.5,M,SBD,Single-ply,200,-217.5,217.5,217.5,120,125,127.5,127.5,200,210,215,215,560,
2,Russ Steinhauser,56,56,M,SBD,Single-ply,182.5,200,-205,200,112.5,122.5,-125,122.5,215,227.5,-240,227.5,550,
3,Ernesto Milian,56,55.9,M,SBD,Single-ply,195,-205,-205,195,115,120,-125,120,227.5,-237.5,-247.5,227.5,542.5,
4,Mark Ferrera,56,56,M,SBD,Single-ply,170,187.5,-197.5,187.5,142.5,155,-162.5,155,182.5,192.5,-197.5,192.5,535,
5,Monte Masson,56,56,M,SBD,Single-ply,187.5,-200,-200,187.5,117.5,-125,-125,117.5,187.5,200,-210,200,505,
6,Mitch Echevarria,56,56,M,SBD,Single-ply,180,-190,190,190,107.5,115,125,125,180,-200,-200,180,495,
1,Claude Handsor,60,59.9,M,SBD,Single-ply,242.5,-250,-252.5,242.5,-152.5,152.5,-160,152.5,247.5,257.5,-262.5,257.5,652.5,
2,Charles Lawson,60,60,M,SBD,Single-ply,217.5,227.5,-242.5,227.5,112.5,120,127.5,127.5,242.5,255,262.5,262.5,617.5,
3,Randall Kea,60,59.9,M,SBD,Single-ply,-227.5,227.5,-240,227.5,157.5,-167.5,-167.5,157.5,230,-245,-245,230,615,
4,Ralph Caputo,60,60,M,SBD,Single-ply,-207.5,207.5,-227.5,207.5,122.5,132.5,-135,132.5,222.5,242.5,-247.5,242.5,582.5,
5,Scott Alford,60,60,M,SBD,Single-ply,200,217.5,-227.5,217.5,132.5,142.5,-147.5,142.5,212.5,-222.5,-222.5,212.5,572.5,
6,Richard Pell,60,60,M,SBD,Single-ply,230,-242.5,-245,230,105,-110,-110,105,212.5,-227.5,-227.5,212.5,547.5,
7,Joe Smith,60,59.6,M,SBD,Single-ply,-182.5,-182.5,182.5,182.5,115,125,-135,125,192.5,205,-215,205,512.5,
DQ,Lamar Gant,60,59.2,M,SBD,Single-ply,-220,220,-227.5,220,-135,-142.5,-142.5,,,,,,,
1,Robert Bridges,67.5,67.5,M,SBD,Single-ply,-257.5,257.5,-265,257.5,142.5,150,155,155,272.5,310,-322.5,310,722.5,
2,James Finch,67.5,67.1,M,SBD,Single-ply,260,-270,270,270,147.5,157.5,-160,157.5,277.5,292.5,-297.5,292.5,720,
3,Daniel Austin,67.5,67,M,SBD,Single-ply,257.5,267.5,-272.5,267.5,157.5,162.5,-165,162.5,275,287.5,-295,287.5,717.5,
4,Dave Dehart,67.5,67.2,M,SBD,Single-ply,240,252.5,-260,252.5,152.5,165,170,170,245,-260,-260,245,667.5,
5,Larry Luckett,67.5,65.3,M,SBD,Single-ply,245,-265,-272.5,245,162.5,175,182.5,182.5,232.5,-277.5,,232.5,660,
6,Francis Ruettiger,67.5,67.5,M,SBD,Single-ply,242.5,-247.5,-247.5,242.5,155,162.5,165,165,245,-257.5,-257.5,245,652.5,
7,Vince Farri,67.5,67.1,M,SBD,Single-ply,227.5,-247.5,-247.5,227.5,165,-175,-175,165,227.5,237.5,-245,237.5,630,
8,Pete Scholz,67.5,66.3,M,SBD,Single-ply,222.5,227.5,-232.5,227.5,142.5,-147.5,-147.5,142.5,242.5,-250,250,250,620,
DQ,JD Carr,67.5,67.1,M,SBD,Single-ply,232.5,245,-255,245,-142.5,-142.5,-142.5,,,,,,,
DQ,Ausby Alexander,67.5,67,M,SBD,Single-ply,-267.5,-272.5,-272.5,,,,,,,,,,,
1,Gene Bell,75,74.6,M,SBD,Single-ply,300,-310,310,310,192.5,200,-205,200,292.5,302.5,-307.5,302.5,812.5,
2,John Topsoglou,75,74.7,M,SBD,Single-ply,302.5,-312.5,-312.5,302.5,177.5,-187.5,-187.5,177.5,290,312.5,-322.5,312.5,792.5,
3,Jay Rosciglione,75,74.8,M,SBD,Single-ply,295,310,315,315,165,-172.5,172.5,172.5,287.5,-295,-295,287.5,775,
4,Gary Allor,75,74.4,M,SBD,Single-ply,265,275,-285,275,200,-210,-210,200,255,272.5,,272.5,747.5,
5,James Bolin,75,74.4,M,SBD,Single-ply,237.5,,,237.5,182.5,190,-192.5,190,237.5,252.5,272.5,272.5,700,
DQ,John Inzer,75,73.5,M,SBD,Single-ply,-297.5,-297.5,-297.5,,,,,,,,,,,
DQ,Rickey Dale Crain,75,74.6,M,SBD,Single-ply,-295,-295,-295,,,,,,,,,,,
1,Daniel Gay,82.5,81.6,M,SBD,Single-ply,-312.5,-312.5,312.5,312.5,195,205,-210,205,-310,315,322.5,322.5,840,
2,Bruce Takala,82.5,82,M,SBD,Single-ply,-320,-320,320,320,187.5,197.5,205,205,292.5,307.5,315,315,840,
3,James Mike Phillips,82.5,81.7,M,SBD,Single-ply,282.5,305,-320,305,202.5,-222.5,222.5,222.5,282.5,-302.5,-302.5,282.5,810,
4,Doug Haines,82.5,82.1,M,SBD,Single-ply,-280,280,-285,280,192.5,-197.5,-197.5,192.5,-310,310,-320,310,782.5,
5,Tom Maupin,82.5,81.9,M,SBD,Single-ply,-287.5,295,-300,295,190,-195,-195,190,295,-312.5,-312.5,295,780,
6,Ken Richardson,82.5,81.7,M,SBD,Single-ply,-277.5,-282.5,282.5,282.5,185,-190,-190,185,272.5,-287.5,,272.5,740,
7,Douglas Peterson,82.5,82.5,M,SBD,Single-ply,295,-315,-315,295,150,157.5,-162.5,157.5,-287.5,287.5,-302.5,287.5,740,
DQ,Rick Weil,82.5,82,M,SBD,Single-ply,-292.5,-292.5,292.5,292.5,230,242.5,-247.5,242.5,-275,-275,-275,,,
DQ,Rick Gaugler,82.5,81.8,M,SBD,Single-ply,-345,-345,-345,,,,,,,,,,,
DQ,Tom Eiseman,82.5,81.9,M,SBD,Single-ply,-310,-310,-310,,,,,,,,,,,
1,Ed Coan,90,89.7,M,SBD,Single-ply,380,-390,390,390,220,-227.5,,220,377.5,390,-395,390,1000,Raw
2,Pat Pointer,90,89.6,M,SBD,Single-ply,-317.5,317.5,-332.5,317.5,217.5,-227.5,-227.5,217.5,305,-320,325,325,860,
3,John Bassi,90,89.3,M,SBD,Single-ply,-322.5,342.5,-352.5,342.5,187.5,195,200,200,295,307.5,-312.5,307.5,850,
4,John Black,90,90,M,SBD,Single-ply,320,335,-342.5,335,177.5,187.5,192.5,192.5,302.5,320,-342.5,320,847.5,
5,Robert Dyer,90,89.6,M,SBD,Single-ply,-290,-290,290,290,195,215,-227.5,215,270,290,-310,290,795,
DQ,Gary Sanger,90,89.2,M,SBD,Single-ply,-325,-325,-325,,,,,,,,,,,
DQ,Ken Shepard,90,89.5,M,SBD,Single-ply,-295,-295,-295,,,,,,,,,,,
DQ,George Parigian,90,90,M,SBD,Single-ply,-315,-320,-320,,,,,,,,,,,
1,Tony Pharr,100,98.9,M,SBD,Single-ply,337.5,-357.5,-357.5,337.5,237.5,245,-247.5,245,337.5,-347.5,-347.5,337.5,920,
2,Ron Tullis,100,99.6,M,SBD,Single-ply,-340,340,-347.5,340,225,235,237.5,237.5,340,-352.5,-352.5,340,917.5,
3,Francis Silva,100,98.9,M,SBD,Single-ply,-337.5,337.5,352.5,352.5,237.5,-252.5,252.5,252.5,-285,285,-305,285,890,
4,Buddy Duke,100,99.7,M,SBD,Single-ply,320,337.5,-345,337.5,200,220,-227.5,220,332.5,-362.5,-365,332.5,890,
5,John Roberts,100,98,M,SBD,Single-ply,345,-365,-365,345,220,232.5,-237.5,232.5,-307.5,307.5,-317.5,307.5,885,
6,Ernie Frantz,100,96.5,M,SBD,Single-ply,330,350,-365,350,182.5,-192.5,-192.5,182.5,330,350,-367.5,350,882.5,
7,Larry Mistric,100,99,M,SBD,Single-ply,-335,350,-362.5,350,210,-217.5,-217.5,210,295,-310,-320,295,855,
DQ,Douglas Borden,100,98,M,SBD,Single-ply,-337.5,-337.5,-337.5,,,,,,,,,,,
DQ,R Potts,100,98.9,M,SBD,Single-ply,-322.5,-322.5,-340,,,,,,,,,,,
DQ,James Cash,100,99,M,SBD,Single-ply,-350,-350,-362.5,,,,,,,,,,,
DQ,Larry Pacifico,100,99.2,M,SBD,Single-ply,-350,-350,-357.5,,,,,,,,,,,
DQ,Joe Ladnier,100,99.7,M,SBD,Single-ply,-362.5,-362.5,-362.5,,,,,,,,,,,
1,Dave Jacoby,110,109.5,M,SBD,Single-ply,-380,-380,380,380,232.5,240,245,245,347.5,357.5,-365,357.5,982.5,
2,Fred Hatfield,110,108.3,M,SBD,Single-ply,377.5,402.5,,402.5,215,227.5,237.5,237.5,-335,335,-345,335,975,
3,William Nichols,110,109.5,M,SBD,Single-ply,-372.5,372.5,-392.5,372.5,220,230,-235,230,325,342.5,-352.5,342.5,945,
4,Willie Bell,110,108.4,M,SBD,Single-ply,335,350,357.5,357.5,-222.5,222.5,227.5,227.5,347.5,-367.5,-367.5,347.5,932.5,
5,Jerry Wood,110,108.9,M,SBD,Single-ply,352.5,-367.5,-367.5,352.5,227.5,240,,240,327.5,337.5,-345,337.5,930,
6,Dennis Reed,110,109.8,M,SBD,Single-ply,385,-392.5,-392.5,385,-197.5,197.5,-202.5,197.5,327.5,337.5,-347.5,337.5,920,
7,Steve Wilson,110,109.1,M,SBD,Single-ply,340,-357.5,,340,245,-257.5,-260,245,332.5,-352.5,-352.5,332.5,917.5,
8,Mark Weih,110,109.8,M,SBD,Single-ply,337.5,,,337.5,252.5,-260,-260,252.5,327.5,-350,,327.5,917.5,
9,Robert Chrosniak,110,109.4,M,SBD,Single-ply,365,-387.5,-387.5,365,205,215,-220,215,332.5,-347.5,,332.5,912.5,
10,Bill Davis,110,109.6,M,SBD,Single-ply,337.5,-352.5,352.5,352.5,212.5,220,-225,220,327.5,-342.5,-342.5,327.5,900,
11,Gil Thompson,110,105.9,M,SBD,Single-ply,-332.5,332.5,-350,332.5,245,-257.5,-262.5,245,307.5,-320,,307.5,885,
12,Mark Dimiduk,110,107,M,SBD,Single-ply,345,-362.5,-365,345,190,200,-207.5,200,337.5,-357.5,-360,337.5,882.5,
13,Paul Immekus,110,108.8,M,SBD,Single-ply,-347.5,347.5,-362.5,347.5,-207.5,207.5,215,215,310,-322.5,-322.5,310,872.5,
14,Dave Atterholt,110,110,M,SBD,Single-ply,312.5,-320,-320,312.5,205,212.5,-215,212.5,-312.5,312.5,-322.5,312.5,837.5,
1,Tom Henderson,125,124,M,SBD,Single-ply,367.5,-395,395,395,230,235,,235,355,367.5,370,370,1000,
2,Douglas Furnas,125,121.2,M,SBD,Single-ply,382.5,-402.5,-402.5,382.5,227.5,240,247.5,247.5,340,355,367.5,367.5,997.5,
3,Sam Samaniego,125,124,M,SBD,Single-ply,357.5,370,-382.5,370,-275,-275,275,275,287.5,-310,310,310,955,
4,Dave Parks,125,122.5,M,SBD,Single-ply,365,-375,-375,365,-207.5,207.5,-210,207.5,365,377.5,-382.5,377.5,950,
5,Mark Chaillet,125,123.7,M,SBD,Single-ply,365,-382.5,-382.5,365,215,-225,-225,215,365,,-380,365,945,
6,Scott Warman,125,111.4,M,SBD,Single-ply,365,-387.5,-387.5,365,165,217.5,-222.5,217.5,357.5,-375,-375,357.5,940,
7,Tim Martin,125,124.4,M,SBD,Single-ply,365,387.5,-395,387.5,215,227.5,-232.5,227.5,305,-320,-320,305,920,
8,Robert Dempsey,125,123.5,M,SBD,Single-ply,-335,335,-350,335,190,197.5,,197.5,320,330,-337.5,330,862.5,
DQ,Joe Morelli,125,121,M,SBD,Single-ply,-375,-375,-385,,,,,,,,,,,
DQ,Larry Kidney,125,124.8,M,SBD,Single-ply,-362.5,-362.5,-362.5,,,,,,,,,,,
1,George Hechter,125+,153.6,M,SBD,Single-ply,410,-447.5,-447.5,410,-240,250,265,265,340,365,367.5,367.5,1042.5,
2,Doyle Kenady,125+,135,M,SBD,Single-ply,372.5,-392.5,392.5,392.5,230,237.5,245,245,372.5,390,-405,390,1027.5,
3,Mike Hall,125+,163.3,M,SBD,Single-ply,377.5,-392.5,-397.5,377.5,247.5,260,-265,260,330,347.5,-365,347.5,985,
4,Gus Rethwisch,125+,155.2,M,SBD,Single-ply,-380,380,-397.5,380,-220,-220,220,220,357.5,-385,-385,357.5,957.5,
DQ,Dave Waddington,125+,141,M,SBD,Single-ply,-410,,,,,,,,,,,,,
