Name,Place,State,Division,Sex,Age,Equipment,WeightClassKg,Event,Best3SquatKg,Best3BenchKg,Best3DeadliftKg,TotalKg
Shuana Norris,1,MO,Open Female,F,25,Wraps,60,SBD,90,42.5,120,252.5
Abbey Elderinghoff,1,MO,Teen 16-17 Female,F,17,Wraps,75,SBD,90,60,137.5,287.5
Brianne Chavez,1,MO,Open Female,F,26,Wraps,75,SBD,117.5,72.5,160,350
Landon Kluesner,1,MO,Male Open,M,25,Wraps,100,SBD,210,175,250,635
Luke Blattel,1,MO,Male Open,M,29,Wraps,75,SBD,117.5,90,160,367.5
Daryl McIntyre,1,MO,Male Juniors,M,20,Wraps,75,SBD,117.5,75,160,352.5
Jesse Hawkins,1,MO,Male Open,M,24,Single-ply,90,SBD,210,145,230,585
Stephanie Wood,1,MO,Female Masters I,F,40,Single-ply,60,SBD,107.5,70,140,317.5
Adam Flynn,1,MO,Male Juniors,M,22,Raw,100,BD,,160,241,401
