Division,WeightClassKg,Place,Name,Team,BodyweightKg,Best3SquatKg,Best3BenchKg,Best3DeadliftKg,TotalKg,Equipment,Event,Sex
Boys,52,1,Kamdyn Benjamin,Cedar Hill,49.08,92.99,52.16,108.86,254.01,Single-ply,SBD,M
Boys,56,1,Brady Macaulay,Everman,55.79,138.35,65.77,145.15,349.27,Single-ply,SBD,M
Boys,56,2,AJ Starks,Cedar Hill,54.25,129.27,68.04,133.81,331.12,Single-ply,SBD,M
Boys,56,DQ,Joshua Lambatan,Mansfield Summit,52.16,,56.7,108.86,,Single-ply,SBD,M
Boys,60,1,Daylon Jackson,Everman,59.69,147.42,88.45,172.37,408.23,Single-ply,SBD,M
Boys,60,2,Joseph Terrance,Mansfield Timberview,57.24,115.67,77.11,122.47,315.25,Single-ply,SBD,M
Boys,60,3,Edgar Aguirre,Everman,59.15,102.06,65.77,124.74,292.57,Single-ply,SBD,M
Boys,60,4,Anthony Nixon,Everman,57.7,102.06,52.16,122.47,276.69,Single-ply,SBD,M
Boys,67.5,1,Brandon Bland,Mansfield Timberview,66.68,172.37,90.72,158.76,421.84,Single-ply,SBD,M
Boys,67.5,2,Morcelino Clark,Mansfield Timberview,62.6,158.76,92.99,161.03,412.77,Single-ply,SBD,M
Boys,67.5,3,E'Darion Williams,Cedar Hill,65.14,165.56,79.38,158.76,403.7,Single-ply,SBD,M
Boys,67.5,4,Marquis Kiner,Mansfield Timberview,65.86,127.01,70.31,122.47,319.78,Single-ply,SBD,M
Boys,67.5,5,Garrin Fraze,Mansfield,66.95,102.06,70.31,138.35,310.71,Single-ply,SBD,M
Boys,67.5,6,Lance Burk,Mansfield Legacy,62.78,92.99,70.31,111.13,274.42,Single-ply,SBD,M
Boys,67.5,7,Enoch Ardern,Mansfield Summit,65.5,102.06,,,102.06,Single-ply,S,M
Boys,75,1,Isaiah Washington,Everman,73.75,204.12,113.4,204.12,521.63,Single-ply,SBD,M
Boys,75,2,Courtney Ogilvie,Cedar Hill,71.58,151.95,86.18,151.95,390.09,Single-ply,SBD,M
Boys,75,3,Calvin Porter,Mansfield Summit,68.95,136.08,97.52,151.95,385.55,Single-ply,SBD,M
Boys,75,DQ,Blake Powell,Mansfield Lake Ridge,74.21,,79.38,133.81,,Single-ply,SBD,M
Boys,82.5,1,Darrell Pinkston,Everman,81.74,260.82,127.01,215.46,603.28,Single-ply,SBD,M
Boys,82.5,2,James Worthy,Everman,81.1,226.8,120.2,226.8,573.79,Single-ply,SBD,M
Boys,82.5,3,Brian Aguilar,Everman,79.11,226.8,102.06,226.8,555.65,Single-ply,SBD,M
Boys,82.5,4,Noe Navejar,Mansfield Timberview,81.65,181.44,113.4,172.37,467.2,Single-ply,SBD,M
Boys,82.5,5,Javien Wilson,Cedar Hill,79.65,165.56,104.33,170.1,439.98,Single-ply,SBD,M
Boys,82.5,6,Sam Adedire,Mansfield Summit,78.11,142.88,95.25,181.44,419.57,Single-ply,SBD,M
Boys,82.5,7,Undrae Knox,Cedar Hill,79.83,142.88,88.45,161.03,392.36,Single-ply,SBD,M
Boys,90,1,Jaylon Parmes,Everman,87.09,242.67,127.01,260.82,630.49,Single-ply,SBD,M
Boys,90,2,Chris Reyes,Crowley,89.54,226.8,147.42,226.8,601.01,Single-ply,SBD,M
Boys,90,3,Khaemon Edwards,Everman,85.73,226.8,131.54,199.58,557.92,Single-ply,SBD,M
Boys,90,4,Larry Jones,Mansfield Timberview,83.91,170.1,104.33,183.7,458.13,Single-ply,SBD,M
Boys,90,5,Zach Willis,Mansfield Timberview,85.09,165.56,95.25,181.44,442.25,Single-ply,SBD,M
Boys,90,6,Isaac Ewegbeje,Mansfield Timberview,85.91,147.42,106.59,158.76,412.77,Single-ply,SBD,M
Boys,90,7,Reid Steele,Crowley,89.45,136.08,,136.08,272.16,Single-ply,SD,M
Boys,100,1,Ju'Nathean McAllister,Mansfield,92.44,204.12,108.86,204.12,517.1,Single-ply,SBD,M
Boys,100,2,Ezekial Veal,Everman,97.61,192.78,113.4,181.44,487.61,Single-ply,SBD,M
Boys,100,3,Deondre Carter,Cedar Hill,92.8,156.49,108.86,181.44,446.79,Single-ply,SBD,M
Boys,100,4,Ashton Welch,Everman,95.53,142.88,97.52,147.42,387.82,Single-ply,SBD,M
Boys,110,1,Rod McClain,Mansfield Lake Ridge,109.77,197.31,120.2,192.78,510.29,Single-ply,SBD,M
Boys,110,2,Montayawn Pryor,Cedar Hill,107.5,183.7,120.2,161.03,464.93,Single-ply,SBD,M
Boys,110,3,Jacob Brown,Mansfield Timberview,104.24,172.37,97.52,181.44,451.32,Single-ply,SBD,M
Boys,110,4,Derrick Salter,Mansfield Summit,109.68,183.7,92.99,165.56,442.25,Single-ply,SBD,M
Boys,110,5,Juan Vaquero,Mansfield Lake Ridge,102.33,154.22,97.52,183.7,435.45,Single-ply,SBD,M
Boys,110,DQ,Dwight Morales,Mansfield Summit,109.68,,,,,Single-ply,SBD,M
Boys,110,DQ,Nathan Buhake,Mansfield Summit,100.88,,,,,Single-ply,SBD,M
Boys,125,1,Glen Waters,Cedar Hill,113.49,206.38,129.27,215.46,551.11,Single-ply,SBD,M
Boys,125,2,Dylan Taylor,Cedar Hill,110.77,206.38,124.74,161.03,492.15,Single-ply,SBD,M
Boys,125,3,Benjamin Calhoun,Mansfield Timberview,116.48,181.44,124.74,185.97,492.15,Single-ply,SBD,M
Boys,125,4,Abdulazeez Yussuf,Mansfield Summit,110.86,167.83,120.2,197.31,485.34,Single-ply,SBD,M
Boys,125,5,Andrew Colon,Mansfield Lake Ridge,119.02,170.1,102.06,188.24,460.4,Single-ply,SBD,M
Boys,125,6,Justin Nash,Mansfield Timberview,122.29,170.1,120.2,158.76,449.06,Single-ply,SBD,M
Boys,125,7,Bryan Buckley,Mansfield Timberview,113.94,156.49,104.33,154.22,415.04,Single-ply,SBD,M
Boys,125,DQ,Cameron Preston,Crowley,116.3,,97.52,170.1,,Single-ply,SBD,M
Boys,125+,1,Caleb Reed,Everman,134.72,249.48,142.88,215.46,607.81,Single-ply,SBD,M
Boys,125+,2,Jaylin Hendrix,Everman,133.81,215.46,142.88,215.46,573.79,Single-ply,SBD,M
Boys,125+,3,Zion Byrd,Cedar Hill,152.86,170.1,124.74,183.7,478.54,Single-ply,SBD,M
