Name,CyrillicName,Sex,BodyweightKg,Deadlift1Kg,Deadlift2Kg,Deadlift3Kg,Best3DeadliftKg,Deadlift4Kg,TotalKg,WeightClassKg,Event,Equipment,Tested,Bench1Kg,Bench2Kg,Bench3Kg,Best3BenchKg,Bench4Kg,Squat1Kg,Squat2Kg,Squat3Kg,Best3SquatKg,Squat4Kg,Division,Age,Place
Marina Kamyshnikova,Марина Камышникова,F,51.9,135,145,152.5,152.5,,152.5,52,D,Single-ply,Yes,,,,,,,,,,,Amateur Open,38,1
Igor Filippov,Игорь Филиппов,M,80.8,230,240,250,250,,250,82.5,D,Single-ply,Yes,,,,,,,,,,,Amateur Open,32,1
Karen Grigoryants,Карен Григорьянц,F,96.9,270,-282.5,-282.5,270,,270,100,D,Single-ply,Yes,,,,,,,,,,,Amateur Open,27,1
Sergey Mishenin,Сергей Мишенин,M,98.9,225,-242.5,242.5,242.5,,242.5,100,D,Single-ply,Yes,,,,,,,,,,,Amateur Open,38,3
Dmitriy Makovey,Дмитрий Маковей,M,100.1,210,220,230,230,,230,110,D,Single-ply,Yes,,,,,,,,,,,Amateur Open,25,5
Ekaterina Paufler,Екатерина Пауфлер,F,42.3,-75,75,85,85,,85,44,D,Raw,Yes,,,,,,,,,,,Amateur Open,25,1
Darya Praslova,Дарья Праслова,F,47.2,67.5,72.5,77.5,77.5,,77.5,48,D,Raw,Yes,,,,,,,,,,,Amateur Juniors 20-23,21,1
Galina Vavilkina,Галина Вавилкина,F,47.6,87.5,92.5,97.5,97.5,,97.5,48,D,Raw,Yes,,,,,,,,,,,Amateur Masters 45-49,45,1
Natalya Pukman,Наталья Пукман,F,50.2,70,80,-97.5,80,,80,52,D,Raw,Yes,,,,,,,,,,,Amateur Juniors 20-23,20,1
Irina Golovunina,Ирина Головунина,F,51.1,137.5,140,-145,140,,140,52,D,Raw,Yes,,,,,,,,,,,Amateur Open,35,2
Anna Ratnikova,Анна Ратникова,F,51.9,125,127.5,-130,127.5,,127.5,52,D,Raw,Yes,,,,,,,,,,,Amateur Open,34,3
Larisa Osmakova,Лариса Осьмакова,F,51.7,90,95,97.5,97.5,,97.5,52,D,Raw,Yes,,,,,,,,,,,Amateur Open,26,4
Natalya Levenkova,Наталья Левенкова,F,56,122.5,132.5,-140,132.5,,132.5,56,D,Raw,Yes,,,,,,,,,,,Amateur Open,28,1
Ekaterina Chaplygina,Екатерина Чаплыгина,F,55.9,97.5,102.5,-107.5,102.5,,102.5,56,D,Raw,Yes,,,,,,,,,,,Amateur Open,25,2
Yuliya Bolshakova,Юлия Большакова,F,55.5,95,-100,-105,95,,95,56,D,Raw,Yes,,,,,,,,,,,Amateur Open,26,3
Alesya Goncharova,Алеся Гончарова,F,54.9,75,80,85,85,,85,56,D,Raw,Yes,,,,,,,,,,,Amateur Open,24,4
Inna Konovalyuk,Инна Коновалюк,F,59.8,100,-110,-110,100,,100,60,D,Raw,Yes,,,,,,,,,,,Amateur Juniors 20-23,23,1
Lyudmila Nikonova,Людмила Никонова,F,59.8,120,127.5,135,135,,135,60,D,Raw,Yes,,,,,,,,,,,Amateur Open,36,1
Mariya Ogorodnikova,Мария Огородникова,F,59.5,120,127.5,-132.5,127.5,,127.5,60,D,Raw,Yes,,,,,,,,,,,Amateur Open,34,2
Yana Valova,Яна Валова,F,58.6,110,115,120,120,,120,60,D,Raw,Yes,,,,,,,,,,,Amateur Open,32,3
Nadezhda Kazakova,Надежда Казакова,F,58.7,-110,110,-112.5,110,,110,60,D,Raw,Yes,,,,,,,,,,,Amateur Open,31,4
Evgeniya Slovyagina,Евгения Словягина,F,66.3,125,135,142.5,142.5,,142.5,67.5,D,Raw,Yes,,,,,,,,,,,Amateur Open,24,1
Darya Pokazaneva,Дарья Показаньева,F,66.9,135,140,-145,140,,140,67.5,D,Raw,Yes,,,,,,,,,,,Amateur Open,27,2
Nataya Larina,Натаья Ларина,F,66.8,110,120,127.5,127.5,,127.5,67.5,D,Raw,Yes,,,,,,,,,,,Amateur Open,53,3
Olga Organyuk,Ольга Органюк,F,66.6,117.5,-120,120,120,,120,67.5,D,Raw,Yes,,,,,,,,,,,Amateur Open,34,4
Ekaterina Kirichenko,Екатерина Кириченко,F,67.2,112.5,117.5,120,120,,120,67.5,D,Raw,Yes,,,,,,,,,,,Amateur Open,33,5
Zhanna Ivanova,Жанна Иванова,F,62.9,95,102.5,110,110,,110,67.5,D,Raw,Yes,,,,,,,,,,,Amateur Open,34,6
Anna Vavilova,Анна Вавилова,F,73.7,100,110,-112.5,110,,110,75,D,Raw,Yes,,,,,,,,,,,Amateur Open,24,1
Oksana Nikitina,Оксана Никитина,F,72.6,100,110,115,115,,115,75,D,Raw,Yes,,,,,,,,,,,Amateur Masters 45-49,48,1
Irina Pushkareva,Ирина Пушкарева,F,70.1,120,125,130,130,,130,75,D,Raw,Yes,,,,,,,,,,,Amateur Masters 55-59,55,1
Daniil Meshkov,Даниил Мешков,M,54.8,100,110,115,115,,115,56,D,Raw,Yes,,,,,,,,,,,Amateur Teen 13-15,13,1
Nikolay Gorchakov,Николай Горчаков,M,59.4,172.5,180,-190,180,,180,60,D,Raw,Yes,,,,,,,,,,,Amateur Open,26,1
Maksim Popov,Максим Попов,M,65,225,230,-232.5,230,,230,67.5,D,Raw,Yes,,,,,,,,,,,Amateur Open,32,1
Aleksey Ivanov,Алексей Иванов,M,66.2,170,180,-190,180,,180,67.5,D,Raw,Yes,,,,,,,,,,,Amateur Open,31,2
Renat Khamizov,Ренат Хамизов,M,67,150,165,170,170,,170,67.5,D,Raw,Yes,,,,,,,,,,,Amateur Open,26,3
Yuriy Zubov,Юрий Зубов,M,66.5,150,155,157.5,157.5,,157.5,67.5,D,Raw,Yes,,,,,,,,,,,Amateur Masters,77,1
Rodion Tarasov,Родион Тарасов,M,72.5,205,-210.5,210.5,210.5,,210.5,75,D,Raw,Yes,,,,,,,,,,,Amateur Teen 16-17,17,1
Anton Dutov,Антон Дутов,M,74.5,190,-202.5,202.5,202.5,,202.5,75,D,Raw,Yes,,,,,,,,,,,Amateur Teen 16-17,17,2
Mikhail Boganovskiy,Михаил Богановский,M,67.8,-180,180,-202.5,180,,180,75,D,Raw,Yes,,,,,,,,,,,Amateur Teen 18-19,19,1
Aleksey Stepanets,Алексей Степанец,M,74.8,220,230,-240,230,,230,75,D,Raw,Yes,,,,,,,,,,,Amateur Open,25,1
Dimitriy Oshaev,Димитрий Ошаев,M,74.1,-202.5,202.5,220,220,,220,75,D,Raw,Yes,,,,,,,,,,,Amateur Open,32,2
Kirill Marakshin,Кирилл Маракшин,M,74.2,202.5,207.5,210,210,,210,75,D,Raw,Yes,,,,,,,,,,,Amateur Open,28,3
Mikhail Zhuravlev,Михаил Журавлев,M,73.1,-200,205,207.5,207.5,,207.5,75,D,Raw,Yes,,,,,,,,,,,Amateur Open,28,4
Aleksandr Yakushev,Александр Якушев,M,70.6,177.5,190,202.5,202.5,,202.5,75,D,Raw,Yes,,,,,,,,,,,Amateur Open,34,5
Aleksey Levashov,Алексей Левашов,M,74.1,197.5,202.5,-207.5,202.5,,202.5,75,D,Raw,Yes,,,,,,,,,,,Amateur Open,38,6
Yuriy Pokazanev,Юрий Показаньев,M,70,170,182.5,195,195,,195,75,D,Raw,Yes,,,,,,,,,,,Amateur Open,31,7
Mikhail Zuev,Михаил Зуев,M,74.6,180,-185,-185,180,,180,75,D,Raw,Yes,,,,,,,,,,,Amateur Open,31,8
Oleg Pavlushin,Олег Павлушин,M,71.3,150,-157.5,157.5,157.5,,157.5,75,D,Raw,Yes,,,,,,,,,,,Amateur Masters 40-44,43,1
Egor Korenkov,Егор Кореньков,M,81,200,210,215,215,-220,215,82.5,D,Raw,Yes,,,,,,,,,,,Amateur Teen 18-19,19,1
Aleksey Bender,Алексей Бендер,M,80.4,-175,175,185,185,,185,82.5,D,Raw,Yes,,,,,,,,,,,Amateur Teen 18-19,19,2
Nikita Deripasko,Никита Дерипаско,M,80.8,170,185,195,195,,195,82.5,D,Raw,Yes,,,,,,,,,,,Amateur Juniors 20-23,21,1
Nikita Burtsev,Никита Бурцев,M,75.7,170,-175,,170,,170,82.5,D,Raw,Yes,,,,,,,,,,,Amateur Juniors 20-23,23,2
Roman Aleksandrov,Роман Александров,M,80.4,215,245,-250,245,,245,82.5,D,Raw,Yes,,,,,,,,,,,Amateur Open,26,2
Igor Novozhilov,Игорь Новожилов,M,82.5,215,225,240,240,,240,82.5,D,Raw,Yes,,,,,,,,,,,Amateur Open,27,3
Vladimir Rud,Владимир Рудь,M,82.1,215,235,-250,235,,235,82.5,D,Raw,Yes,,,,,,,,,,,Amateur Open,24,4
Mikhail Basov,Михаил Басов,M,79.4,215,220,-222.5,220,,220,82.5,D,Raw,Yes,,,,,,,,,,,Amateur Open,30,5
Maksim Yarlykov,Максим Ярлыков,M,81.2,200,215,220,220,,220,82.5,D,Raw,Yes,,,,,,,,,,,Amateur Open,32,6
Eduard Kanevskiy,Эдуард Каневский,M,82.1,200,215,-217.5,215,,215,82.5,D,Raw,Yes,,,,,,,,,,,Amateur Open,33,7
Dilmurod Urmonov,Дильмурод Урмонов,M,81.2,185,200,205,205,,205,82.5,D,Raw,Yes,,,,,,,,,,,Amateur Open,23,8
Denis Saenko,Денис Саенко,M,81.5,200,-215,-215,200,,200,82.5,D,Raw,Yes,,,,,,,,,,,Amateur Open,36,9
Ilya Oparin,Илья Опарин,M,80.9,175,-185,-185,175,,175,82.5,D,Raw,Yes,,,,,,,,,,,Amateur Open,25,10
Sergey Konstantinov,Сергей Константинов,M,78.9,-170,170,-185,170,,170,82.5,D,Raw,Yes,,,,,,,,,,,Amateur Open,37,11
Maksim Titov,Максим Титов,M,80.6,-200,-215,-215,,,,82.5,D,Raw,Yes,,,,,,,,,,,Amateur Open,25,DQ
Yuriy Skripko,Юрий Скрипко,M,81.7,-195,202.5,215,215,,215,82.5,D,Raw,Yes,,,,,,,,,,,Amateur Masters 45-49,48,1
Viktor Skokin,Виктор Скокин,M,80.1,205,-212.5,,205,,205,82.5,D,Raw,Yes,,,,,,,,,,,Amateur Masters 55-59,59,1
Nikita Kozlov,Никита Козлов,M,87.7,195,200,205,205,,205,90,D,Raw,Yes,,,,,,,,,,,Amateur Teen 16-17,17,1
Artyom Fadeev,Артём Фадеев,M,85.4,-175,-180,-195,,,,90,D,Raw,Yes,,,,,,,,,,,Amateur Teen 16-17,17,DQ
Mursal Mamedov,Мурсал Мамедов,M,89.4,215,230,-242.5,230,,230,90,D,Raw,Yes,,,,,,,,,,,Amateur Juniors 20-23,21,1
Roman Vaulin,Роман Ваулин,M,88.6,-230,230,245,245,,245,90,D,Raw,Yes,,,,,,,,,,,Amateur Open,29,1
Armen Paloyan,Армен Палоян,M,86.8,230,240,-250,240,,240,90,D,Raw,Yes,,,,,,,,,,,Amateur Open,24,2
Stanislav Baranov,Станислав Баранов,M,87.8,-235,235,-255,235,,235,90,D,Raw,Yes,,,,,,,,,,,Amateur Open,24,3
Aleksandr Gorlov,Александр Горлов,M,89.8,185,200,215,215,,215,90,D,Raw,Yes,,,,,,,,,,,Amateur Open,36,4
Ivan Bekhtold,Иван Бехтольд,M,86.5,185,200,210,210,,210,90,D,Raw,Yes,,,,,,,,,,,Amateur Open,28,5
Dmitriy Lepkov,Дмитрий Лепков,M,87.9,195,200,207.5,207.5,,207.5,90,D,Raw,Yes,,,,,,,,,,,Amateur Open,29,6
Dmitriy Karasev,Дмитрий Карасев,M,88.3,-195,195,202.5,202.5,,202.5,90,D,Raw,Yes,,,,,,,,,,,Amateur Open,31,7
Aleksandr Morozov,Александр Морозов,M,87.5,170,195,-200,195,,195,90,D,Raw,Yes,,,,,,,,,,,Amateur Open,30,8
Nikolay Ustinov,Николай Устинов,M,88,-250,-255,,,,,90,D,Raw,Yes,,,,,,,,,,,Amateur Open,28,DQ
Andrey Pisarev,Андрей Писарев,M,96.8,232.5,245,,245,,245,100,D,Raw,Yes,,,,,,,,,,,Amateur Juniors 20-23,21,1
Ilya Lisitskiy,Илья Лисицкий,M,95.8,215,235,-240,235,,235,100,D,Raw,Yes,,,,,,,,,,,Amateur Juniors 20-23,23,2
Oleg Varvarin,Олег Варварин,M,95.6,250,260,270,270,,270,100,D,Raw,Yes,,,,,,,,,,,Amateur Open,30,1
Yuriy Boronakhin,Юрий Боронахин,M,99.5,240,255,-267.5,255,,255,100,D,Raw,Yes,,,,,,,,,,,Amateur Open,33,2
Artem Ushakov,Артем Ушаков,M,98.6,240,-247.5,-247.5,240,,240,100,D,Raw,Yes,,,,,,,,,,,Amateur Open,31,4
Konstantin Luchnikov,Константин Лучников,M,98.1,220,232.5,235,235,,235,100,D,Raw,Yes,,,,,,,,,,,Amateur Open,29,5
Vladimir Lazarev,Владимир Лазарев,M,97.9,210,232.5,-237.5,232.5,,232.5,100,D,Raw,Yes,,,,,,,,,,,Amateur Open,37,6
Ivan Obmankin,Иван Обманкин,M,97,210,222.5,-232.5,222.5,,222.5,100,D,Raw,Yes,,,,,,,,,,,Amateur Open,25,7
Anton Kaftaylov,Антон Кафтайлов,M,97.7,-215,215,-232.5,215,,215,100,D,Raw,Yes,,,,,,,,,,,Amateur Open,24,8
Yuriy Erofaylov,Юрий Ерофайлов,M,93.7,202.5,212.5,-232.5,212.5,,212.5,100,D,Raw,Yes,,,,,,,,,,,Amateur Masters 40-44,43,1
Igor Usachev,Игорь Усачев,M,95.2,-180,190,202.5,202.5,,202.5,100,D,Raw,Yes,,,,,,,,,,,Amateur Masters 50-54,51,1
Ruslan Kulebyakin,Руслан Кулебякин,M,108.8,250,260,270,270,,270,110,D,Raw,Yes,,,,,,,,,,,Amateur Open,26,1
Mikhail Evstigneev,Михаил Евстигнеев,M,110,245,255,262.5,262.5,,262.5,110,D,Raw,Yes,,,,,,,,,,,Amateur Open,40,2
Aleksandr Shlyakhitskiy,Александр Шляхитский,M,102.3,210,230,250,250,,250,110,D,Raw,Yes,,,,,,,,,,,Amateur Open,37,3
Dmitriy Ilyukhin,Дмитрий Илюхин,M,106.4,220,240,245,245,,245,110,D,Raw,Yes,,,,,,,,,,,Amateur Open,34,4
Andrey Stepanov,Андрей Степанов,M,108.9,-220,220,-225,220,,220,110,D,Raw,Yes,,,,,,,,,,,Amateur Open,32,6
Mikhail Evstigneev,Михаил Евстигнеев,M,110,245,255,262.5,262.5,,262.5,110,D,Raw,Yes,,,,,,,,,,,Amateur Masters 40-44,40,1
Pavel Chidingov,Павел Чидингов,M,109.3,200,210,217.5,217.5,,217.5,110,D,Raw,Yes,,,,,,,,,,,Amateur Masters 45-49,47,1
Vladlen Gladchenko,Владлен Гладченко,M,104.4,190,207.5,-215,207.5,,207.5,110,D,Raw,Yes,,,,,,,,,,,Amateur Masters 45-49,46,2
Vladimir Shevchuk,Владимир Шевчук,M,104.9,182.5,207.5,215,215,,215,110,D,Raw,Yes,,,,,,,,,,,Amateur Masters 50-54,50,1
Andrey Burakov,Андрей Бураков,M,104,180,190,-202.5,190,,190,110,D,Raw,Yes,,,,,,,,,,,Amateur Masters 55-59,58,1
Yuliya Kuznetsova,Юлия Кузнецова,F,63.6,,,,,,140,67.5,B,Single-ply,Yes,130,140,-145,140,,,,,,,Amateur Open,43,1
Irina Smolentseva,Ирина Смоленцева,F,64.8,,,,,,90,67.5,B,Single-ply,Yes,-90,90,-95,90,,,,,,,Amateur Open,29,3
Vladimir Popov,Владимир Попов,M,124.2,,,,,,200,125,B,Raw,Yes,180,190,200,200,,,,,,,Amateur Masters 60-64,61,1
Sabina Mansurova,Сабина Мансурова,F,40,,,,,,25,44,B,Raw,Yes,22.5,25,-27.5,25,,,,,,,Amateur Teen 13-15,11,1
Natalya Dyulger,Наталья Дюльгер,F,41.7,,,,,,25,44,B,Raw,Yes,25,-30,-30,25,,,,,,,Amateur Teen 13-15,13,2
Svetlana Sharynkina,Светлана Шарынкина,F,44,,,,,,52.5,44,B,Raw,Yes,50,-52.5,52.5,52.5,,,,,,,Amateur Juniors 20-23,21,1
Olga Lvova,Ольга Львова,F,40,,,,,,32.5,44,B,Raw,Yes,27.5,32.5,-35,32.5,,,,,,,Amateur Juniors 20-23,20,2
Elena Pugach,Елена Пугач,F,47,,,,,,52.5,48,B,Raw,Yes,-50,50,52.5,52.5,,,,,,,Amateur Masters 40-44,41,1
Albina Popkova,Альбина Попкова,F,51.6,,,,,,60,52,B,Raw,Yes,60,-65,-65,60,,,,,,,Amateur Open,27,1
Anna Sakharova,Анна Сахарова,F,51.9,,,,,,57.5,52,B,Raw,Yes,50,55,57.5,57.5,,,,,,,Amateur Open,27,2
Nadezhda Zelenova,Надежда Зеленова,F,51,,,,,,50,52,B,Raw,Yes,47.5,50,-52.5,50,,,,,,,Amateur Open,35,3
Kristina Maksimova,Кристина Максимова,F,49.4,,,,,,,52,B,Raw,Yes,-50,-50,-50,,,,,,,,Amateur Open,34,DQ
Natalya Yusupova,Наталья Юсупова,F,54.1,,,,,,60,56,B,Raw,Yes,-55,55,60,60,,,,,,,Amateur Juniors 20-23,21,1
Ekaterina Rodionova,Екатерина Родионова,F,54.1,,,,,,55,56,B,Raw,Yes,50,-55,55,55,,,,,,,Amateur Juniors 20-23,22,2
Natalya Levenkova,Наталья Левенкова,F,54.7,,,,,,62.5,56,B,Raw,Yes,57.5,62.5,-65,62.5,,,,,,,Amateur Open,28,1
Viktoriya Trefilkina,Виктория Трефилкина,F,55.4,,,,,,60,56,B,Raw,Yes,55,57.5,60,60,,,,,,,Amateur Open,39,2
Elena Korovkina,Елена Коровкина,F,55.6,,,,,,55,56,B,Raw,Yes,55,-60,-62.5,55,,,,,,,Amateur Open,24,3
Kseniya Kondakova,Ксения Кондакова,F,53.5,,,,,,47.5,56,B,Raw,Yes,40,47.5,-52.5,47.5,,,,,,,Amateur Open,34,4
Vasilisa Burova,Василиса Бурова,F,57.2,,,,,,40,60,B,Raw,Yes,32.5,37.5,40,40,,,,,,,Amateur Teen 13-15,14,1
Viktoriya Subbotina,Виктория Субботина,F,59.8,,,,,,40,60,B,Raw,Yes,35,40,-42.5,40,,,,,,,Amateur Teen 16-17,17,1
Anastasiya Leonova,Анастасия Леонова,F,60,,,,,,77.5,60,B,Raw,Yes,72.5,-77.5,77.5,77.5,,,,,,,Amateur Juniors 20-23,22,1
Anastasiya Leonova,Анастасия Леонова,F,60,,,,,,77.5,60,B,Raw,Yes,72.5,-77.5,77.5,77.5,,,,,,,Amateur Open,22,1
Raisa Sharueva,Раиса Шаруева,F,59.9,,,,,,75,60,B,Raw,Yes,70,75,-77.5,75,,,,,,,Amateur Open,33,2
Nadezhda Galchenkova,Надежда Гальченкова,F,59.1,,,,,,70,60,B,Raw,Yes,60,65,70,70,,,,,,,Amateur Open,34,3
Olesya Teleshenko,Олеся Телешенко,F,60,,,,,,67.5,60,B,Raw,Yes,67.5,-70,-70,67.5,,,,,,,Amateur Open,34,4
Anna Markina,Анна Маркина,F,59,,,,,,57.5,60,B,Raw,Yes,57.5,-62.5,-62.5,57.5,,,,,,,Amateur Open,29,5
Evgeniya Alekseeva,Евгения Алексеева,F,59.8,,,,,,57.5,60,B,Raw,Yes,-57.5,57.5,-60,57.5,,,,,,,Amateur Open,30,6
Elena Popova,Елена Попова,F,60,,,,,,57.5,60,B,Raw,Yes,55,57.5,-60,57.5,,,,,,,Amateur Open,29,7
Natalya Voronova,Наталья Воронова,F,59.1,,,,,,52.5,60,B,Raw,Yes,52.5,-57.5,-57.5,52.5,,,,,,,Amateur Open,36,8
Irina Kuznetsova,Ирина Кузнецова,F,58.9,,,,,,50,60,B,Raw,Yes,50,-52.5,-52.5,50,,,,,,,Amateur Open,31,9
Kristina Suslova,Кристина Суслова,F,59.1,,,,,,47.5,60,B,Raw,Yes,45,47.5,-52.5,47.5,,,,,,,Amateur Open,25,10
Olga Pavlovskaya,Ольга Павловская,F,59.5,,,,,,50,60,B,Raw,Yes,50,-52.5,-52.5,50,,,,,,,Amateur Masters 40-44,42,1
Natalya Knyazeva,Наталья Князева,F,58.8,,,,,,52.5,60,B,Raw,Yes,47.5,52.5,-55,52.5,,,,,,,Amateur Masters 45-49,46,1
Yuliya Kuznetsova,Юлия Кузнецова,F,63.6,,,,,,102.5,67.5,B,Raw,Yes,100,102.5,,102.5,,,,,,,Amateur Open,43,2
Viktoriya Pikush,Виктория Пикуш,F,63.3,,,,,,,67.5,B,Raw,Yes,-62.5,-65,,,,,,,,,Amateur Open,38,DQ
Elena Prokopova,Елена Прокопова,F,65.6,,,,,,52.5,67.5,B,Raw,Yes,47.5,50,52.5,52.5,,,,,,,Amateur Masters 50-54,51,1
Anna Bukhova,Анна Бухова,F,73,,,,,,57.5,75,B,Raw,Yes,50,57.5,-62.5,57.5,,,,,,,Amateur Juniors 20-23,21,1
Elena Davydova,Елена Давыдова,F,74.6,,,,,,77.5,75,B,Raw,Yes,75,77.5,-80,77.5,,,,,,,Amateur Open,43,1
Elena Zhuk,Елена Жук,F,74.4,,,,,,75,75,B,Raw,Yes,70,72.5,75,75,,,,,,,Amateur Open,33,2
Natalya Chaadaeva,Наталья Чаадаева,F,74.5,,,,,,62.5,75,B,Raw,Yes,60,62.5,-65,62.5,,,,,,,Amateur Open,29,3
Vladislav Sitdikov,Владислав Ситдиков,M,51.4,,,,,,80,52,B,Raw,Yes,75,80,-83,80,,,,,,,Amateur Juniors 20-23,22,1
Daniil Meshkov,Даниил Мешков,M,54.8,,,,,,65,56,B,Raw,Yes,60,65,-70,65,,,,,,,Amateur Teen 13-15,13,1
Kirill Kulikov,Кирилл Куликов,M,53.5,,,,,,50,56,B,Raw,Yes,42.5,47.5,50,50,,,,,,,Amateur Teen 13-15,14,2
Denis Muravshchik,Денис Муравщик,M,58.1,,,,,,110,60,B,Raw,Yes,100,105,110,110,,,,,,,Amateur Open,17,1
Denis Netochaev,Денис Неточаев,M,65.3,,,,,,85,67.5,B,Raw,Yes,80,-85,85,85,,,,,,,Amateur Teen 13-15,16,1
Sergey Lyashev,Сергей Ляшев,M,64.7,,,,,,100,67.5,B,Raw,Yes,100,-107.5,-107.5,100,,,,,,,Amateur Teen 16-17,16,1
Viktor Sidorov,Виктор Сидоров,M,67,,,,,,110,67.5,B,Raw,Yes,110,-120,-120,110,,,,,,,Amateur Teen 18-19,20,1
Igor Glazunov,Игорь Глазунов,M,66.9,,,,,,125,67.5,B,Raw,Yes,120,-125,125,125,,,,,,,Amateur Juniors 20-23,20,1
Andrey Molchanov,Андрей Молчанов,M,67.1,,,,,,127.5,67.5,B,Raw,Yes,120,127.5,-130,127.5,,,,,,,Amateur Open,27,1
Aleksandr Nikolaev,Александр Николаев,M,67.4,,,,,,125,67.5,B,Raw,Yes,120,125,-130,125,,,,,,,Amateur Open,28,2
Ivan Makarkin,Иван Макаркин,M,66.8,,,,,,100,67.5,B,Raw,Yes,-100,-100,100,100,,,,,,,Amateur Open,36,3
Ilya Lanenkin,Илья Ланенкин,M,72,,,,,,90,75,B,Raw,Yes,75,82.5,90,90,,,,,,,Amateur Teen 16-17,16,1
Sergey Mikryukov,Сергей Микрюков,M,73.4,,,,,,125,75,B,Raw,Yes,117.5,125,-135,125,,,,,,,Amateur Juniors 20-23,20,1
Yaroslav Shevelyov,Ярослав Шевелёв,M,74.6,,,,,,120,75,B,Raw,Yes,-117.5,117.5,120,120,,,,,,,Amateur Juniors 20-23,23,2
Evgeniy Efanov,Евгений Ефанов,M,73.6,,,,,,117.5,75,B,Raw,Yes,110,-117.5,117.5,117.5,,,,,,,Amateur Juniors 20-23,21,3
Ivan Polosin,Иван Полосин,M,73.3,,,,,,105,75,B,Raw,Yes,-100,-105,105,105,,,,,,,Amateur Juniors 20-23,20,4
Nikolay Shatrov,Николай Шатров,M,74,,,,,,157.5,75,B,Raw,Yes,150,155,157.5,157.5,,,,,,,Amateur Open,26,1
Andrey Usoltsev,Андрей Усольцев,M,72.9,,,,,,140,75,B,Raw,Yes,135,140,-145,140,,,,,,,Amateur Open,26,2
Mikhail Antonov,Михаил Антонов,M,73.7,,,,,,135,75,B,Raw,Yes,-135,-135,135,135,,,,,,,Amateur Open,31,3
Roman Dubinkin,Роман Дубинкин,M,74.6,,,,,,135,75,B,Raw,Yes,127.5,135,-137.5,135,,,,,,,Amateur Open,29,4
Anton Spirin,Антон Спирин,M,74.1,,,,,,120,75,B,Raw,Yes,112.5,117.5,120,120,,,,,,,Amateur Open,25,5
Aleksey Ushakov,Алексей Ушаков,M,73.9,,,,,,117.5,75,B,Raw,Yes,117.5,-122.5,,117.5,,,,,,,Amateur Open,29,6
Sergey Arzhaev,Сергей Аржаев,M,74.9,,,,,,117.5,75,B,Raw,Yes,-110,117.5,,117.5,,,,,,,Amateur Open,35,7
Andrey Andryushin,Андрей Андрюшин,M,74.8,,,,,,110,75,B,Raw,Yes,110,-117.5,-117.5,110,,,,,,,Amateur Open,28,8
Grigoriy Merenkov,Григорий Меренков,M,74.4,,,,,,95,75,B,Raw,Yes,90,95,-100,95,,,,,,,Amateur Open,33,9
Artemiy Kovrigin,Артемий Ковригин,M,73.5,,,,,,,75,B,Raw,Yes,-100,-100,,,,,,,,,Amateur Open,28,DQ
Sergey Sidorovskiy,Сергей Сидоровский,M,74.3,,,,,,130,75,B,Raw,Yes,125,130,-135,130,,,,,,,Amateur Masters 45-49,45,1
Igor Chistyakov,Игорь Чистяков,M,69.6,,,,,,105,75,B,Raw,Yes,100,105,-112.5,105,,,,,,,Amateur Masters 50-54,51,1
Yaroslav Angelov,Ярослав Ангелов,M,81.1,,,,,,130,82.5,B,Raw,Yes,120,127.5,130,130,,,,,,,Amateur Teen 16-17,17,1
Nikita Belov,Никита Белов,M,77.3,,,,,,117.7,82.5,B,Raw,Yes,-110,112.5,117.7,117.7,,,,,,,Amateur Teen 16-17,17,2
Vladislav Povetev,Владислав Поветьев,M,78.1,,,,,,127.5,82.5,B,Raw,Yes,115,-127.5,127.5,127.5,,,,,,,Amateur Teen 18-19,19,1
Ivan Zotov,Иван Зотов,M,82.2,,,,,,145,82.5,B,Raw,Yes,140,145,-150,145,,,,,,,Amateur Juniors 20-23,23,1
Aleksey Savostyanov,Алексей Савостьянов,M,80,,,,,,135,82.5,B,Raw,Yes,127.5,135,-145,135,,,,,,,Amateur Juniors 20-23,23,2
Ivan Shustrov,Иван Шустров,M,78.8,,,,,,127.5,82.5,B,Raw,Yes,122.5,-125,127.5,127.5,,,,,,,Amateur Juniors 20-23,22,3
Mikhail Kulikov,Михаил Куликов,M,80.5,,,,,,175,82.5,B,Raw,Yes,175,-180,-180,175,,,,,,,Amateur Open,29,1
Mikhail Mozhginskiy,Михаил Можгинский,M,81.1,,,,,,155,82.5,B,Raw,Yes,145,150,155,155,,,,,,,Amateur Open,35,2
Eldar Agasiev,Эльдар Агасиев,M,80.4,,,,,,150,82.5,B,Raw,Yes,145,150,-160,150,,,,,,,Amateur Open,30,3
Stepan Zaikin,Степан Заикин,M,81,,,,,,145,82.5,B,Raw,Yes,130,145,-160,145,,,,,,,Amateur Open,35,4
Arseniy Kechkin,Арсений Кечкин,M,81,,,,,,145,82.5,B,Raw,Yes,140,145,-150,145,,,,,,,Amateur Open,28,5
Rodion Maliev,Родион Малиев,M,81.1,,,,,,145,82.5,B,Raw,Yes,135,140,145,145,,,,,,,Amateur Open,25,6
Ivan Roshchupkin,Иван Рощупкин,M,80.3,,,,,,140,82.5,B,Raw,Yes,140,-145,-145,140,,,,,,,Amateur Open,26,7
Dmitriy Varvarin,Дмитрий Варварин,M,81.1,,,,,,135,82.5,B,Raw,Yes,135,-140,-145,135,,,,,,,Amateur Open,28,8
Kirill Talaev,Кирилл Талаев,M,81.6,,,,,,135,82.5,B,Raw,Yes,135,-145,-145,135,,,,,,,Amateur Open,27,9
Sergey Kotov,Сергей Котов,M,79.4,,,,,,130,82.5,B,Raw,Yes,122.5,127.5,130,130,,,,,,,Amateur Open,30,10
Aleksandr Abarinov,Александр Абаринов,M,77.2,,,,,,127.5,82.5,B,Raw,Yes,120,-127.5,127.5,127.5,,,,,,,Amateur Open,30,11
Artem Yagupov,Артем Ягупов,M,79.8,,,,,,127.5,82.5,B,Raw,Yes,120,125,127.5,127.5,,,,,,,Amateur Open,30,12
Gasan Aliev,Гасан Алиев,M,80.7,,,,,,127.5,82.5,B,Raw,Yes,125,127.5,-132.5,127.5,,,,,,,Amateur Open,32,13
Evgeniy Tagirov,Евгений Тагиров,M,80.7,,,,,,127.5,82.5,B,Raw,Yes,127.5,-132.5,-135,127.5,,,,,,,Amateur Open,37,14
Sergey Vorobyov,Сергей Воробьёв,M,81,,,,,,,82.5,B,Raw,Yes,-112.5,-112.5,-112.5,,,,,,,,Amateur Open,36,DQ
Aleksandr Kapustin,Александр Капустин,M,82.1,,,,,,,82.5,B,Raw,Yes,-150,-150,-150,,,,,,,,Amateur Open,32,DQ
Vladimir Bolshakov,Владимир Большаков,M,79.1,,,,,,150,82.5,B,Raw,Yes,150,-160,-160,150,,,,,,,Amateur Masters 40-44,41,1
Andrey Kharitonov,Андрей Харитонов,M,81.7,,,,,,130,82.5,B,Raw,Yes,127.5,130,-132.5,130,,,,,,,Amateur Masters 40-44,41,2
Aleksandr Babakov,Александр Бабаков,M,80.8,,,,,,127.5,82.5,B,Raw,Yes,120,127.5,-132.5,127.5,,,,,,,Amateur Masters 40-44,42,3
Aleksandr Strachuk,Александр Страчук,M,79.8,,,,,,120,82.5,B,Raw,Yes,115,120,-125,120,,,,,,,Amateur Masters 40-44,41,4
Andrey Shalenikov,Андрей Шалеников,M,80,,,,,,,82.5,B,Raw,Yes,-130,-130,-130,,,,,,,,Amateur Masters 40-44,42,DQ
Vladimir Kapuza,Владимир Капуза,M,81.6,,,,,,145,82.5,B,Raw,Yes,135,145,-150,145,,,,,,,Amateur Masters 50-54,54,1
Danila Golovanov,Данила Голованов,M,84.6,,,,,,110,90,B,Raw,Yes,100,105,110,110,,,,,,,Amateur Teen 16-17,17,1
Vlad Gevorgyan,Влад Геворгян,M,88.9,,,,,,145,90,B,Raw,Yes,145,-152.5,-152.5,145,,,,,,,Amateur Juniors 20-23,22,1
Gennadiy Lapin,Геннадий Лапин,M,84.7,,,,,,142.5,90,B,Raw,Yes,142.5,-147.5,-147.5,142.5,,,,,,,Amateur Juniors 20-23,21,2
Anton Sereda,Антон Середа,M,88,,,,,,142.5,90,B,Raw,Yes,-142.5,142.5,-147.5,142.5,,,,,,,Amateur Juniors 20-23,23,3
Andrey Vasilev,Андрей Васильев,M,89,,,,,,,90,B,Raw,Yes,-152.5,-152.5,-152.5,,,,,,,,Amateur Juniors 20-23,23,DQ
Ramil Bektemirov,Рамиль Бектемиров,M,83.5,,,,,,170,90,B,Raw,Yes,170,-175,-175,170,,,,,,,Amateur Open,29,1
Konstantin Kuvezenkov,Константин Кувезенков,M,88.4,,,,,,160,90,B,Raw,Yes,152.5,160,-162.5,160,,,,,,,Amateur Open,36,2
Aleksandr Pavlov,Александр Павлов,M,84.1,,,,,,152.5,90,B,Raw,Yes,150,152.5,-155,152.5,,,,,,,Amateur Open,33,3
Vitaliy Boev,Виталий Боев,M,87.9,,,,,,152.5,90,B,Raw,Yes,152.5,-155,-160,152.5,,,,,,,Amateur Open,32,4
Vitaliy Danilov,Виталий Данилов,M,89.2,,,,,,152.5,90,B,Raw,Yes,-152.5,-152.5,152.5,152.5,,,,,,,Amateur Open,30,5
Yuriy Panfilov,Юрий Панфилов,M,84.1,,,,,,147.5,90,B,Raw,Yes,147.5,-150,-152.5,147.5,,,,,,,Amateur Open,29,6
Dmitriy Kamshilin,Дмитрий Камшилин,M,88.9,,,,,,145,90,B,Raw,Yes,137.5,145,-152.5,145,,,,,,,Amateur Open,32,7
Aleksandr Davydov,Александр Давыдов,M,87.2,,,,,,142.5,90,B,Raw,Yes,125,135,142.5,142.5,,,,,,,Amateur Open,26,8
Vladimir Mitkin,Владимир Митькин,M,87.6,,,,,,140,90,B,Raw,Yes,125,132.5,140,140,,,,,,,Amateur Open,45,9
Stefan Tafara,Стефан Тафара,M,88.5,,,,,,140,90,B,Raw,Yes,132.5,140,-147.5,140,,,,,,,Amateur Open,30,10
Aleksey Krasnikhin,Алексей Краснихин,M,88.5,,,,,,137.5,90,B,Raw,Yes,132.5,135,137.5,137.5,,,,,,,Amateur Open,25,11
Mikhail Korobkov,Михаил Коробков,M,89.5,,,,,,137.5,90,B,Raw,Yes,137.5,-142.5,-142.5,137.5,,,,,,,Amateur Open,27,12
Semen Fedoseev,Семен Федосеев,M,89.7,,,,,,135,90,B,Raw,Yes,135,-152.5,-152.5,135,,,,,,,Amateur Open,24,13
Stanislav Zolkin,Станислав Золкин,M,87.3,,,,,,132.5,90,B,Raw,Yes,-132.5,132.5,-152.5,132.5,,,,,,,Amateur Open,28,14
Ilya Yurev,Илья Юрьев,M,88.2,,,,,,132.5,90,B,Raw,Yes,-130,-132.5,132.5,132.5,,,,,,,Amateur Open,30,15
Anton Gusev,Антон Гусев,M,88.7,,,,,,132.5,90,B,Raw,Yes,-132.5,132.5,-135,132.5,,,,,,,Amateur Open,35,16
Eduard Boyko,Эдуард Бойко,M,88.7,,,,,,125,90,B,Raw,Yes,-125,-125,125,125,,,,,,,Amateur Open,26,17
Dmitriy Antonov,Дмитрий Антонов,M,87.6,,,,,,120,90,B,Raw,Yes,-110,120,-132.5,120,,,,,,,Amateur Open,33,18
Nikita Provotorov,Никита Провоторов,M,87.7,,,,,,107.5,90,B,Raw,Yes,102.5,-107.5,107.5,107.5,,,,,,,Amateur Open,24,19
Farrukh Tokhtibakiev,Фаррух Тохтибакиев,M,87.7,,,,,,,90,B,Raw,Yes,-155,-155,-155,,,,,,,,Amateur Open,28,DQ
Vladimir Dziraev,Владимир Дзираев,M,88.1,,,,,,,90,B,Raw,Yes,-125,-125,-125,,,,,,,,Amateur Open,35,DQ
Andrey Glushchenko,Андрей Глущенко,M,89.4,,,,,,,90,B,Raw,Yes,-132.5,-132.5,-132.5,,,,,,,,Amateur Open,28,DQ
Vladimir Pinyaev,Владимир Пиняев,M,90,,,,,,,90,B,Raw,Yes,-152.5,-152.5,-152.5,,,,,,,,Amateur Open,27,DQ
Andrey Minin,Андрей Минин,M,89.7,,,,,,180,90,B,Raw,Yes,175,180,-190,180,,,,,,,Amateur Masters 40-44,40,1
Andrey Serikov,Андрей Сериков,M,89,,,,,,155,90,B,Raw,Yes,150,155,-160,155,,,,,,,Amateur Masters 40-44,40,2
Yuriy Terekhin,Юрий Терехин,M,87.7,,,,,,132.5,90,B,Raw,Yes,132.5,-135,-135,132.5,,,,,,,Amateur Masters 40-44,41,3
Oleg Dymov,Олег Дымов,M,85.7,,,,,,150,90,B,Raw,Yes,-150,150,,150,,,,,,,Amateur Masters 45-49,46,1
Aleksandr Sapachev,Александр Сапачев,M,89.4,,,,,,125,90,B,Raw,Yes,120,125,-127.5,125,,,,,,,Amateur Masters 50-54,51,1
Ilya Korshunkov,Илья Коршунков,M,99.2,,,,,,162.5,100,B,Raw,Yes,142.5,152.5,162.5,162.5,,,,,,,Amateur Teen 18-19,19,1
David Matevosyan,Давид Матевосян,M,97.3,,,,,,207.5,100,B,Raw,Yes,190,200,207.5,207.5,-210,,,,,,Amateur Juniors 20-23,20,1
Rafat Seferov,Рафат Сеферов,M,97.9,,,,,,155,100,B,Raw,Yes,140,150,155,155,,,,,,,Amateur Juniors 20-23,22,2
Boris Pankov,Борис Панков,M,97.6,,,,,,140,100,B,Raw,Yes,130,140,-150,140,,,,,,,Amateur Juniors 20-23,23,3
Vitaliy Parmut,Виталий Пармут,M,99,,,,,,190,100,B,Raw,Yes,180,190,-200,190,,,,,,,Amateur Open,29,1
Oleg Sinchugov,Олег Синчугов,M,99.3,,,,,,162.5,100,B,Raw,Yes,160,162.5,-165,162.5,,,,,,,Amateur Open,27,2
Ivan Tyoplyy,Иван Тёплый,M,100,,,,,,162.5,100,B,Raw,Yes,155,162.5,-165,162.5,,,,,,,Amateur Open,28,3
Maksim Lozovoy,Максим Лозовой,M,96.1,,,,,,160,100,B,Raw,Yes,155,160,-165,160,,,,,,,Amateur Open,39,4
Evgeniy Pavlikhin,Евгений Павлихин,M,98.7,,,,,,155,100,B,Raw,Yes,145,150,155,155,,,,,,,Amateur Open,36,5
Roman Tovpeko,Роман Товпеко,M,99.1,,,,,,150,100,B,Raw,Yes,150,-155,-155,150,,,,,,,Amateur Open,35,6
Aleksey Tikhonov,Алексей Тихонов,M,98.6,,,,,,145,100,B,Raw,Yes,140,142.5,145,145,,,,,,,Amateur Open,26,7
Andrey Makhnev,Андрей Махнев,M,96.3,,,,,,140,100,B,Raw,Yes,130,140,-145,140,,,,,,,Amateur Open,29,8
Evgeniy Egorov,Евгений Егоров,M,96.6,,,,,,140,100,B,Raw,Yes,140,-150,-150,140,,,,,,,Amateur Open,38,9
Aleksandr Pashelyuzhnyy,Александр Пашелюжный,M,97.8,,,,,,140,100,B,Raw,Yes,130,140,-147.5,140,,,,,,,Amateur Open,31,10
Konstantin Luchnikov,Константин Лучников,M,98.1,,,,,,140,100,B,Raw,Yes,130,140,-145,140,,,,,,,Amateur Open,29,11
Ilya Artamkin,Илья Артамкин,M,99,,,,,,135,100,B,Raw,Yes,130,135,-137.5,135,,,,,,,Amateur Open,28,12
Evgeniy Miklyaev,Евгений Микляев,M,95.4,,,,,,130,100,B,Raw,Yes,115,-125,130,130,,,,,,,Amateur Open,36,13
Vyacheslav Svetlakov,Вячеслав Светлаков,M,99.2,,,,,,130,100,B,Raw,Yes,125,130,-135,130,,,,,,,Amateur Open,28,14
Aleksandr Dymov,Александр Дымов,M,90.9,,,,,,170,100,B,Raw,Yes,155,162.5,170,170,,,,,,,Amateur Masters 40-44,43,1
Vadim Sazonov,Вадим Сазонов,M,98.6,,,,,,167.5,100,B,Raw,Yes,162.5,167.5,-170,167.5,,,,,,,Amateur Masters 40-44,41,2
Grigoriy Bannov,Григорий Баннов,M,97.7,,,,,,120,100,B,Raw,Yes,115,120,-125,120,,,,,,,Amateur Masters 40-44,41,3
Mikhail Chepurnoy,Михаил Чепурной,M,95.3,,,,,,167.5,100,B,Raw,Yes,152.5,162.5,167.5,167.5,,,,,,,Amateur Masters 45-49,47,1
Igor Usachev,Игорь Усачев,M,94.7,,,,,,140,100,B,Raw,Yes,140,-150,,140,,,,,,,Amateur Masters 50-54,51,1
Gennadiy Sorokin,Геннадий Сорокин,M,90.1,,,,,,145,100,B,Raw,Yes,130,142.5,145,145,,,,,,,Amateur Masters 55-59,57,1
Vladislav Makushka,Владислав Макушка,M,107.2,,,,,,172.5,110,B,Raw,Yes,167.5,172.5,-180,172.5,,,,,,,Amateur Juniors 20-23,21,1
Aleksey Fedorenko,Алексей Федоренко,M,107.7,,,,,,140,110,B,Raw,Yes,-140,-140,140,140,,,,,,,Amateur Juniors 20-23,20,2
Vadim Polyanin,Вадим Полянин,M,109.1,,,,,,210,110,B,Raw,Yes,-210,210,-220,210,,,,,,,Amateur Open,33,1
Viktor Knyazev,Виктор Князев,M,103.5,,,,,,202.5,110,B,Raw,Yes,195,202.5,-210,202.5,,,,,,,Amateur Open,26,2
Semen Borkin,Семен Борькин,M,104.9,,,,,,202.5,110,B,Raw,Yes,195,202.5,-207.5,202.5,,,,,,,Amateur Open,35,3
Maksim Sevryukov,Максим Севрюков,M,107.3,,,,,,182.5,110,B,Raw,Yes,172.5,182.5,-190,182.5,,,,,,,Amateur Open,31,4
Sergey Lyubochkin,Сергей Любочкин,M,108.8,,,,,,170,110,B,Raw,Yes,160,167.5,170,170,,,,,,,Amateur Open,39,5
Denis Gruznov,Денис Грузнов,M,107.2,,,,,,147.5,110,B,Raw,Yes,140,147.5,-152.5,147.5,,,,,,,Amateur Open,26,6
Igor Frolov,Игорь Фролов,M,103.9,,,,,,135,110,B,Raw,Yes,135,-142.5,-147.5,135,,,,,,,Amateur Open,24,7
Eduard Vinogradov,Эдуард Виноградов,M,107.7,,,,,,190,110,B,Raw,Yes,170,180,190,190,,,,,,,Amateur Masters 40-44,42,1
Vadim Ivanov,Вадим Иванов,M,108.1,,,,,,175,110,B,Raw,Yes,165,170,175,175,,,,,,,Amateur Masters 40-44,44,2
Aleksandr Romanov,Александр Романов,M,106.6,,,,,,160,110,B,Raw,Yes,160,-165,-165,160,,,,,,,Amateur Masters 40-44,44,3
Aleksandr Khokhlov,Александр Хохлов,M,106.5,,,,,,140,110,B,Raw,Yes,135,140,-147.5,140,,,,,,,Amateur Masters 40-44,42,4
Dmitriy Kireev,Дмитрий Киреев,M,108.9,,,,,,155,110,B,Raw,Yes,155,-162.5,-162.5,155,,,,,,,Amateur Masters 45-49,47,1
Vladlen Gladchenko,Владлен Гладченко,M,104.4,,,,,,135,110,B,Raw,Yes,-135,135,-147.5,135,,,,,,,Amateur Masters 45-49,46,2
Mikhail Kotelnikov,Михаил Котельников,M,105.8,,,,,,170,110,B,Raw,Yes,-155,165,170,170,,,,,,,Amateur Masters 50-54,52,1
Kirill Tarasov,Кирилл Тарасов,M,117.7,,,,,,185,125,B,Raw,Yes,165,177.5,185,185,,,,,,,Amateur Teen 16-17,16,1
Viktor Epifanov,Виктор Епифанов,M,116.7,,,,,,160,125,B,Raw,Yes,140,152.5,160,160,,,,,,,Amateur Open,33,1
Aleksey Frolov,Алексей Фролов,M,119.2,,,,,,,125,B,Raw,Yes,-165,-165,-165,,,,,,,,Amateur Open,22,DQ
Sergey Zakharov,Сергій Захаров,M,118.4,,,,,,185,125,B,Raw,Yes,175,180,185,185,,,,,,,Amateur Masters 40-44,42,1
Dobrogor Raskhodchikov,Доброгор Расходчиков,M,113,,,,,,170,125,B,Raw,Yes,170,-175,-175,170,,,,,,,Amateur Masters 40-44,40,2
Vladimir Chubarov,Владимир Чубаров,M,121.8,,,,,,170,125,B,Raw,Yes,160,165,170,170,,,,,,,Amateur Masters 50-54,52,1
Vladimir Popov,Владимир Попов,M,124.2,,,,,,162.5,125,B,Raw,Yes,162.5,-167.5,-167.5,162.5,,,,,,,Amateur Masters 60-64,61,2
Aleksey Yudin,Алексей Юдин,M,133.9,,,,,,175,140,B,Raw,Yes,165,175,-182.5,175,,,,,,,Amateur Masters 40-44,42,1
Ruslan Pikush,Руслан Пикуш,M,132.9,,,,,,165,140,B,Raw,Yes,157.5,160,165,165,,,,,,,Amateur Masters 45-49,46,1
Mikhail Filin,Михаил Филин,M,140,,,,,,185,140,B,Raw,Yes,182.5,185,-187.5,185,,,,,,,Amateur Masters 55-59,55,1
Roman Mishurenkov,Роман Мишуренков,M,143.7,,,,,,220,140+,B,Raw,Yes,200,210,220,220,-225.5,,,,,,Amateur Open,35,1
Feliks Sarkisyan,Феликс Саркисян,M,145.4,,,,,,150,140+,B,Raw,Yes,150,-162.5,-162.5,150,,,,,,,Amateur Open,28,2
Světlana Veselova,Светлана Веселова,F,60,130,135,140,140,,370,60,SBD,Multi-ply,Yes,80,85,90,90,,130,135,140,140,,Amateur Open,29,1
Vizhe Mirmirani,Виже Мирмирани,F,59.3,130,140,150,150,,395,60,SBD,Multi-ply,Yes,90,100,-105,100,,135,145,-150,145,,Amateur Masters 50-54,51,1
Sergey Nikolaev,Сергей Николаев,M,88.8,180,195,-205,195,,560,90,SBD,Multi-ply,Yes,150,160,165,165,,180,190,200,200,,Amateur Open,37,7
Anatoliy Kirillov,Анатолий Кириллов,M,87.3,150,165,180,180,,500,90,SBD,Multi-ply,Yes,-130,130,140,140,,160,170,180,180,,Amateur Open,35,10
Aleksandr Krovikov,Александр Кровиков,M,94.4,200,240,260,260,,675,100,SBD,Multi-ply,Yes,160,175,-180,175,,200,220,240,240,,Amateur Masters 55-59,55,1
Marina Kamyshnikova,Марина Камышникова,F,51.8,135,145,150,150,,347.5,52,SBD,Single-ply,Yes,55,60,62.5,62.5,,130,135,-140,135,,Amateur Open,38,1
Tatyana Samsonova,Татьяна Самсонова,F,66.5,100,110,-115,110,,250,67.5,SBD,Single-ply,Yes,50,60,-72.5,60,,-80,-80,80,80,,Amateur Open,33,2
Nikolay Krasnov,Николай Краснов,M,82.2,190,200,220,220,,610,82.5,SBD,Single-ply,Yes,180,-185,-185,180,,190,200,210,210,,Amateur Masters 55-59,56,1
Evgeniy Makeev,Евгений Макеев,M,89.1,220,-237.5,-237.5,220,,625,90,SBD,Single-ply,Yes,160,170,175,175,,220,230,-240,230,,Amateur Open,26,1
Aleksandr Sedov,Александр Седов,M,86.6,200,220,-222.5,220,,565,90,SBD,Single-ply,Yes,135,145,-147.5,145,,185,195,200,200,,Amateur Open,24,6
Maksim Derezhovskiy,Максим Дережовский,M,95.6,260,-270,-270,260,,715,100,SBD,Single-ply,Yes,180,-192.5,-195,180,,-260,260,275,275,,Amateur Open,32,2
Anna Kireeva,Анна Киреева,F,46.8,85,90,-100,90,,225,48,SBD,Wraps,Yes,45,-47.5,50,50,,80,85,-90,85,,Amateur Open,25,1
Tatyana Budkina,Татьяна Будкина,F,47.7,-95,,,,,,48,SBD,Wraps,Yes,-40,,,,,-70,-70,-70,,,Amateur Open,37,DQ
Evgeniya Petrova,Евгения Петрова,F,51.3,110,112.5,117.5,117.5,,270,52,SBD,Wraps,Yes,55,-57.5,,55,,90,95,97.5,97.5,,Amateur Open,36,2
Varvara Kosova,Варвара Косова,F,50.8,110,117.5,120,120,,267.5,52,SBD,Wraps,Yes,45,47.5,-50,47.5,,100,-105,-105,100,,Amateur Open,22,3
Irina Zemtsova,Ирина Земцова,F,50.8,90,95,100,100,,230,52,SBD,Wraps,Yes,-42.5,42.5,45,45,,-75,80,85,85,,Amateur Open,35,4
Natalya Levenkova,Наталья Левенкова,F,54.7,120,130,135,135,,300,56,SBD,Wraps,Yes,55,60,-62.5,60,,95,102.5,105,105,,Amateur Open,28,1
Nadezhda Krasulina,Надежда Красулина,F,55,90,105,115,115,,260,56,SBD,Wraps,Yes,50,55,-57.5,55,,-80,80,90,90,,Amateur Open,30,2
Ulyana Ignateva,Ульяна Игнатьева,F,55.3,85,-92.5,-92.5,85,,222.5,56,SBD,Wraps,Yes,47.5,52.5,-55,52.5,,80,85,-90,85,,Amateur Open,25,3
Irina Strukova,Ирина Струкова,F,54.7,-120,,,,,,56,SBD,Wraps,Yes,-55,,,,,-100,-110,-110,,,Amateur Open,31,DQ
Vera Tumanova,Вера Туманова,F,59,140,145,150,150,,317.5,60,SBD,Wraps,Yes,60,65,67.5,67.5,,-100,100,-105,100,,Amateur Open,35,2
Ekaterina Chuprakova,Екатерина Чупракова,F,58.6,115,120,-122.5,120,,285,60,SBD,Wraps,Yes,52.5,-57.5,-57.5,52.5,,102.5,107.5,112.5,112.5,,Amateur Open,34,3
Olena Lapshina,Олена Лапшина,F,59.6,100,105,-110,105,,280,60,SBD,Wraps,Yes,60,62.5,-65,62.5,,100,105,112.5,112.5,,Amateur Masters 45-49,45,1
Yana Doroshina,Яна Дорошина,F,65.9,125,135,140,140,,300,67.5,SBD,Wraps,Yes,55,60,-62.5,60,,90,100,-105,100,,Amateur Teen 16-17,16,1
Olga Epifanova-Zhukova,Ольга Епифанова-Жукова,F,67.2,125,132.5,-140,132.5,,332.5,67.5,SBD,Wraps,Yes,67.5,70,-72.5,70,,-125,125,130,130,131,Amateur Juniors 20-23,23,1
Darya Pokazaneva,Дарья Показаньева,F,66.9,130,140,-145,140,,320,67.5,SBD,Wraps,Yes,-65,70,-72.5,70,,100,110,-120,110,,Amateur Open,27,1
Anna Filippova,Анна Филиппова,F,65.9,95,-105,-105,95,,232.5,67.5,SBD,Wraps,Yes,55,-60,-60,55,,70,77.5,82.5,82.5,,Amateur Open,37,3
Tatyana Nikolaeva,Татьяна Николаева,F,66.4,90,100,105,105,,230,67.5,SBD,Wraps,Yes,50,-55,55,55,,60,-70,70,70,,Amateur Open,37,4
Alena Gorshkova,Алена Горшкова,F,66.9,80,90,95,95,,230,67.5,SBD,Wraps,Yes,40,-50,50,50,,-75,80,85,85,,Amateur Open,28,5
Natalya Safarova,Наталья Сафарова,F,66,90,100,105,105,,222.5,67.5,SBD,Wraps,Yes,35,42.5,-52.5,42.5,,-70,75,-90,75,,Amateur Open,28,6
Olga Voevodina,Ольга Воеводина,F,70.1,120,130,135,135,,305,75,SBD,Wraps,Yes,55,60,65,65,,90,100,105,105,,Amateur Open,30,1
Viktoriya Loginova,Виктория Логинова,F,73.2,130,-140,-145,130,,280,75,SBD,Wraps,Yes,-50,50,-55,50,,-100,100,-110,100,,Amateur Open,29,2
Ekaterina Mamicheva,Екатерина Мамичева,F,81.1,140,150,157.5,157.5,,342.5,82.5,SBD,Wraps,Yes,60,65,-70,65,,100,-110,120,120,,Amateur Open,38,1
Oksana Fedorova,Оксана Федорова,F,83.2,100,110,117.5,117.5,,290,90,SBD,Wraps,Yes,-52.5,55,-62.5,55,,100,107.5,117.5,117.5,,Amateur Open,25,1
Dmitriy Papenkov,Дмитрий Папенков,M,54.4,85,92.5,-97.5,92.5,,195,56,SBD,Wraps,Yes,37.5,40,42.5,42.5,,55,60,-62.5,60,,Amateur Teen 13-15,13,1
Ivan Burmistrov,Иван Бурмистров,M,63.7,77.5,92.5,110,110,,245,67.5,SBD,Wraps,Yes,50,-62.5,62.5,62.5,,50,62.5,72.5,72.5,,Amateur Teen 13-15,15,1
Vladislav Sychev,Владислав Сычев,M,66.4,105,120,125,125,,312.5,67.5,SBD,Wraps,Yes,72.5,77.5,82.5,82.5,,90,100,105,105,,Amateur Teen 16-17,16,1
Artur Yakovlev,Артур Яковлев,M,66.2,-150,150,165,165,,422.5,67.5,SBD,Wraps,Yes,117.5,125,-130,125,,132.5,-142.5,-145,132.5,,Amateur Juniors 20-23,20,1
Albert Talalyan,Альберт Талалян,M,66.8,170,185,200,200,,455,67.5,SBD,Wraps,Yes,100,105,-110,105,,140,145,150,150,,Amateur Open,26,1
Leontiy Sanin,Леонтий Санин,M,65.9,140,155,-167.5,155,,372.5,67.5,SBD,Wraps,Yes,90,95,-100,95,,105,115,122.5,122.5,,Amateur Open,24,2
Daniil Voronov,Даниил Воронов,M,73.3,105,117.5,122.5,122.5,,325,75,SBD,Wraps,Yes,77.5,82.5,87.5,87.5,,100,110,115,115,,Amateur Teen 13-15,15,1
Artem Lazarev,Артем Лазарев,M,73.5,200,210,-215,210,,510,75,SBD,Wraps,Yes,120,130,-135,130,,-160,165,170,170,,Amateur Teen 18-19,19,1
Georgiy Kharichko,Георгий Харичко,M,73.8,160,175,-190,175,,457.5,75,SBD,Wraps,Yes,105,112.5,-115,112.5,,150,160,170,170,,Amateur Juniors 20-23,20,1
Timur Baymukhanov,Тимур Баймуханов,M,74.9,-215,,,,,,75,SBD,Wraps,Yes,-120,,,,,-170,-175,-175,,,Amateur Juniors 20-23,23,DQ
Aleksandr Praded,Александр Прадед,M,74.8,180,190,-195,190,,495,75,SBD,Wraps,Yes,120,125,-130,125,,160,170,180,180,,Amateur Open,32,1
Anton Terekhov,Антон Терехов,M,74.6,170,180,-202.5,180,,415,75,SBD,Wraps,Yes,90,100,-110,100,,-135,135,-155,135,,Amateur Open,41,2
Roman Cherevan,Роман Черевань,M,79.2,190,200,-210,200,,520,82.5,SBD,Wraps,Yes,130,140,145,145,,155,165,175,175,,Amateur Teen 16-17,17,1
Evgeniy Pedurets,Евгений Пэдурец,M,81.8,170,190,-205,190,,470,82.5,SBD,Wraps,Yes,-100,100,,100,,160,170,180,180,,Amateur Teen 16-17,17,2
Radik Ayzetullov,Радик Айзетуллов,M,80.4,210,217.5,225,225,,547.5,82.5,SBD,Wraps,Yes,125,132.5,137.5,137.5,,170,-180,185,185,,Amateur Juniors 20-23,22,1
Dmitriy Troshin,Дмитрий Трошин,M,80.6,210,217.5,222.5,222.5,,542.5,82.5,SBD,Wraps,Yes,125,132.5,137.5,137.5,,170,177.5,182.5,182.5,,Amateur Juniors 20-23,23,2
Artem Gusev,Артем Гусев,M,82.3,220,235,242.5,242.5,,542.5,82.5,SBD,Wraps,Yes,115,120,-122.5,120,,-170,-170,180,180,,Amateur Juniors 20-23,23,3
Aleksandr Volkov,Александр Волков,M,81.6,155,-165,-165,155,,420,82.5,SBD,Wraps,Yes,100,105,-110,105,,140,155,160,160,,Amateur Juniors 20-23,21,4
Vasiliy Perov,Василий Перов,M,82,250,260,-270,260,,652.5,82.5,SBD,Wraps,Yes,157.5,162.5,165,165,,210,220,227.5,227.5,,Amateur Open,38,1
Evgeniy Gorshkov,Евгений Горшков,M,76.9,270,-282.5,-290,270,,610,82.5,SBD,Wraps,Yes,127.5,130,-132.5,130,,190,200,210,210,,Amateur Open,35,2
Pavel Legkiy,Павел Легкий,M,81.1,230,235,240,240,,580,82.5,SBD,Wraps,Yes,140,142.5,-145,142.5,,195,197.5,-200,197.5,,Amateur Open,27,3
Aleksey Vorotnikov,Алексей Воротников,M,82.5,215,225,230,230,,577.5,82.5,SBD,Wraps,Yes,132.5,137.5,-140,137.5,,190,200,210,210,,Amateur Open,36,4
Aleksandr Romanenko,Александр Романенко,M,79,220,230,-242.5,230,,567.5,82.5,SBD,Wraps,Yes,130,137.5,142.5,142.5,,-185,185,195,195,,Amateur Open,34,5
Mikhail Mozhginskiy,Михаил Можгинский,M,81.1,195,205,210,210,,530,82.5,SBD,Wraps,Yes,135,140,145,145,,-165,170,175,175,,Amateur Open,35,6
Aleksandr Naumov,Александр Наумов,M,81.2,200,-205,,200,,512.5,82.5,SBD,Wraps,Yes,135,140,142.5,142.5,,160,170,-180,170,,Amateur Open,24,7
Maksim Yarlykov,Максим Ярлыков,M,80.5,200,210,,210,,510,82.5,SBD,Wraps,Yes,115,120,-125,120,,-175,-175,180,180,,Amateur Open,32,8
Konstantin Apatenko,Константин Апатенко,M,79.6,175,-187.5,-187.5,175,,470,82.5,SBD,Wraps,Yes,120,130,135,135,,150,160,-165,160,,Amateur Open,26,9
Mikhail Kostikov,Михаил Костиков,M,80.6,175,185,-190,185,,452.5,82.5,SBD,Wraps,Yes,100,107.5,-110,107.5,,-155,160,-170,160,,Amateur Open,41,10
Grigoriy Ponomarenko,Григорий Пономаренко,M,80.2,150,170,185,185,,415,82.5,SBD,Wraps,Yes,92.5,100,105,105,,-110,110,125,125,,Amateur Open,24,11
Ilya Krasov,Илья Красов,M,80.6,157.5,165,-170,165,,405,82.5,SBD,Wraps,Yes,-105,-105,105,105,,125,130,135,135,,Amateur Open,38,12
Aleksandr Vasilev,Александр Васильев,M,76.3,-230,-230,-237.5,,,337.5,82.5,SBD,Wraps,Yes,125,132.5,135,135,,190,197.5,202.5,202.5,,Amateur Open,24,13
Aleksey Gvozdev,Алексей Гвоздев,M,81.1,-200,,,,,,82.5,SBD,Wraps,Yes,-112.5,,,,,-177.5,-177.5,-177.5,,,Amateur Masters 40-44,44,DQ
Nikita Kozlov,Никита Козлов,M,87.6,190,195,200,200,,495,90,SBD,Wraps,Yes,115,120,125,125,,160,165,170,170,,Amateur Teen 16-17,17,1
Aleksandr Bakin,Александр Бакин,M,88.4,210,215,220,220,,555,90,SBD,Wraps,Yes,120,125,130,130,,200,205,-210,205,,Amateur Teen 18-19,19,1
Artem Logvinov,Артем Логвинов,M,88.7,215,-225,-230,215,,545,90,SBD,Wraps,Yes,137.5,145,-150,145,,170,185,-195,185,,Amateur Juniors 20-23,21,1
Nikolay Zabelin,Николай Забелин,M,89.9,240,250,255,255,,620,90,SBD,Wraps,Yes,150,155,-160,155,,-200,200,210,210,,Amateur Open,31,2
Igor Startsev,Игорь Старцев,M,89.9,-225,225,232.5,232.5,,617.5,90,SBD,Wraps,Yes,155,165,,165,,205,215,220,220,,Amateur Open,33,3
Evgeniy Moiseev,Евгений Моисеев,M,89.1,-230,230,240,240,,590,90,SBD,Wraps,Yes,150,155,-160,155,,180,190,195,195,,Amateur Open,27,4
Daniil Ermolaev,Даниил Ермолаев,M,89.2,205,220,235,235,,570,90,SBD,Wraps,Yes,120,125,130,130,,190,205,-215,205,,Amateur Open,27,5
Andrey Zharov,Андрей Жаров,M,83.4,225,230,235,235,,555,90,SBD,Wraps,Yes,130,135,-140,135,,175,180,185,185,,Amateur Open,33,8
Ivan Bekhtold,Иван Бехтольд,M,87.1,185,200,210,210,,520,90,SBD,Wraps,Yes,-135,137.5,140,140,,-160,170,-180,170,,Amateur Open,28,9
Roman Seregin,Роман Серегин,M,87.8,160,185,-202.5,185,,492.5,90,SBD,Wraps,Yes,130,137.5,-140,137.5,,150,-160,170,170,,Amateur Open,27,11
Vladimir Kostin,Владимир Костин,M,88.9,150,170,180,180,,400,90,SBD,Wraps,Yes,70,80,90,90,,100,120,130,130,,Amateur Open,24,12
Roman Evseev,Роман Евсеев,M,95.2,190,200,210,210,,517.5,100,SBD,Wraps,Yes,115,120,127.5,127.5,,180,-185,-185,180,,Amateur Juniors 20-23,23,1
Sergey Kolotvin,Сергей Колотвин,M,98.9,265,277.5,290,290,,757.5,100,SBD,Wraps,Yes,195,205,210,210,212.5,235,247.5,257.5,257.5,,Amateur Open,31,1
Andrey Andreev,Андрей Андреев,M,97.5,220,230,240,240,,630,100,SBD,Wraps,Yes,170,180,-190,180,,-200,200,210,210,,Amateur Open,37,3
Aleksey Cherepkov,Алексей Черепков,M,98,235,240,-250,240,,590,100,SBD,Wraps,Yes,145,150,-155,150,,190,195,200,200,,Amateur Open,28,4
Sergey Gulidov,Сергей Гулидов,M,97.3,205,220,230,230,,575,100,SBD,Wraps,Yes,145,-152.5,-152.5,145,,180,190,200,200,,Amateur Open,31,5
Dmitriy Ilyashchat,Дмитрий Илящат,M,100,-190,190,210,210,,520,100,SBD,Wraps,Yes,120,130,135,135,,165,175,-180,175,,Amateur Masters 40-44,41,1
Aleksandr Demichev,Александр Демичев,M,108.2,-230,230,250,250,,620,110,SBD,Wraps,Yes,145,160,170,170,,180,190,200,200,,Amateur Juniors 20-23,23,1
Aleksandr Lokotkov,Александр Локотков,M,108.2,180,195,205,205,,515,110,SBD,Wraps,Yes,140,145,150,150,,140,152.5,160,160,,Amateur Juniors 20-23,21,2
Artem Bezpalenko,Артем Безпаленко,M,106.8,230,250,265,265,,637.5,110,SBD,Wraps,Yes,160,170,177.5,177.5,,170,185,195,195,,Amateur Open,26,1
Sergey Pereskokov,Сергей Перескоков,M,108.7,210,217.5,-227.5,217.5,,590,110,SBD,Wraps,Yes,150,-157.5,-157.5,150,,205,215,222.5,222.5,,Amateur Open,29,2
Nikita Molokanov,Никита Молоканов,M,106.3,230,-242.5,-242.5,230,,577.5,110,SBD,Wraps,Yes,145,-150,152.5,152.5,,-190,190,195,195,,Amateur Open,26,3
Georgiy Posobilov,Георгий Пособилов,M,108.5,140,155,170,170,,417.5,110,SBD,Wraps,Yes,-105,-105,105,105,,125,135,142.5,142.5,,Amateur Open,28,4
Mikhail Stroilov,Михаил Строилов,M,107.9,200,210,220,220,,550,110,SBD,Wraps,Yes,130,-140,-142.5,130,,190,200,-210,200,,Amateur Masters 40-44,41,1
Vasiliy Zakharchuk,Василий Захарчук,M,118.3,240,255,-272.5,255,,652.5,125,SBD,Wraps,Yes,-140,152.5,162.5,162.5,,210,225,235,235,,Amateur Open,27,1
Aleksey Stepanchenko,Алексей Степанченко,M,123.4,232.5,240,-250,240,,625,125,SBD,Wraps,Yes,155,160,-165,160,,210,220,225,225,,Amateur Open,28,2
Artem Shiryaev,Артем Ширяев,M,116.7,220,235,252.5,252.5,,617.5,125,SBD,Wraps,Yes,150,160,165,165,,190,200,-210,200,,Amateur Open,24,3
Dmitriy Efimenko,Дмитрий Ефименко,M,121.1,230,240,250,250,,615,125,SBD,Wraps,Yes,140,150,160,160,,-190,190,205,205,,Amateur Open,26,4
Konstantin Prikhodko,Константин Приходько,M,123.9,-200,,,,,210,125,SBD,Wraps,Yes,-135,-135,-135,,,210,-225,-225,210,,Amateur Open,24,5
Igor Alferov,Игорь Алферов,M,138.6,230,240,-245,240,,640,140,SBD,Wraps,Yes,157.5,165,,165,,220,235,-240,235,,Amateur Masters 40-44,40,1
Evgeniy Kuznetsov,Евгений Кузнецов,M,106.3,250,270,-310,270,,270,110,D,Multi-ply,No,,,,,,,,,,,Pro Open,26,3
Kamilla Kozhevnikova,Камилла Кожевникова,F,63.7,75,85,90,90,,90,67.5,D,Single-ply,No,,,,,,,,,,,Pro Open,30,1
Vladislav Sannikov,Владислав Санников,M,76.6,110,120,125,125,,125,82.5,D,Single-ply,No,,,,,,,,,,,Pro Open,78,2
Roman Zverev,Роман Зверев,M,99.3,-200,-200,200,200,,200,100,D,Single-ply,No,,,,,,,,,,,Pro Open,28,6
Irina Borisova,Ирина Борисова,F,59.9,85,92.5,95,95,,95,60,D,Raw,No,,,,,,,,,,,Pro Open,35,1
Olga Aldonina,Ольга Алдонина,F,66.6,-70,75,80,80,,80,67.5,D,Raw,No,,,,,,,,,,,Pro Open,32,2
Lyudmila Kelina,Людмила Келина,F,69.9,65,75,85,85,,85,75,D,Raw,No,,,,,,,,,,,Pro Open,28,1
Ruslan Zinnatov,Руслан Зиннатов,M,81.2,195,202.5,-205,202.5,,202.5,82.5,D,Raw,No,,,,,,,,,,,Pro Open,30,1
Aleksey Nikolaev,Алексей Николаев,M,87.6,250,270,-300,270,,270,90,D,Raw,No,,,,,,,,,,,Pro Open,32,1
Aleksandr Lebedev,Александр Лебедев,M,88.9,120,130,140,140,,140,90,D,Raw,No,,,,,,,,,,,Pro Masters 40-44,44,1
Roman Zverev,Роман Зверев,M,99.3,280,300,-317.5,300,,300,100,D,Raw,No,,,,,,,,,,,Pro Open,28,1
Vitaliy Zheludev,Виталий Желудев,M,92.3,275,285,-295,285,,285,100,D,Raw,No,,,,,,,,,,,Pro Open,32,2
Roman Kroshkin,Роман Крошкин,M,94.3,277.5,-280,-280,277.5,,277.5,100,D,Raw,No,,,,,,,,,,,Pro Open,36,3
Andrey Arkhipov,Андрей Архипов,M,98.3,255,260,-270,260,,260,100,D,Raw,No,,,,,,,,,,,Pro Open,37,4
Roman Seredin,Роман Середин,M,98.5,240,255,-265,255,,255,100,D,Raw,No,,,,,,,,,,,Pro Open,24,5
Aleksey Gorbonosov,Алексей Горбоносов,M,105,310,322.5,-327.5,322.5,,322.5,110,D,Raw,No,,,,,,,,,,,Pro Open,31,1
Roman Sokovykh,Роман Соковых,M,109,285,,,285,,285,110,D,Raw,No,,,,,,,,,,,Pro Open,31,2
Viktor Maslyuk,Виктор Маслюк,M,106.1,220,250,270,270,,270,110,D,Raw,No,,,,,,,,,,,Pro Masters 40-44,43,1
Georgiy Dyachenko,Георгий Дьяченко,M,108.8,130,150,160,160,,160,110,D,Raw,No,,,,,,,,,,,Pro Masters 45-49,45,1
Stanislav Maksimov,Станислав Максимов,M,116.25,,,,,,,125,B,Multi-ply,No,-320,-320,-320,,,,,,,,Pro Masters 45-49,48,DQ
Alina Shestiglazova,Алина Шестиглазова,F,48,,,,,,72.5,48,B,Single-ply,No,67.5,70,72.5,72.5,,,,,,,Pro Open,22,1
Alena Sotnikova,Алена Сотникова,F,56,,,,,,80,56,B,Single-ply,No,80,-85,-85,80,,,,,,,Pro Open,27,1
Mariya Pustovit,Мария Пустовит,F,59.4,,,,,,110,60,B,Single-ply,No,-110,-110,110,110,-112.5,,,,,,Pro Open,31,1
Pavel Silushin,Павел Силушин,M,86.8,,,,,,,90,B,Single-ply,No,-265,-265,-265,,,,,,,,Pro Open,27,DQ
Nikolay Alyshev,Николай Алышев,M,109.6,,,,,,290,110,B,Single-ply,No,290,-300,-300,290,,,,,,,Pro Open,31,1
Irina Myagkova,Ирина Мягкова,F,50.5,,,,,,40,52,B,Raw,No,40,-45,-45,40,,,,,,,Pro Open,26,1
Asiya Gabidullina,Асия Габидуллина,F,56.1,,,,,,80,60,B,Raw,No,75,77.5,80,80,,,,,,,Pro Open,34,2
Ekaterina Chesnakova,Екатерина Чеснакова,F,59.2,,,,,,50,60,B,Raw,No,45,-50,50,50,,,,,,,Pro Open,38,3
Yustina Boryu,Юстина Борю,F,82.9,,,,,,130,90,B,Raw,No,125,-130,130,130,,,,,,,Pro Open,29,1
Artur Khorin,Артур Хорин,M,57.9,,,,,,70,60,B,Raw,No,65,-70,70,70,,,,,,,Pro Juniors 20-23,21,1
Aleksandr Rumyantsev,Александр Румянцев,M,65.2,,,,,,70,67.5,B,Raw,No,70,-80,-80,70,,,,,,,Pro Open,25,1
Nikolay Gagulin,Николай Гагулин,M,73.7,,,,,,140,75,B,Raw,No,-140,-140,140,140,,,,,,,Pro Open,26,1
Nikolay Petrokovich,Николай Петрокович,M,70,,,,,,115,75,B,Raw,No,115,-125,-127.5,115,,,,,,,Pro Open,37,2
Vladislav Sannikov,Владислав Санников,M,76.6,,,,,,85,82.5,B,Raw,No,80,85,-87.5,85,,,,,,,Pro Open,78,1
Aleksandr Lisin,Александр Лисин,M,81.6,,,,,,,82.5,B,Raw,No,-162.5,-162.5,,,,,,,,,Pro Open,26,DQ
Vladislav Sannikov,Владислав Санников,M,76.6,,,,,,85,82.5,B,Raw,No,80,85,-87.5,85,,,,,,,Pro Masters,78,1
Egor Kiselyov,Егор Киселёв,M,83.5,,,,,,50,90,B,Raw,No,-47.5,47.5,50,50,,,,,,,Pro Teen 13-15,10,1
Sergey Timchenko,Сергей Тимченко,M,86.1,,,,,,210,90,B,Raw,No,195,-210,210,210,,,,,,,Pro Open,37,1
Aleksey Nikolaenko,Алексей Николаенко,M,89.9,,,,,,207.5,90,B,Raw,No,195,205,207.5,207.5,,,,,,,Pro Open,28,2
Nikolay Kostev,Николай Костев,M,83.4,,,,,,162.5,90,B,Raw,No,150,160,162.5,162.5,,,,,,,Pro Open,57,3
Aleksandr Nikishin,Александр Никишин,M,87.3,,,,,,160,90,B,Raw,No,160,-180,-180,160,,,,,,,Pro Open,28,4
Vladislav Volchanov,Владислав Волчанов,M,88.5,,,,,,175,90,B,Raw,No,160,170,175,175,,,,,,,Pro Masters 40-44,41,1
Nikolay Kostev,Николай Костев,M,83.4,,,,,,162.5,90,B,Raw,No,150,160,162.5,162.5,,,,,,,Pro Masters 55-59,57,1
Vasiliy Bondarev,Василий Бондарев,M,98.6,,,,,,170,100,B,Raw,No,-170,170,-175,170,,,,,,,Pro Juniors 20-23,22,1
Oleg Bryndin,Олег Брындин,M,94.5,,,,,,150,100,B,Raw,No,150,-160,-160,150,,,,,,,Pro Juniors 20-23,23,2
Yuriy Grigorev,Юрий Григорьев,M,100,,,,,,190,100,B,Raw,No,-185,190,-195,190,,,,,,,Pro Open,35,1
Anton Levshin,Антон Левшин,M,93.9,,,,,,185,100,B,Raw,No,170,185,-190,185,,,,,,,Pro Open,32,2
Yulian Lymar,Юлиан Лымарь,M,98.6,,,,,,170,100,B,Raw,No,165,170,-175,170,,,,,,,Pro Open,32,3
Sergey Zakharov,Сергій Захаров,M,97.4,,,,,,165,100,B,Raw,No,-150,160,165,165,,,,,,,Pro Open,25,4
Andrey Valin,Андрей Валин,M,99.5,,,,,,150,100,B,Raw,No,-135,142.5,150,150,,,,,,,Pro Open,24,5
Aleksandr Tolmachev,Александр Толмачев,M,92.3,,,,,,140,100,B,Raw,No,140,-145,-145,140,,,,,,,Pro Open,33,6
Sergey Nikiforov,Сергей Никифоров,M,95,,,,,,,100,B,Raw,No,-165,-165,,,,,,,,,Pro Open,25,DQ
Dmitriy Sivachev,Дмитрий Сивачев,M,97.8,,,,,,170,100,B,Raw,No,-170,170,,170,,,,,,,Pro Masters 40-44,41,1
Sergey Zotikov,Сергей Зотиков,M,99.8,,,,,,130,100,B,Raw,No,130,-135,-135,130,,,,,,,Pro Masters 50-54,52,1
Dmitriy Korolyov,Дмитрий Королёв,M,101.8,,,,,,190,110,B,Raw,No,180,190,-195,190,,,,,,,Pro Juniors 20-23,23,1
Dmitriy Rybin,Дмитрий Рыбин,M,109.6,,,,,,172.5,110,B,Raw,No,165,-172.5,172.5,172.5,,,,,,,Pro Juniors 20-23,23,2
Igor Lipachev,Игорь Липачев,M,103.3,,,,,,227.5,110,B,Raw,No,220,227.5,-232.5,227.5,,,,,,,Pro Open,48,2
Konstantin Komissarov,Константин Комиссаров,M,105.3,,,,,,207.5,110,B,Raw,No,195,-205,207.5,207.5,,,,,,,Pro Open,31,3
Vladislav Kolesnikov,Владислав Колесников,M,101.2,,,,,,200,110,B,Raw,No,200,-205,-205,200,,,,,,,Pro Open,32,4
Viktor Pavlov,Виктор Павлов,M,109.6,,,,,,185,110,B,Raw,No,185,-190,-190,185,,,,,,,Pro Open,28,5
Dmitriy Karelin,Дмитрий Карелин,M,102.5,,,,,,170,110,B,Raw,No,-170,170,-180,170,,,,,,,Pro Open,28,6
Georgiy Dyachenko,Георгий Дьяченко,M,108.8,,,,,,150,110,B,Raw,No,120,140,150,150,,,,,,,Pro Masters 45-49,45,1
Aleksey Verezhnikov,Алексей Вережников,M,120.75,,,,,,212.5,125,B,Raw,No,200,207.5,212.5,212.5,,,,,,,Pro Open,33,1
Andrey Vysotskiy,Андрей Высоцкий,M,122.9,,,,,,207.5,125,B,Raw,No,207.5,-212.5,-212.5,207.5,,,,,,,Pro Open,39,2
Boris Cherney,Борис Черней,M,125,,,,,,,125,B,Raw,No,-220,,,,,,,,,,Pro Open,48,DQ
Boris Cherney,Борис Черней,M,125,,,,,,,125,B,Raw,No,-220,,,,,,,,,,Pro Masters 45-49,48,DQ
Georgiy Darchiev,Георгий Дарчиев,M,136.1,,,,,,210,140,B,Raw,No,-210,210,-215,210,,,,,,,Pro Open,39,1
Ivan Rodionov,Иван Родионов,M,75,200,210,220,220,,595,75,SBD,Single-ply,No,140,-150,-150,140,,200,220,235,235,,Pro Open,25,1
Vladimir Gurenkov,Владимир Гуреньков,M,81.4,-250,,,,,,82.5,SBD,Single-ply,No,-150,,,,,-250,-250,-250,,,Pro Open,24,DQ
Pavel Simanin,Павел Симанин,M,88.6,220,240,257.5,257.5,,637.5,90,SBD,Single-ply,No,150,160,-165,160,,190,210,220,220,,Pro Juniors 20-23,22,1
Vyacheslav Romanov,Вячеслав Романов,M,86,235,247.5,257.5,257.5,,720,90,SBD,Single-ply,No,190,-200,202.5,202.5,,240,250,260,260,,Pro Open,26,1
Artyom Tarasov,Артём Тарасов,M,89.2,232.5,-240,-240,232.5,,627.5,90,SBD,Single-ply,No,-150,150,-155,150,,235,245,-255,245,,Pro Open,24,3
Aleksandr Shabrov,Александр Шабров,M,95.3,290,300,310,310,,880,100,SBD,Single-ply,No,200,210,220,220,,320,340,350,350,,Pro Open,26,1
Andrey Drozhzhin,Андрей Дрожжин,M,109.1,290,300,-320,300,,890,110,SBD,Single-ply,No,210,-230,230,230,,-360,360,-380,360,,Pro Open,39,1
Maksim Yakovlev,Максим Яковлев,M,100.8,260,275,-285,275,,795,110,SBD,Single-ply,No,190,200,210,210,,270,290,310,310,,Pro Open,29,2
Dina Panteleeva,Дина Пантелеева,F,54.2,90,100,-110,100,,205,56,SBD,Wraps,No,35,-42.5,-42.5,35,,-70,70,-80,70,,Pro Open,27,1
Anton Prints,Антон Принц,M,73.1,180,187.5,195,195,,470,75,SBD,Wraps,No,115,120,125,125,,135,142.5,150,150,,Pro Juniors 20-23,23,1
Nikolay Vetrov,Николай Ветров,M,73.6,150,155,160,160,,350,75,SBD,Wraps,No,80,-82.5,-82.5,80,,-110,110,-115,110,,Pro Masters 70-74,71,1
Nikita Romanov,Никита Романов,M,78.2,175,190,205,205,,515,82.5,SBD,Wraps,No,120,130,-135,130,,180,-190,-190,180,,Pro Open,25,1
Aleksey Molochkov,Алексей Молочков,M,82.3,207.5,-217.5,222.5,222.5,,557.5,82.5,SBD,Wraps,No,142.5,147.5,150,150,,177.5,-182.5,185,185,,Pro Masters 50-54,54,1
Timur Mamedov,Тимур Мамедов,M,89.2,230,255,265,265,,647.5,90,SBD,Wraps,No,140,150,-157.5,150,,215,225,232.5,232.5,,Pro Open,33,2
Aleksandr Kuznetsov,Александр Кузнецов,M,89.2,215,-240,-240,215,,557.5,90,SBD,Wraps,No,-137.5,147.5,-157.5,147.5,,-185,195,-205,195,,Pro Open,38,4
Dmitriy Beglov,Дмитрий Беглов,M,97.5,200,215,220,220,,545,100,SBD,Wraps,No,130,140,-150,140,,170,-180,185,185,,Pro Teen 16-17,17,1
Evgeniy Lukoyanov,Евгений Лукоянов,M,98.9,280,-290,,280,,682.5,100,SBD,Wraps,No,167.5,182.5,-192.5,182.5,,180,200,220,220,,Pro Open,34,2
Roman Kroshkin,Роман Крошкин,M,94.9,250,265,275,275,,660,100,SBD,Wraps,No,135,145,150,150,,215,225,235,235,,Pro Open,36,3
Aleksey Trofimov,Алексей Трофимов,M,97.6,230,-255,-255,230,,610,100,SBD,Wraps,No,-160,165,170,170,,190,-205,210,210,,Pro Open,36,4
Tochiddin Abdurokhmonov,Точиддин Абдурохмонов,M,92.2,195,210,-215,210,,520,100,SBD,Wraps,No,-130,-130,130,130,,-160,170,180,180,,Pro Open,34,5
Aleksandr Krasikov,Александр Красиков,M,97.9,-255,,,,,210,100,SBD,Wraps,No,-160,-160,-160,,,210,-215,-215,210,,Pro Open,27,6
Sergey Mineev,Сергей Минеев,M,107.5,270,290,-302.5,290,,732.5,110,SBD,Wraps,No,185,195,202.5,202.5,,220,-240,240,240,,Pro Open,27,3
Evgeniy Solopov,Евгений Солопов,M,107,285,290,-295,290,,712.5,110,SBD,Wraps,No,-177.5,177.5,-182.5,177.5,,235,240,245,245,,Pro Open,27,4
Vadim Dyachenko,Вадим Дьяченко,M,105,280,-300,,280,,710,110,SBD,Wraps,No,160,-170,170,170,,250,260,-265,260,,Pro Open,35,5
Andrey Burachkovskiy,Андрей Бурачковский,M,107.2,250,265,280,280,,710,110,SBD,Wraps,No,180,185,190,190,,-235,235,240,240,,Pro Open,32,6
Marat Savosin,Марат Савосин,M,110.6,295,305,310,310,,842.5,125,SBD,Wraps,No,205,212.5,,212.5,,300,312.5,320,320,,Pro Open,26,1
Ilya Boldin,Илья Болдин,M,113.7,310,-330,335,335,,790,125,SBD,Wraps,No,165,175,-185,175,,260,272.5,280,280,,Pro Open,25,2
Aleksey Kaloshin,Алексей Калошин,M,114.1,310,-320,,310,,790,125,SBD,Wraps,No,190,-200,200,200,,260,280,-285,280,,Pro Open,25,3
