Division,WeightClassKg,Place,Name,Team,BodyweightKg,Best3SquatKg,Best3BenchKg,Best3DeadliftKg,TotalKg,Equipment,Event,Sex
Boys,52,1,Osvaldo Lopez,Brownsville Hanna,51.26,165.56,88.45,165.56,419.57,Single-ply,SBD,M
Boys,52,2,Leo Martinez,Rio Grande City,51.26,136.08,95.25,140.61,371.95,Single-ply,SBD,M
Boys,52,3,Gilbert Gonzalez,Edinburg Vela,47.45,142.88,102.06,102.06,347,Single-ply,SBD,M
Boys,52,4,Samuel Medillin,Edinburg Vela,50.8,129.27,74.84,127.01,331.12,Single-ply,SBD,M
Boys,52,5,Fernando Gonzalez,McAllen Memorial,48.26,90.72,65.77,136.08,292.57,Single-ply,SBD,M
Boys,52,6,Jesus Puente,La Joya Palmview,47.9,95.25,63.5,115.67,274.42,Single-ply,SBD,M
Boys,52,7,Ty Morin,Edinburg,50.8,97.52,54.43,115.67,267.62,Single-ply,SBD,M
Boys,52,8,Tommy Livigni,McAllen Memorial,48.08,52.16,40.82,70.31,163.29,Single-ply,SBD,M
Boys,56,1,Anthony Borrego,McAllen,54.88,131.54,90.72,142.88,365.14,Single-ply,SBD,M
Boys,56,2,CJ Medina,Brownsville Hanna,53.07,145.15,68.04,142.88,356.07,Single-ply,SBD,M
Boys,56,3,Jackson Littles,PSJA North,55.7,124.74,79.38,142.88,347,Single-ply,SBD,M
Boys,56,4,Eddy Lopez,Brownsville Hanna,52.16,104.33,61.23,149.69,315.25,Single-ply,SBD,M
Boys,56,5,Carlos Avila,La Joya,51.94,111.13,77.11,122.47,310.71,Single-ply,SBD,M
Boys,56,6,Aaron Gonzalez,Lyford,54.25,108.86,61.23,136.08,306.17,Single-ply,SBD,M
Boys,60,1,Joe Ramirez,Edinburg Vela,59.87,183.7,122.47,174.63,480.81,Single-ply,SBD,M
Boys,60,2,Robert Saenz,Sharyland Pioneer,58.51,181.44,111.13,174.63,467.2,Single-ply,SBD,M
Boys,60,3,Marcus Silva,McAllen Memorial,58.51,156.49,88.45,176.9,421.84,Single-ply,SBD,M
Boys,60,4,Andy Acuna,Brownsville Hanna,58.97,161.03,90.72,165.56,417.3,Single-ply,SBD,M
Boys,60,5,Austin Weise,McAllen Rowe,57.15,142.88,102.06,154.22,399.16,Single-ply,SBD,M
Boys,60,6,Ismael Talamante,Rio Grande City,56.43,136.08,88.45,149.69,374.21,Single-ply,SBD,M
Boys,60,7,Jesus Rosillo,McAllen,59.69,136.08,77.11,142.88,356.07,Single-ply,SBD,M
Boys,60,8,Andrew Elizarraras,McAllen,59.87,129.27,79.38,138.35,347,Single-ply,SBD,M
Boys,60,9,Kevin Romo,Edinburg,56.7,111.13,83.91,129.27,324.32,Single-ply,SBD,M
Boys,60,10,Ruben D Saenz III,McAllen Rowe,59.42,111.13,68.04,127.01,306.17,Single-ply,SBD,M
Boys,60,11,Eduardo De Los Rios,McAllen Rowe,56.61,111.13,61.23,111.13,283.5,Single-ply,SBD,M
Boys,60,DQ,Stanley Davis,McAllen Memorial,58.51,122.47,,,,Single-ply,SBD,M
Boys,60,DQ,Marco Solis,Edinburg,59.42,165.56,,,,Single-ply,SBD,M
Boys,67.5,1,Abraham Hernandez,La Joya Palmview,65.14,235.87,111.13,254.01,601.01,Single-ply,SBD,M
Boys,67.5,2,Coy Burrows,Sharyland Pioneer,66.04,192.78,115.67,197.31,505.76,Single-ply,SBD,M
Boys,67.5,3,Roman Garay,Brownsville Hanna,66.22,199.58,92.99,204.12,496.68,Single-ply,SBD,M
Boys,67.5,4,Aaron Garcia,PSJA North,66.77,174.63,92.99,181.44,449.06,Single-ply,SBD,M
Boys,67.5,5,Hugo Gomez,Edinburg North,65.77,165.56,106.59,174.63,446.79,Single-ply,SBD,M
Boys,67.5,6,Ricardo Pena,Rio Grande City,66.86,156.49,113.4,176.9,446.79,Single-ply,SBD,M
Boys,67.5,7,Carlos Coronado,Edinburg North,66.95,149.69,102.06,172.37,424.11,Single-ply,SBD,M
Boys,67.5,8,Santino Pascual,Mission Sharyland,66.32,165.56,81.65,165.56,412.77,Single-ply,SBD,M
Boys,67.5,9,Mario Marin,Brownsville Hanna,60.78,142.88,83.91,170.1,396.89,Single-ply,SBD,M
Boys,67.5,10,Emiliano Becerril,Mission Sharyland,66.13,158.76,88.45,149.69,396.89,Single-ply,SBD,M
Boys,67.5,11,Carlos Gonzalez,Sharyland Pioneer,67.04,145.15,88.45,156.49,390.09,Single-ply,SBD,M
Boys,67.5,12,Eduardo Tejernia,Sharyland Pioneer,66.68,145.15,79.38,158.76,383.29,Single-ply,SBD,M
Boys,67.5,13,Javier Renteria,Edinburg North,62.87,122.47,86.18,140.61,349.27,Single-ply,SBD,M
Boys,67.5,14,Abel Gonzalez,Lyford,61.69,127.01,72.57,138.35,337.93,Single-ply,SBD,M
Boys,67.5,15,Crespin Salazar,Edinburg,63.05,111.13,77.11,142.88,331.12,Single-ply,SBD,M
Boys,67.5,16,Samuel Garza,Sharyland Pioneer,60.42,90.72,65.77,124.74,281.23,Single-ply,SBD,M
Boys,67.5,DQ,Jacob Pina,La Joya Palmview,66.68,190.51,,,,Single-ply,SBD,M
Boys,75,1,Sean De La Garza,Mission Veterans Memorial,72.76,226.8,158.76,215.46,601.01,Single-ply,SBD,M
Boys,75,2,Jaziah Escamilla,McAllen Memorial,73.75,208.65,142.88,213.19,564.72,Single-ply,SBD,M
Boys,75,3,Roman Villarreal,McAllen Rowe,73.03,190.51,145.15,197.31,532.97,Single-ply,SBD,M
Boys,75,4,Jacob Sanchez,Lyford,73.84,206.38,111.13,199.58,517.1,Single-ply,SBD,M
Boys,75,5,Julian Hernandez,McAllen Memorial,74.12,192.78,127.01,195.04,514.83,Single-ply,SBD,M
Boys,75,6,Michael Aguilar,McAllen,72.85,170.1,131.54,192.78,494.42,Single-ply,SBD,M
Boys,75,7,Brandon Manteca,McAllen Memorial,73.75,165.56,117.93,172.37,455.86,Single-ply,SBD,M
Boys,75,8,Victor Silva,Rio Grande City,71.94,138.35,111.13,188.24,437.72,Single-ply,SBD,M
Boys,75,9,Jaaziel Espinoza,McAllen,68.76,156.49,106.59,170.1,433.18,Single-ply,SBD,M
Boys,75,10,Jacob Trevino,Sharyland Pioneer,73.21,158.76,95.25,151.95,405.97,Single-ply,SBD,M
Boys,75,11,Marco Florez,Mission Veterans Memorial,73.48,133.81,102.06,142.88,378.75,Single-ply,SBD,M
Boys,75,12,Adrian Villarreal,Mission Veterans Memorial,73.94,136.08,88.45,147.42,371.95,Single-ply,SBD,M
Boys,75,13,Oscar Rivera,Edinburg North,74.12,136.08,79.38,156.49,371.95,Single-ply,SBD,M
Boys,75,14,John Harris,Edinburg Vela,74.84,136.08,83.91,151.95,371.95,Single-ply,SBD,M
Boys,75,15,Jonas Ortiz,McAllen Rowe,72.57,138.35,86.18,145.15,369.68,Single-ply,SBD,M
Boys,75,16,Eriberto Villarreal,Mission Veterans Memorial,73.48,129.27,92.99,142.88,365.14,Single-ply,SBD,M
Boys,75,17,André Garcia,McAllen,69.85,117.93,97.52,145.15,360.61,Single-ply,SBD,M
Boys,82.5,1,Mike Adameit,Lyford,75.11,235.87,124.74,215.46,576.06,Single-ply,SBD,M
Boys,82.5,2,Ulysses Vasquez,McAllen Memorial,81.19,206.38,142.88,213.19,562.45,Single-ply,SBD,M
Boys,82.5,3,Frank Moreno,Lyford,75.75,190.51,124.74,240.4,555.65,Single-ply,SBD,M
Boys,82.5,4,Robert Farias,Mission Sharyland,80.29,235.87,106.59,192.78,535.24,Single-ply,SBD,M
Boys,82.5,5,Leonardo Lopez,Edinburg North,80.29,195.04,99.79,185.97,480.81,Single-ply,SBD,M
Boys,82.5,6,Brandon Mireles,Mission Sharyland,81.65,167.83,99.79,204.12,471.74,Single-ply,SBD,M
Boys,82.5,7,Andrew Solis,Edinburg Vela,76.2,165.56,124.74,179.17,469.47,Single-ply,SBD,M
Boys,82.5,8,Oscar Mendoza,La Joya Palmview,80.2,154.22,129.27,185.97,469.47,Single-ply,SBD,M
Boys,82.5,9,Daniel Arguelles,Brownsville Hanna,79.38,174.63,111.13,170.1,455.86,Single-ply,SBD,M
Boys,82.5,10,Jaime Montoya,Lyford,80.29,161.03,102.06,170.1,433.18,Single-ply,SBD,M
Boys,82.5,11,Brandon Quintanilla,Mission Sharyland,80.01,151.95,102.06,161.03,415.04,Single-ply,SBD,M
Boys,82.5,12,James Gulley,Mission Veterans Memorial,79.47,142.88,74.84,161.03,378.75,Single-ply,SBD,M
Boys,82.5,13,Allan Valdez,Edinburg,78.93,138.35,70.31,129.27,337.93,Single-ply,SBD,M
Boys,82.5,DQ,Joel Pina,La Joya Palmview,79.56,154.22,,,,Single-ply,SBD,M
Boys,90,1,Nathan Hernandez,McAllen Rowe,89.81,206.38,158.76,235.87,601.01,Single-ply,SBD,M
Boys,90,2,Edgar Arevalo,Edinburg,89.36,208.65,138.35,238.14,585.13,Single-ply,SBD,M
Boys,90,3,Rene Cantu,Edinburg Vela,88.45,235.87,142.88,204.12,582.87,Single-ply,SBD,M
Boys,90,4,Brandon Esteves,Brownsville Hanna,88.45,215.46,122.47,226.8,564.72,Single-ply,SBD,M
Boys,90,5,Dylan Earhart,McAllen Memorial,89.36,226.8,120.2,204.12,551.11,Single-ply,SBD,M
Boys,90,6,Calderini Behran,Edinburg North,87.36,215.46,113.4,213.19,542.04,Single-ply,SBD,M
Boys,90,7,Nathial Morales,Edinburg North,86.18,197.31,124.74,213.19,535.24,Single-ply,SBD,M
Boys,90,8,Ryan Alvarez,Rio Grande City,85.37,192.78,113.4,201.85,508.02,Single-ply,SBD,M
Boys,90,9,Sanden Yarto,McAllen,88.9,195.04,120.2,188.24,503.49,Single-ply,SBD,M
Boys,90,10,Edgar Castillo,McAllen Rowe,87.45,188.24,106.59,195.04,489.88,Single-ply,SBD,M
Boys,90,11,Brandon Vega,Edinburg North,88.18,172.37,117.93,188.24,478.54,Single-ply,SBD,M
Boys,90,12,Jose Uribe,Brownsville Hanna,89.81,192.78,108.86,165.56,467.2,Single-ply,SBD,M
Boys,90,13,Michael Morales,McAllen Rowe,85.46,163.29,120.2,167.83,451.32,Single-ply,SBD,M
Boys,90,14,Emmanuel Cepeda,Lyford,85.82,185.97,99.79,154.22,439.98,Single-ply,SBD,M
Boys,90,15,Issac Garza,Mission Veterans Memorial,86,151.95,83.91,161.03,396.89,Single-ply,SBD,M
Boys,100,1,Carlos Zarate,Mission Sharyland,94.71,260.82,145.15,251.74,657.71,Single-ply,SBD,M
Boys,100,2,Noah Cisneros,McAllen Memorial,98.88,260.82,158.76,224.53,644.1,Single-ply,SBD,M
Boys,100,3,Daniel Villarreal,La Joya,90.45,254.01,136.08,229.06,619.15,Single-ply,SBD,M
Boys,100,4,Joel Moreno,Mission Sharyland,91.26,231.33,127.01,226.8,585.13,Single-ply,SBD,M
Boys,100,5,Ryan Reyna,PSJA North,92.44,210.92,133.81,215.46,560.19,Single-ply,SBD,M
Boys,100,6,Eddie Garza,Rio Grande City,98.88,201.85,142.88,215.46,560.19,Single-ply,SBD,M
Boys,100,7,Pedro Carpio,PSJA North,91.17,192.78,131.54,179.17,503.49,Single-ply,SBD,M
Boys,100,8,Amadeo Salinas,McAllen,98.61,181.44,140.61,170.1,492.15,Single-ply,SBD,M
Boys,100,9,Jeremiah Ramon,Rio Grande City,97.79,179.17,113.4,190.51,483.08,Single-ply,SBD,M
Boys,100,10,Josafat Florez,Edinburg North,98.43,158.76,113.4,204.12,476.27,Single-ply,SBD,M
Boys,100,DQ,Emmanuel Mendez,PSJA North,94.26,201.85,122.47,,,Single-ply,SBD,M
Boys,110,1,Sam Rodriguez,La Joya,108.86,299.37,181.44,247.21,728.02,Single-ply,SBD,M
Boys,110,2,Adrian Arredondo,Brownsville Hanna,107.5,294.84,183.7,247.21,725.75,Single-ply,SBD,M
Boys,110,3,Oscar Juarez,Edinburg,109.32,260.82,176.9,222.26,659.98,Single-ply,SBD,M
Boys,110,4,Freddy Valdez,Edinburg,106.59,238.14,151.95,260.82,650.91,Single-ply,SBD,M
Boys,110,5,Jarome Torres,McAllen Memorial,106.96,244.94,161.03,217.72,623.69,Single-ply,SBD,M
Boys,110,6,Jose Raya,Brownsville Hanna,107.5,231.33,131.54,183.7,546.58,Single-ply,SBD,M
Boys,110,7,Roberto Barba,La Joya Palmview,107.5,231.33,111.13,183.7,526.17,Single-ply,SBD,M
Boys,110,8,David Garza,Edinburg Vela,106.5,172.37,99.79,201.85,474,Single-ply,SBD,M
Boys,110,9,Norberto Salinas,McAllen Rowe,103.87,151.95,122.47,181.44,455.86,Single-ply,SBD,M
Boys,110,10,Axel Hernandez,Mission Veterans Memorial,106.59,174.63,95.25,183.7,453.59,Single-ply,SBD,M
Boys,110,11,Arturo Pena,La Joya Palmview,105.6,167.83,83.91,165.56,417.3,Single-ply,SBD,M
Boys,110,12,Ralph Yzaguirre,Edinburg Vela,104.78,136.08,97.52,138.35,371.95,Single-ply,SBD,M
Boys,110,13,Donavan Rodriguez,Mission Veterans Memorial,105.41,129.27,92.99,149.69,371.95,Single-ply,SBD,M
Boys,110,14,Tomas Garza,Mission Veterans Memorial,108.95,129.27,74.84,124.74,328.85,Single-ply,SBD,M
Boys,110,DQ,Emilio Chavez,Mission Sharyland,105.96,219.99,131.54,,,Single-ply,SBD,M
Boys,110,DQ,Anthony Zapata,Sharyland Pioneer,109.5,272.16,,,,Single-ply,SBD,M
Boys,125,1,Luis Salinas,Rio Grande City,119.75,240.4,170.1,247.21,657.71,Single-ply,SBD,M
Boys,125,2,Joshua Williams,Mission Sharyland,115.48,233.6,145.15,229.06,607.81,Single-ply,SBD,M
Boys,125,3,Juan Hernandez #6,McAllen Memorial,116.3,195.04,136.08,188.24,519.36,Single-ply,SBD,M
Boys,125,4,Diego Mexicano,Mission Sharyland,122.47,190.51,106.59,217.72,514.83,Single-ply,SBD,M
Boys,125,5,Luis Rodriguez,Edinburg,111.13,199.58,115.67,174.63,489.88,Single-ply,SBD,M
Boys,125,6,Rey Ramirez,Mission Veterans Memorial,112.94,183.7,92.99,192.78,469.47,Single-ply,SBD,M
Boys,125,7,Damien Gomez,Mission Veterans Memorial,124.38,183.7,92.99,192.78,469.47,Single-ply,SBD,M
Boys,125,8,Gabriel Cano,Edinburg,115.21,149.69,104.33,188.24,442.25,Single-ply,SBD,M
Boys,125,DQ,Gerardo Lopez,McAllen,122.92,210.92,156.49,,,Single-ply,SBD,M
Boys,125+,1,Michael Vega,McAllen Rowe,141.52,301.64,195.04,231.33,728.02,Single-ply,SBD,M
Boys,125+,2,Justin Garcia,Lyford,134.44,274.42,158.76,231.33,664.51,Single-ply,SBD,M
Boys,125+,3,Arturo Ochoa,McAllen,131.54,258.55,167.83,226.8,653.17,Single-ply,SBD,M
Boys,125+,4,Alex Rodriquez,La Joya,139.71,260.82,136.08,208.65,605.55,Single-ply,SBD,M
Boys,125+,5,Joseph Guerra,McAllen,141.07,233.6,151.95,210.92,596.47,Single-ply,SBD,M
Boys,125+,6,Moises Morales,La Joya Palmview,131.09,249.48,124.74,217.72,591.94,Single-ply,SBD,M
Boys,125+,7,Marco Rangel,La Joya Palmview,158.76,217.72,136.08,213.19,566.99,Single-ply,SBD,M
Boys,125+,8,Oscar Garcia,Mission Sharyland,137.53,136.08,106.59,149.69,392.36,Single-ply,SBD,M
Boys,125+,DQ,Francisco Saucedo,PSJA North,136.98,204.12,127.01,,,Single-ply,SBD,M
