Place,Event,Equipment,Division,Age,BodyweightKg,WeightClassKg,Name,BirthYear,Sex,Country,Squat1Kg,Squat2Kg,Squat3Kg,Squat4Kg,Best3SquatKg,Bench1Kg,Bench2Kg,Bench3Kg,Best3BenchKg,Deadlift1Kg,Deadlift2Kg,Deadlift3Kg,Deadlift4Kg,Best3DeadliftKg,TotalKg,Tested
1,SBD,Wraps,Open,30,,52,Hideaki Inaba,,M,Japan,180,195,-200,,195,-105,-105,105,105,200,220,,,220,520,No
2,SBD,Wraps,Open,,50.58,52,Ken McDowell,,M,USA,157.5,,,,157.5,85,90,-110,90,,182.5,-190,,182.5,430,No
3,SBD,Wraps,Open,,,52,Fernando Baez-Cruz,,M,Puerto Rico,150,-155,-155,,150,97.5,-105,-105,97.5,,177.5,-187.5,,177.5,425,No
4,SBD,Wraps,Open,,,52,Andre Walin,,M,England,,,,,157.5,,,,102.5,,,,,157.5,417.5,No
5,SBD,Wraps,Open,,,52,Roy Spring,,M,USA,137.5,142.5,-147.5,,142.5,92.5,-97.5,-97.5,92.5,,,,,170,405,No
6,SBD,Wraps,Open,,,52,Roger Hopkins,,M,USA,,,,,140,,,,92.5,,,,,170,402.5,No
7,SBD,Wraps,Open,,,52,Wayne Osborne,,M,Canada,,,,,127.5,,,,87.5,,,,,177.5,392.5,No
8,SBD,Wraps,Open,,,52,Ron Mercer,,M,USA,,,,,140,,,,85,,,,,162.5,387.5,No
9,SBD,Wraps,Open,,,52,John Deakin,,M,Australia,,,,,87.5,,,,77.5,,,,,155,320,No
1,SBD,Wraps,Open,48,,56,John Bojazi,,M,USA,,,,,157.5,,,,110,,,,,205,472.5,No
2,SBD,Wraps,Open,,,56,Vernon Bowser,,M,USA,,,,,165,,,,107.5,,,,,195,467.5,No
1,SBD,Wraps,Open,,,60,Allen Lord,,M,USA,182.5,192.5,-197.5,,192.5,,,,112.5,227.5,-242.5,-242.5,,227.5,532.5,No
2,SBD,Wraps,Open,,,60,Steve Hoxworth,,M,USA,-165,165,172.5,,172.5,,,,112.5,210,225,230,,230,515,No
3,SBD,Wraps,Open,,,60,Gary Wandell,,M,USA,,-177.5,177.5,,177.5,,117.5,-120,117.5,,217.5,-225,,217.5,512.5,No
4,SBD,Wraps,Open,,,60,Ken Thrush,,M,England,,,,,170,,,,115,,,,,220,505,No
5,SBD,Wraps,Open,,,60,Peter Weiss,,M,England,,,,,180,,,,117.5,,,-215,,207.5,505,No
6,SBD,Wraps,Open,,,60,Al Graig,,M,USA,,,,,162.5,,140,-142.5,140,,,,,195,497.5,No
7,SBD,Wraps,Open,,,60,Luis Ramos,,M,Puerto Rico,,,,,157.5,,,,117.5,,,,,215,490,No
1,SBD,Wraps,Open,,,67.5,Don Blue,,M,USA,205,217.5,-222.5,,217.5,137.5,150,155,155,265,-290,-290,,265,637.5,No
2,SBD,Wraps,Open,,,67.5,Jack Keammerer,,M,USA,202.5,215,220,,220,122.5,127.5,-132.5,127.5,260,270,,,270,617.5,No
3,SBD,Wraps,Open,,,67.5,Mike McHugh,,M,England,210,220,-225,,220,122.5,-130,-130,122.5,240,252.5,257.5,,257.5,600,No
4,SBD,Wraps,Open,,,67.5,Sergio Zeinstejer,,M,Argentina,,,,,185,,,,135,,,,,260,580,No
5,SBD,Wraps,Open,,,67.5,Robert Cortes,,M,USA,,,,,200,,,,140,,,,,235,575,No
6,SBD,Wraps,Open,,,67.5,Ron Garrow,,M,USA,,,,,190,,,,155,,,,,222.5,567.5,No
7,SBD,Wraps,Open,,,67.5,Mauro Di Pasquale,,M,Canada,,,,,200,,,,120,,,,,240,560,No
8,SBD,Wraps,Open,,,67.5,Jim Gallant,,M,Canada,,,,,192.5,,,,125,,,,,237.5,555,No
9,SBD,Wraps,Open,,,67.5,George Niesyty,,M,USA,,,,,190,,,,127.5,,,,,227.5,545,No
10,SBD,Wraps,Open,,,67.5,Clyde Wright,,M,USA,,,,,202.5,,,,132.5,,,,,205,540,No
11,SBD,Wraps,Open,,,67.5,Fernando Feliciano,,M,Puerto Rico,,,,,177.5,,,,120,,,,,227.5,525,No
12,SBD,Wraps,Open,,,67.5,Fumio Seki,,M,Japan,,,,,170,,,,125,,,,,205,500,No
1,SBD,Wraps,Open,,,75,Ron Collins,,M,England,,,,,270,,,,170,292.5,-307.5,,,292.5,732.5,No
2,SBD,Wraps,Open,,,75,Walter Thomas,,M,USA,,,,,272.5,,,,167.5,272.5,287.5,-302.5,,287.5,727.5,No
3,SBD,Wraps,Open,,,75,George Grawford,,M,USA,,,,,290,,,,165,240,250,262.5,,262.5,717.5,No
4,SBD,Wraps,Open,,,75,Joe Spack,,M,USA,,,,,210,,,,135,,295,-305,-307.5,295,640,No
5,SBD,Wraps,Open,,,75,Mike Lukich,,M,Canada,,,,,195,,,,122.5,,,,,252.5,570,No
6,SBD,Wraps,Open,,,75,Chiwanga,,M,Zambia,,,,,182.5,,,,120,,,,,227.5,530,No
DQ,SBD,Wraps,Open,,,75,Nick Petrillo,,M,Argentina,,,,,180,,,,140,,,,,,,No
1,SBD,Wraps,Open,,,82.5,Ernie Frantz,,M,USA,255,265,272.5,,272.5,190,-197.5,-197.5,190,285,302.5,-315,,302.5,765,No
2,SBD,Wraps,Open,,,82.5,Frank Barefield,,M,USA,270,-275,,,270,,,185,185,,,,,285,740,No
3,SBD,Wraps,Open,,,82.5,Dennis Wright,,M,USA,,,,,250,-177.5,177.5,-185,177.5,,,,,267.5,695,No
4,SBD,Wraps,Open,,,82.5,Eamon Toal,,M,England,,,,,257.5,,,,165,,295,-317.5,,295,717.5,No
5,SBD,Wraps,Open,,,82.5,Felix Gomes,,M,USA,,,,,252.5,,,,165,,,,,287.5,705,No
6,SBD,Wraps,Open,,,82.5,Mike Lettieri,,M,USA,,,,,242.5,,,,172.5,,,,,287.5,702.5,No
7,SBD,Wraps,Open,,,82.5,Laurie Butler,,M,Australia,,,,,200,,,,157.5,,,,,240,597.5,No
1,SBD,Wraps,Open,,,90,Paul Woods,,M,USA,255,-265,-272.5,,255,207.5,215,-220,215,317.5,335,,,335,805,No
2,SBD,Wraps,Open,,,90,Edward Ravensroft,,M,USA,295,-302.5,-302.5,,295,215,222.5,-227.5,222.5,272.5,287.5,-295,,287.5,805,No
3,SBD,Wraps,Open,,,90,Tony Fratto,,M,USA,,,,,312.5,,,,167.5,,,,,295,775,No
4,SBD,Wraps,Open,,,90,Tom Farchione,,M,USA,,,,,297.5,,,,180,,,,,295,772.5,No
5,SBD,Wraps,Open,,,90,Vince Anello,,M,USA,,,,,240,,,,180,342.5,-357.5,-357.5,,342.5,762.5,No
6,SBD,Wraps,Open,,,90,Larry Russell,,M,USA,,,,,260,,,,202.5,,,,,295,757.5,No
7,SBD,Wraps,Open,,,90,Edmund Martz,,M,USA,,,,,265,,,,170,,,-340,,317.5,752.5,No
8,SBD,Wraps,Open,,,90,Juan Nicolini,,M,Canada,,,,,230,,,,160,,,,,250,640,No
9,SBD,Wraps,Open,,,90,Karl Hult,,M,Canada,,,,,217.5,,,,167.5,,,,,250,635,No
10,SBD,Wraps,Open,,,90,Cedric Demetrius,,M,Jamaica,,,,,217.5,,,,140,,,,,272.5,630,No
1,SBD,Wraps,Open,,,100,Larry Pacifico,,M,USA,305,320,-335,-335,320,237.5,250,257.5,257.5,307.5,-332.5,-332.5,,307.5,885,No
2,SBD,Wraps,Open,,,100,Marvin Phillips,,M,USA,295,317.5,332.5,,332.5,192.5,207.5,-212.5,207.5,-287.5,287.5,-292.5,,287.5,827.5,No
3,SBD,Wraps,Open,,,100,Mike MacDonald,,M,USA,,,,,252.5,242.5,255,260,260,252.5,272.5,290,,290,802.5,No
4,SBD,Wraps,Open,,,100,Ulf Morin,,M,Sweden,,,,,272.5,,,,180,,,,,287.5,740,No
5,SBD,Wraps,Open,,,100,Tom Muscianisi,,M,USA,,,,,282.5,,,,190,,,,,257.5,730,No
6,SBD,Wraps,Open,,,100,Carl Lewis,,M,England,,,,,240,,,,180,,,,,282.5,702.5,No
DQ,SBD,Wraps,Open,,,100,Pat O'Brien,,M,USA,,,,,272.5,,,,150,,,,,,,No
DQ,SBD,Wraps,Open,,,100,Ron Panissidi,,M,USA,,,,,250,,,,,,,,,,,No
DQ,SBD,Wraps,Open,,,100,Maloud,,M,Zambia,,,,,,,,,,,,,,,,No
1,SBD,Wraps,Open,,,110,John Kuc,1947,M,USA,317.5,325,-340,,325,,,,222.5,355,375,385,,385,932.5,No
2,SBD,Wraps,Open,,,110,Bill Seno,,M,USA,290,-300,-300,,290,235,242.5,-245,242.5,295,305,,,305,837.5,No
3,SBD,Wraps,Open,,,110,Billy Horwitz,,M,USA,-300,300,-312.5,,300,235,242.5,-245,242.5,295,-300,,,295,837.5,No
DQ,SBD,Wraps,Open,,,110,Tony Fitton,,M,England,,,,,,,,,,,,,,,,No
DQ,SBD,Wraps,Open,,,110,John Tonti,,M,USA,,,,,,,,,,,,,,,,No
DQ,SBD,Wraps,Open,,,110,Dan Hammock,,M,USA,,,,,,,,,,,,,,,,No
1,SBD,Raw,Open,,,110+,Don Reinhoudt,,M,USA,377.5,410,,,410,255,-275,-275,255,342.5,377.5,,,377.5,1042.5,No
2,SBD,Wraps,Open,,,110+,Doyle Kenady,,M,USA,365,-387.5,-387.5,,365,222.5,235,-240,235,327.5,340,350,,350,950,No
3,SBD,Wraps,Open,19,,110+,Joseph White,,M,USA,362.5,-380,-387.5,,362.5,240,-250,-255,240,285,327.5,-340,,327.5,930,No
4,SBD,Wraps,Open,,,110+,Wayne Bouvier,,M,USA,,,,,305,,,,230,,,,,295,830,No
5,SBD,Wraps,Open,,,110+,Brian Saunders,,M,England,,,,,292.5,,,,197.5,,,,,305,795,No
